<!DOCTYPE svg PUBLIC "-//W3C//DTD SVG 1.1//EN" "http://www.w3.org/Graphics/SVG/1.1/DTD/svg11.dtd">
<svg version="1.1" id="venueMap-1902-415" xmlns="http://www.w3.org/2000/svg" xmlns:xlink="http://www.w3.org/1999/xlink" x="0px"
	 y="0px" width="415px" height="370px" viewBox="0 0 415 370" enable-background="new 0 0 415 370" xml:space="preserve">
	<polygon fill="#8BC34A" points="284.346,84.73 285.912,73.194 275.447,73.194 275.447,100.058 290.032,84.73 	"/>
	<polygon fill="#8BC34A" points="83.031,73.194 83.031,90.169 96.297,90.169 96.297,97.091 99.676,97.091 99.676,73.194 	"/>
	<rect x="178.208" y="82.753" fill="#8BC34A" width="23.65" height="19.283"/>
	<rect x="229.299" y="82.753" fill="#8BC34A" width="23.65" height="19.283"/>
	<rect x="204.33" y="82.753" fill="#8BC34A" width="22.497" height="19.283"/>
	<rect x="255.422" y="73.194" fill="#8BC34A" width="17.552" height="28.924"/>
	<rect x="124.975" y="82.753" fill="#8BC34A" width="24.969" height="19.283"/>
	<polygon fill="#8BC34A" points="102.148,73.194 102.148,97.091 104.949,102.036 122.502,102.036 122.502,73.194 	"/>
	<rect x="152.415" y="82.753" fill="#8BC34A" width="23.32" height="19.283"/>
	<rect x="202.683" y="266.929" fill="#E91E63" width="15.657" height="47.878"/>
	<rect x="220.812" y="266.929" fill="#E91E63" width="17.058" height="47.878"/>
	<rect x="163.128" y="266.929" fill="#E91E63" width="17.305" height="47.878"/>
	<polygon fill="#E91E63" points="94.897,266.929 94.897,282.174 114.674,314.889 121.102,314.889 121.102,266.929 	"/>
	<rect x="142.28" y="266.929" fill="#E91E63" width="18.376" height="47.878"/>
	<rect x="123.573" y="266.929" fill="#E91E63" width="16.233" height="47.878"/>
	<rect x="182.906" y="266.929" fill="#E91E63" width="17.305" height="47.878"/>
	<rect x="240.342" y="266.929" fill="#E91E63" width="19.53" height="47.878"/>
	<polygon fill="#E91E63" points="262.262,266.929 262.262,314.889 266.629,314.889 287.231,286.294 287.231,266.929 	"/>
	<rect x="225.509" y="250.777" fill="#2EC981" width="18.706" height="13.762"/>
	<rect x="94.897" y="250.777" fill="#2EC981" width="23.65" height="13.762"/>
	<rect x="184.142" y="250.777" fill="#2EC981" width="13.844" height="13.762"/>
	<rect x="121.019" y="250.777" fill="#2EC981" width="16.069" height="13.762"/>
	<rect x="246.687" y="250.777" fill="#2EC981" width="17.059" height="13.762"/>
	<rect x="266.217" y="250.777" fill="#2EC981" width="20.931" height="13.762"/>
	<rect x="161.892" y="250.777" fill="#2EC981" width="19.777" height="13.762"/>
	<rect x="200.457" y="250.777" fill="#2EC981" width="22.497" height="13.762"/>
	<rect x="139.56" y="250.777" fill="#2EC981" width="19.86" height="13.762"/>
	<rect x="141.538" y="240.146" fill="#2196F3" width="20.354" height="8.076"/>
	<rect x="164.365" y="240.146" fill="#2196F3" width="14.833" height="8.076"/>
	<rect x="203.919" y="240.146" fill="#2196F3" width="14.173" height="8.076"/>
	<rect x="220.565" y="240.146" fill="#2196F3" width="19.694" height="8.076"/>
	<rect x="181.669" y="240.146" fill="#2196F3" width="19.777" height="8.076"/>
	<rect x="242.732" y="240.146" fill="#2196F3" width="14.915" height="8.076"/>
	<rect x="126.622" y="240.146" fill="#2196F3" width="12.443" height="8.076"/>
	<rect x="173.017" y="203.889" fill="#8BC34A" width="16.811" height="33.786"/>
	<rect x="268.195" y="220.369" fill="#8BC34A" width="18.953" height="27.854"/>
	<rect x="155.299" y="203.889" fill="#8BC34A" width="15.245" height="33.786"/>
	<rect x="211.747" y="203.889" fill="#8BC34A" width="17.388" height="33.786"/>
	<polygon fill="#8BC34A" points="94.897,233.061 94.897,248.305 116.405,248.305 116.405,211.553 	"/>
	<rect x="137.253" y="203.889" fill="#8BC34A" width="15.574" height="33.786"/>
	<polygon fill="#8BC34A" points="123.986,203.889 118.876,209.08 118.876,248.305 124.151,248.305 124.151,237.675 134.781,237.675 
		134.781,203.889 	"/>
	<rect x="192.299" y="203.889" fill="#8BC34A" width="16.976" height="33.786"/>
	<rect x="231.607" y="203.889" fill="#8BC34A" width="15.904" height="33.786"/>
	<polygon fill="#8BC34A" points="258.389,203.889 249.984,203.889 249.984,237.675 260.119,237.675 260.119,248.305 
		265.723,248.305 265.723,212.211 	"/>
	<rect x="267.948" y="130.136" fill="#FF9800" width="43.263" height="17.553"/>
	<rect x="267.948" y="150.243" fill="#FF9800" width="43.263" height="16.481"/>
	<rect x="267.948" y="113.408" fill="#FF9800" width="43.263" height="14.256"/>
	<rect x="267.948" y="188.149" fill="#FF9800" width="43.263" height="16.481"/>
	<rect x="267.948" y="169.196" fill="#FF9800" width="43.263" height="16.482"/>
	<polygon fill="#9C27B0" points="353.896,85.225 310.798,85.225 309.974,89.922 304.041,89.922 304.041,106.238 313.683,106.238 
		313.683,110.936 353.896,110.936 	"/>
	<rect x="313.683" y="113.408" fill="#9C27B0" width="49.03" height="14.256"/>
	<polygon fill="#9C27B0" points="313.683,207.927 304.041,207.927 304.041,225.809 353.896,234.131 353.896,207.103 
		313.683,207.103 	"/>
	<rect x="313.683" y="188.149" fill="#9C27B0" width="49.854" height="16.481"/>
	<rect x="313.683" y="150.243" fill="#9C27B0" width="22.002" height="16.481"/>
	<polygon fill="#9C27B0" points="343.596,140.024 343.596,130.136 313.683,130.136 313.683,147.771 335.602,147.771 
		335.602,140.024 	"/>
	<polygon fill="#9C27B0" points="335.602,178.673 335.602,169.196 313.683,169.196 313.683,185.678 342.113,185.678 
		342.113,178.673 	"/>
	<rect x="338.074" y="150.243" fill="#9C27B0" width="28.677" height="16.481"/>
	<polygon fill="#9C27B0" points="362.713,133.844 362.713,130.136 346.068,130.136 346.068,142.497 338.074,142.497 
		338.074,147.771 366.834,147.771 366.834,133.844 	"/>
	<polygon fill="#9C27B0" points="338.074,176.2 344.584,176.2 344.584,185.678 363.537,185.678 363.537,181.145 366.834,181.145 
		366.834,169.196 338.074,169.196 	"/>
	<rect x="89.457" y="182.216" fill="#00BCD4" width="24.393" height="16.729"/>
	<rect x="89.457" y="108.051" fill="#FF9800" width="24.393" height="15.657"/>
	<rect x="89.457" y="144.475" fill="#FF9800" width="24.393" height="15.904"/>
	<rect x="89.457" y="126.181" fill="#FF9800" width="24.393" height="15.904"/>
	<polygon fill="#00BCD4" points="89.457,217.65 101.241,217.65 113.85,205.949 113.85,201.334 89.457,201.334 	"/>
	<rect x="89.457" y="99.646" fill="#FF9800" width="10.219" height="5.933"/>
	<rect x="57.897" y="108.051" fill="#9C27B0" width="29.089" height="15.657"/>
	<polygon fill="#9C27B0" points="86.986,93.63 77.674,93.63 77.674,85.143 57.897,85.143 57.897,105.579 86.986,105.579 	"/>
	<rect x="57.897" y="201.334" fill="#9C27B0" width="29.089" height="16.316"/>
	<rect x="57.897" y="220.123" fill="#9C27B0" width="29.089" height="17.552"/>
	<rect x="57.897" y="182.216" fill="#9C27B0" width="29.089" height="16.729"/>
	<rect x="57.897" y="126.181" fill="#9C27B0" width="29.089" height="15.904"/>
	<rect x="57.897" y="162.851" fill="#9C27B0" width="29.089" height="16.894"/>
	<rect x="57.897" y="144.475" fill="#9C27B0" width="29.089" height="15.904"/>
	<polygon fill="#00BCD4" points="98.605,220.123 89.457,220.123 89.457,228.445 90.199,228.445 90.199,227.951 	"/>
	<polygon fill="#FF9800" points="267.948,207.103 267.948,209.245 275.365,209.245 277.671,214.271 291.269,214.271 
		291.269,223.666 301.569,225.396 301.569,214.271 301.569,213.695 301.569,207.103 	"/>
	<rect x="89.457" y="162.851" fill="#FF9800" width="24.393" height="7.005"/>
	<rect x="89.457" y="172.327" fill="#00BCD4" width="24.393" height="7.417"/>
	<polygon fill="#FF9800" points="301.569,89.922 298.108,89.922 289.126,98.822 301.569,98.822 	"/>
	<polygon fill="#FF9800" points="301.569,108.71 301.569,101.294 286.572,101.294 280.803,106.98 267.948,106.98 267.948,110.936 
		311.21,110.936 311.21,108.71 	"/>
	<rect x="124.975" y="73.194" fill="#2EC981" width="127.975" height="6.922"/>
	<rect x="178.208" y="41.797" fill="#E91E63" width="23.65" height="13.185"/>
	<rect x="178.208" y="57.537" fill="#2EC981" width="23.65" height="13.185"/>
	<rect x="102.148" y="57.537" fill="#2EC981" width="20.354" height="13.185"/>
	<rect x="102.148" y="41.797" fill="#E91E63" width="20.354" height="13.185"/>
	<rect x="255.422" y="41.797" fill="#E91E63" width="17.552" height="13.185"/>
	<rect x="255.422" y="57.537" fill="#2EC981" width="17.552" height="13.185"/>
	<polygon fill="#E91E63" points="99.676,41.797 85.008,41.797 88.634,55.064 99.676,55.064 	"/>
	<polygon fill="#2EC981" points="92.919,70.722 99.676,70.722 99.676,57.537 89.293,57.537 	"/>
	<polygon fill="#2EC981" points="275.447,70.722 286.241,70.722 287.972,57.537 275.447,57.537 	"/>
	<polygon fill="#E91E63" points="290.032,41.797 275.447,41.797 275.447,55.064 288.302,55.064 	"/>
	<rect x="204.33" y="57.537" fill="#2EC981" width="22.497" height="13.185"/>
	<rect x="204.33" y="41.797" fill="#E91E63" width="22.497" height="13.185"/>
	<rect x="152.415" y="57.537" fill="#2EC981" width="23.32" height="13.185"/>
	<rect x="152.415" y="41.797" fill="#E91E63" width="23.32" height="13.185"/>
	<rect x="229.299" y="41.797" fill="#E91E63" width="23.65" height="13.185"/>
	<rect x="229.299" y="57.537" fill="#2EC981" width="23.65" height="13.185"/>
	<rect x="124.975" y="57.537" fill="#2EC981" width="24.969" height="13.185"/>
	<rect x="124.975" y="41.797" fill="#E91E63" width="24.969" height="13.185"/>
</svg>
