<!DOCTYPE svg PUBLIC "-//W3C//DTD SVG 1.1//EN" "http://www.w3.org/Graphics/SVG/1.1/DTD/svg11.dtd" [
    <!ENTITY ns_flows "http://ns.adobe.com/Flows/1.0/">
    <!ENTITY ns_extend "http://ns.adobe.com/Extensibility/1.0/">
    <!ENTITY ns_ai "http://ns.adobe.com/AdobeIllustrator/10.0/">
    <!ENTITY ns_graphs "http://ns.adobe.com/Graphs/1.0/">
]>
<svg  width="100%" version="1.1" xmlns:x="&ns_extend;" xmlns:i="&ns_ai;" xmlns:graph="&ns_graphs;"
	 xmlns="http://www.w3.org/2000/svg" xmlns:xlink="http://www.w3.org/1999/xlink" x="0px" y="0px"
	 viewBox="0 0 2256.226 1755.176" enable-background="new 0 0 2256.226 1755.176" xml:space="preserve">
<metadata><?xpacket begin="﻿" id="W5M0MpCehiHzreSzNTczkc9d"?>
<x:xmpmeta xmlns:x="adobe:ns:meta/" x:xmptk="Adobe XMP Core 5.3-c011 66.145661, 2012/02/06-14:56:27        ">
   <rdf:RDF xmlns:rdf="http://www.w3.org/1999/02/22-rdf-syntax-ns#">
      <rdf:Description rdf:about=""
            xmlns:dc="http://purl.org/dc/elements/1.1/">
         <dc:format>image/svg+xml</dc:format>
         <dc:title>
            <rdf:Alt>
               <rdf:li xml:lang="x-default">Print</rdf:li>
            </rdf:Alt>
         </dc:title>
      </rdf:Description>
      <rdf:Description rdf:about=""
            xmlns:xmp="http://ns.adobe.com/xap/1.0/"
            xmlns:xmpGImg="http://ns.adobe.com/xap/1.0/g/img/">
         <xmp:MetadataDate>2016-05-20T15:24:34+01:00</xmp:MetadataDate>
         <xmp:ModifyDate>2016-05-20T15:24:34+01:00</xmp:ModifyDate>
         <xmp:CreateDate>2016-05-20T15:24:34+01:00</xmp:CreateDate>
         <xmp:CreatorTool>Adobe Illustrator CS6 (Macintosh)</xmp:CreatorTool>
         <xmp:Thumbnails>
            <rdf:Alt>
               <rdf:li rdf:parseType="Resource">
                  <xmpGImg:width>256</xmpGImg:width>
                  <xmpGImg:height>200</xmpGImg:height>
                  <xmpGImg:format>JPEG</xmpGImg:format>
                  <xmpGImg:image>/9j/4AAQSkZJRgABAgEASABIAAD/7QAsUGhvdG9zaG9wIDMuMAA4QklNA+0AAAAAABAASAAAAAEA&#xA;AQBIAAAAAQAB/+4ADkFkb2JlAGTAAAAAAf/bAIQABgQEBAUEBgUFBgkGBQYJCwgGBggLDAoKCwoK&#xA;DBAMDAwMDAwQDA4PEA8ODBMTFBQTExwbGxscHx8fHx8fHx8fHwEHBwcNDA0YEBAYGhURFRofHx8f&#xA;Hx8fHx8fHx8fHx8fHx8fHx8fHx8fHx8fHx8fHx8fHx8fHx8fHx8fHx8fHx8f/8AAEQgAyAEAAwER&#xA;AAIRAQMRAf/EAaIAAAAHAQEBAQEAAAAAAAAAAAQFAwIGAQAHCAkKCwEAAgIDAQEBAQEAAAAAAAAA&#xA;AQACAwQFBgcICQoLEAACAQMDAgQCBgcDBAIGAnMBAgMRBAAFIRIxQVEGE2EicYEUMpGhBxWxQiPB&#xA;UtHhMxZi8CRygvElQzRTkqKyY3PCNUQnk6OzNhdUZHTD0uIIJoMJChgZhJRFRqS0VtNVKBry4/PE&#xA;1OT0ZXWFlaW1xdXl9WZ2hpamtsbW5vY3R1dnd4eXp7fH1+f3OEhYaHiImKi4yNjo+Ck5SVlpeYmZ&#xA;qbnJ2en5KjpKWmp6ipqqusra6voRAAICAQIDBQUEBQYECAMDbQEAAhEDBCESMUEFURNhIgZxgZEy&#xA;obHwFMHR4SNCFVJicvEzJDRDghaSUyWiY7LCB3PSNeJEgxdUkwgJChgZJjZFGidkdFU38qOzwygp&#xA;0+PzhJSktMTU5PRldYWVpbXF1eX1RlZmdoaWprbG1ub2R1dnd4eXp7fH1+f3OEhYaHiImKi4yNjo&#xA;+DlJWWl5iZmpucnZ6fkqOkpaanqKmqq6ytrq+v/aAAwDAQACEQMRAD8A9U4q7FUu1zXbLR7M3Fy1&#xA;WO0UI+07eA/rmLq9ZDBDil8B3uTpdJPNLhj8T3MAh8z6xq7Tw/WZILsky2awu0asAPih+Eip4iq1&#xA;71HfMDsXtfxMphlr1cvLybvaDseUcAnhMgYc6PPzS/8ATut/9XC5/wCR0n9c7Hwo9wfPfzWX+fL5&#xA;l36d1v8A6uFz/wAjpP64+FHuC/msv8+XzLv07rf/AFcLn/kdJ/XHwo9wX81l/ny+Zd+ndb/6uFz/&#xA;AMjpP64+FHuC/msv8+XzKP0LWNXl1a2SS+uHRmPJWlcg7HqCchlxxETsHI0moyHKAZS+ZQH6d1v/&#xA;AKuFz/yOk/rk/Cj3Bx/zWX+fL5l36d1v/q4XP/I6T+uPhR7gv5rL/Pl8y79O63/1cLn/AJHSf1x8&#xA;KPcF/NZf58vmUZq2s6wmoTIl9cKopRVlcAfCOwOQx448PIN2p1OQTIEpfMoP9O63/wBXC5/5HSf1&#xA;yfhR7g0/msv8+XzKLg1nVzpt05vrgurwhWMr1APOtDXvTIHHHiGwboanJ4cjxS5jqfNCfp3W/wDq&#xA;4XP/ACOk/rk/Cj3Bp/NZf58vmXfp3W/+rhc/8jpP64+FHuC/msv8+XzKM1XWdYS/lVL64VRxoqyu&#xA;B9keByGPHGuQbtRqcgmQJS+ZQf6d1v8A6uFz/wAjpP65Pwo9wafzWX+fL5lFWmtaw1velr+4JSEF&#xA;SZX2PrRio38DkZY42Nh+A249Tl4ZeqXLvP8AOCF/Tut/9XC5/wCR0n9cl4Ue4NX5rL/Pl8y79O63&#xA;/wBXC5/5HSf1x8KPcF/NZf58vmUdq2savHNAEvrhAbaBiFlcVZolJOx6k5DHjjR2HMt+o1OQEVKX&#xA;0x6nuQP6d1v/AKuFz/yOk/rk/Cj3Bo/NZf58vmXfp3W/+rhc/wDI6T+uPhR7gv5rL/Pl8yjItZ1c&#xA;6RcyG+uDItxbqr+q9QGSYkA178RkDjjxDYcj+hujqcvhE8Uvqj1PdJB/p3W/+rhc/wDI6T+uT8KP&#xA;cGn81l/ny+ZbXW9cYhVv7osdgBNJUn78fCh3BRqsv86XzKYyea9U0i5htxcPdSQnlf8AquZAXP8A&#xA;upSeXHgO4/a9hnG9qdr8Obhx1wx5+b6P2L2Kfy/FlJM58t+T0HSNWtNVsku7VuSNsy91YdVYdiM2&#xA;en1EcsOKLhajTyxT4ZI3L2h2KuxVLtd12z0eyNxcGrnaGIfadvAfxzE1mrhghxS+A73K0mllmlwx&#xA;+JeRavq95qt411dNVjsiD7KL4DOJ1OpnmnxSex0+njhjwxQkckkciyRsUkQhkdTQgg1BByiMiDY5&#xA;t0ogijyehadql5qlkl3BK/qD4LqJXI4SAdQK/ZfqPu7ZssmTPkHHCUvMcXI/qPMfJ57LghilwkDy&#xA;26fsRH+5b/fkn/Bn+uVf4V/Ol/pv2tf7ruHyd/uW/wB+Sf8ABn+uP+Ffzpf6b9q/uu4fJ3+5b/fk&#xA;n/Bn+uP+Ffzpf6b9q/uu4fJWsjqIuozLI/pg/Fyfbp88yNIdQMg4pS4f637WvKMfCaAv3Ifhqf8A&#xA;NJ/wf9uU8es/nT/037WXBh7o/J3DU/5pP+D/ALcePWfzp/6b9q8GHuj8ncNT/mk/4P8Atx49Z/On&#xA;/pv2rwYe6PySDWtH1SfVLiWOBnR2qHBBrsPfPQ9LrMQxREpi6HV4LXaDNLNIxgatA/oDWP8Allf8&#xA;P65kfncP8+PzcX+TdR/Mki4dF1RdOuozbsHd4iq7VIXnXv75A63DxD1x+bdDs/P4chwS6fpQn6A1&#xA;j/llf8P65P8AO4f58fm0/wAm6j+ZJ36A1j/llf8AD+uP53D/AD4/Nf5N1H8ySL1TRdUlvpHjt2ZD&#xA;xowp2UDxyGPW4QPrj827Udn5zMkQkhP0BrH/ACyv+H9cn+dw/wA+Pzaf5N1H8ySJtdE1VYLxWt2B&#xA;khCoNtz60bU6+AORlrcNj1x+bbj7PzgS9Etx+kIb9Aax/wAsr/h/XJfncP8APj82r+TdR/Mk79Aa&#xA;x/yyv+H9cfzuH+fH5r/Juo/mSZcsWoJb2qIWXhbwqyhqUZYwCOvjnC9rZc51EjilLg8pbfe932di&#xA;hHBATiOIAcw1w1P+aT/g/wC3Ndx6z+dP/Tftczgw90fk7hqf80n/AAf9uPHrP50/9N+1eDD3R+Ss&#xA;n6RFrIObiQuhX496APXv7jLRLUnGQZS4uKNerpUr6+5jw4hIUBVHp7lP/ct/vyT/AIM/1yj/AAr+&#xA;dL/TftbP3XcPkgtZ1e90qxMjzP8AWrgFLVCxNOzSHf8AZrt7/LL8c82KPFOUrP0iz8T8Onn7m7T6&#xA;eGWdADhHP9X46MBzCd+mega/eaNeCaA8omoJ4CfhcD9RHY5laTVywyscuocXV6SOaNHn0L13TNTt&#xA;NSs47u1flE46d1PdWHYjOxwZ45YiUeTx2fBLFIxlzRWXNKA1rWrLSLJrm5b2jjH2nbsAMxtXq4YI&#xA;cUnJ0ullmlwxeQ6zrF5q1891ctudo4/2UXsozh9VqZZp8Uv7HstNpo4YcMUDmO3uxVNPLl/Na6kk&#xA;ao0sNyRFNCm5YE7FR/Mp3GZGml6uGrjLYj8dR0cXWYhKF8jHcFl00RikKEhgN1ZdwwO4IPgRlOfC&#xA;cUzE9HUY8gnESHVZlTN2KuxV2KuxV2KuxV2KuxV2KuxV2KuxV2KuxV2KuxV2KuxV2KqkEPqMa14K&#xA;KuRuadKAd2Y7AeOZGl0xyz4Ry6+78cmvLkEBZYTq2oTX99JPKOAHwRxdo0XZUHy7++X5Z8R7gNgO&#xA;4O70+EY4UP7UHlbc7FU28u+YbvRbwSxkvbuQJ4OzDxHuO2Zej1ksErHLqHE1mjjnjR59C9b0/UbT&#xA;ULVLm1kEkTioI6j2OdjhzRyR4onZ47NhljlwyG7zXzQJtW1e6+rzNNPaySQ/UXoHAjYjlDTZwaVI&#xA;+18xvnJdoXmyy4TZiSOH3d3f971GhrDjjxChIA8Xv7+77mL5qHauxVfDDLPKkMKGSWQhURRUknsM&#xA;lGJkaG5KJSERZ2ATSWWLS4ntbVxJfSArdXSmoQHrFEf+JN36DbrvtPpxhHfM8z3eQ/SXgu2e2TmP&#xA;h49oD7Ubo2uRx6ZNBcpLPJZo01skIUyPGvxPEoYrUjdlFfEeGWS0cdRUSeGQ5Hy7mHYepJmMJIHE&#xA;dr5JP/ytzyp/yzX/APwEP/VXJ/6Gv6f2PefyDqO+HzP/ABLv+VueVP8Almv/APgIf+quP+hr+n9i&#xA;/wAg6jvh8z/xKN0X8x/Lerapb6dBDeJLcMVR3SLiKAtvSQntgl7N0L4/saNT2Rnw4zMmFDzP6kF/&#xA;ytzyp/yzX/8AwEP/AFVw/wChr+n9jf8AyDqO+HzP/Eu/5W55U/5Zr/8A4CH/AKq4/wChr+n9i/yD&#xA;qO+HzP8AxLv+VueVP+Wa/wD+Ah/6q4/6Gv6f2L/IOo74fM/8SitU/Mvyzp1/LZTQXryRU5MiRcTy&#xA;UNtWQeOCPs3Yvj+xpwdj58sBMGFHzP6kL/ytzyp/yzX/APwEP/VXD/oa/p/Y3fyDqO+HzP8AxKKg&#xA;/MvyzNp11fLBeiK0eJJFKRciZuXGn7ym3A1wH2b3rj+xpl2PnjOMLhcr6npXl5oX/lbnlT/lmv8A&#xA;/gIf+quH/Q1/T+xu/kHUd8Pmf+Jd/wArc8qf8s1//wABD/1Vx/0Nf0/sX+QdR3w+Z/4lFap+Zfln&#xA;Tr6SzmgvXki41ZEi4/EoYdZB/Ngj7N2L4/sacHY+fLASBhR8z+pC/wDK3PKn/LNf/wDAQ/8AVXD/&#xA;AKGv6f2N38g6jvh8z/xKItfzP8sXEF5MkF6Fs4RPICkVSpljhov7zrylBx/0Nf0/sap9jZ4mIJh6&#xA;jXM9xPd5If8A5W55U/5Zr/8A4CH/AKq4/wChr+n9jb/IOo74fM/8S7/lbnlT/lmv/wDgIf8Aqrj/&#xA;AKGv6f2L/IOo74fM/wDEozVPzI8tadLBHNDeubi3hulKJFslxGJFBrINwG3wD2bv+P7GjB2RnyAk&#xA;GG0jHmehruQf/K3PKn/LNf8A/AQ/9VcP+hr+n9jf/IOo74fM/wDEou4/Mny3Bp1pfSW96EvWlECc&#xA;IeXGEqpc/vPsliVH+qcA9m964/saYdj55TlAGHpq9z16cvxYQ0X5r+WJZEijtNQeSQhURY4SSxNA&#xA;APV74f8AQ1/TbZdhZwLMoV7z+pNPMmrhwun23JI4yHuSSKmUD7NVJFI+mx619sGPTxwDgib7z+O5&#xA;867U1niT4QfTFB/Dq60NF1VRseguAOx/4t/4l/rdadTpvF9Ufr+/9v3+92/YnbfDWLKduhSoggkE&#xA;UI2IOad7N2KuxVlXky6vtMvIXmlENnesESB6lpWY8VZEG4FerHb6c23ZuSeKQJNRl07/AMd7qe0s&#xA;cMsSALlHr3e/9SSa8zL5g1FlJDC7mII2IIkbNVrDWef9eX3ufpBeGH9Ufcv+uWuoDjqB9K6/Yv1F&#xA;an/i9R9r/XHxf62S8WOT69pfzv8Aiu/38/ejw5Y/o3j/ADf+J/Vy9yHm0q+iuY7f0zI8x/0do/jW&#xA;UE0BjYbMMqlp5iQjV3yrr7myOeBiZXVc76e9GSyxaXE9rauJL6QFbq6U1CA9Yoj/AMSbv0G3Xdaf&#xA;TjCO+Z5nu8h+kvDds9snMfDx7QH2pVlrzi6KWSGVJYmKSRkMjDqCDUHCDRsJBINhWf8ALXyzrPLV&#xA;orie2+sOTcWsIThFMd2C1GysfiX227Zm5+2ThiCY2D976V2V7T5p4hGomUdt7Wf8qg8vf8t93/wM&#xA;X9Mxv9Esf5js/wCX8/8ANh9qaeW/yv0DT9btL2G+u3mhYlUdY+JJUjcjfvl2Lt6GWQhwnf8AHe4m&#xA;t7azZMUomMaPvSv/AJVB5e/5b7v/AIGL+mU/6JY/zHL/AJfz/wA2H2tj8n/LVN9QvQfZIskPaWH8&#xA;0/j4o/0QZ/5sPtbP5P8AlntqN7X/AFIsP+iTH/NP4+K/6INR/Nh9rAvP0Sw+b9SiUkrHIqAnr8KK&#xA;M6DBK4A97vuyZXpoHy/Sx/LXYp3p3/KK61/xnsv+Z2Ql9QcDN/jGP3T/AN6kmTc92Kp35z/5SS7+&#xA;UX/JlMrxfSHA7N/uI/H7ykmWOemujf8AHO13/mBT/qOtsB6OJqfrx/1z/uJpVhct2KvZf+Ve+Xta&#xA;03SL+9nu0uH0yyVlhMQSi26AU5Ixzn9Z20NPkMOG3ix2tmwzyQgI14k+d/zj5qf/ACqHyoWCrc35&#xA;J2A5w1r/AMi8xv8ARJZoQZ/y/qOoh8j+tGaz+V3lu6mgi+u3UUVjAlpCiJERSMks1dql5GZyadTl&#xA;0/aCEJGNE0fx1aNN23niCeGJMzxdev6hQQcfkjQPK0sepW1xNc37qy2STqgEZOxnovdRUJX9rftl&#xA;47U8XHYFXydT277SZpYjhoRMu6+SEzBeCbBKkEGhG4I61xVNiF1pey6uo+QuQP8Amb/xL59aNTpv&#xA;F9Ufr/3X7fv971nYvbXDWLKduhS22srq5n9CCMtIK8h0CgdSxNAoHcnNTDHKRoDd7CeWMRZOyNMm&#xA;n6dtDxvb0dZiKwRn/IU/3h92+H2PXLrhj5eqXf0Hu7/jt5NFTyc/THu6n393w381mlzzXGv2U07t&#xA;JK9zCWdjUn4x3ODBIyzRJ3PEPvTngI4ZAChwn7lvmD/jval/zFT/APJxso1v99P+tL72Wj/uYf1R&#xA;9yAzGchO/L+ozW1tqINZYEt+folmAq80UTFSpBUlJCKjNt2VkIlIdOG/tA+4vP8AtHUcHFW9gfBD&#xA;TabHLE1zpzNNCg5TQtT1oh/lAfaX/KX6aZtDCxcf2vBmFi4pflTU7FWXeQtI1C5mlmI4abIpSUn9&#xA;thupT3U9/o75kYtJ40SJfSfxs7Hs+U4T4hyZn/hiz/37J/wv9Mh/oexfzpfZ+p3n5+fcFSDy9awz&#xA;LKsjkqagGlP1Zbh7DxY5iQlLb3fqYz1spCqCn/hiz/37J/wv9Mq/0PYv50vs/Uy/Pz7g7/DFn/v2&#xA;T/hf6Y/6HsX86X2fqX8/PuDv8MWf+/ZP+F/pj/oexfzpfZ+pfz8+4MT1v8kfLmr6rc6lPfXiTXLc&#xA;3SMxcQaAbVQntm/x+iIiOjttN7T58OMQEYVH3/rQP/QvflX/AKuF9/wUP/VPJ+IW/wD0Xaj+bD7f&#xA;1omH8i/L0On3Vit/dmK7eJ3Y+lyBh5cafBT9s12wGRu2qXtRmlOM+GNxvv615+SF/wChevLH/Vxv&#xA;fvi/5ow+IW7/AEXZ/wCZD7f1qcn/ADjz5fJHp6pdqO/IRt+pVx8QpHtfm6wj9qJ1b8idI1K/lvJN&#xA;TuEeXjVVRKDioXv/AKuRjIgU16f2py4oCIhHb3oT/oXjRP8Aq7XP/AR5LxC3f6L8v8yP2om0/IbR&#xA;7aC9hXVLhhewiByUT4Qs0c1R9MQGDjLVk9qssjE8EfSb69xH6UN/0Lxon/V2uf8AgI8PiFt/0X5f&#xA;5kftd/0Lxon/AFdrn/gI8fEK/wCi/L/Mj9rOrTyhbW1jaWi3DstpBFbqxAqRCgQE+545pNZ2PHPk&#xA;MzIgl0U+0pSlKVD1SJ+ZtEQ+XIIpVkEzEoagEDqOmVYuwoQkJcR2a564kVSz/DEFamdz47DK/wDQ&#xA;9DrIsv5Ql3PPPN9lqVvrEhvF+B9rVhXh6S7Kq/6o6/f3y3NiMDXTp7nmtXxmZMuqR5U4zsVTGDTR&#xA;FGl1fyG2hNGiRd55PdF2oP8AKbbwrlghW52+9sEK3O33orzHqEsv1dYx6MNzAk00YpWRyWHKRgFL&#xA;tt1Oa7tLIeKhsCLPmfPve/7C9eETO5GwvoEjzWO8Ruif8dmw/wCYmH/k4Mu0397H+sPvaNT/AHUv&#xA;6p+5vzB/x3tS/wCYqf8A5ONlWt/vp/1pfeuj/uYf1R9yAzGchMNM/wB49V/5hV/6ioM2XZn1S/q/&#xA;76Lz/tN/iv8AnD9KEhmlhlWWF2jlQ1R1NCD7EZtASNw+fgkbhMPUsdS/vuFnfk/3w+GCU/5aj+7b&#xA;/KHw+IHXLbE+ex+z9jZYlz2P2Jj5e8l39/fFbuNre0hI9Vz+13oh6Go7jbLcGllI77Btw6YyO/J6&#xA;jbW0FtAkECCOGMBUQdABm4jEAUHaAACgqYUuxV2KuxV2KuxV2KuxV2KuxV2KuxV2KuxV2KuxV2Ku&#xA;xVCappdnqdm9pdJyjfof2lI6Mp7EZDJjExRYTgJCi8t1bylqthqBtlT1omBaO4HwpwHUux+FKd6n&#xA;NRk08oyp1eTTyiaQvrWOn7W/G7vB1uGFYUP/ABWrfbP+Uwp4DvkbEeW5Y2I8tygJp5p5WmmdpJXN&#xA;WdiSSfcnKySdy1kk7lG6z9nT/wDmEj/4k2a3tH6x/VH6X0L2e/xYe/8AUl2YDvEbon/HZsP+YmH/&#xA;AJODLtN/ex/rD72jU/3Uv6p+5vzB/wAd7Uv+Yqf/AJONlWt/vp/1pfeuj/uYf1R9yAzGchMNM/3j&#xA;1X/mFX/qKgzZdmfVL+r/AL6Lz/tN/iv+cP0oHNm+fOxV635FJPlWxr/xb/yefN3pP7sfjq7fS/3Y&#xA;T7MlyHYq7FXYq7FXYq7FXYq7FXYq7FXYq7FXYq7FXYq7FXYq7FXYqxf8wo4pNJgSW5W2QzirsHYH&#xA;4W+GiBj75iawXEb1u4urFx508+/R+nf9XSH/AJFz/wDVPNbwR/nfe6/gj/O+936P07/q6Q/8i5/+&#xA;qePBH+d968Ef533o7VbGxZbLlqMScbVAtY5jyHJviFEP45ga/HEzFyA9I7/1PddhTlHT0ImQvy8u&#xA;8oD9H6d/1dIf+Rc//VPMLwYfzx8pfqdz40/5h+cf1ovSLGwXVbJl1KKRlniKoI5gWIcbAlAN/fLt&#xA;PigMkfWPqHQ9/uadRlmccvQfpPWPd71uuRaUdb1AyXM6yG5m5qsCMAfUNQCZlqPoyjVxx+NOzK+I&#xA;/wAI7/6ydLLJ4UKEfpH8R7v6qC9LRv8AlquP+kdP+q+Y/Di/nS/0o/4pyOLL/Nj/AKY/8SjtOj0r&#xA;6rqfG5nINsvMmBAQPrMO4/fGprTwzY9nDHxSon6e4fzo/wBJ0PtEZHTeoADiHI33+QQXpaN/y1XH&#xA;/SOn/VfNjUO8/L9rwtR7z8v2u9LRv+Wq4/6R0/6r41DvPy/atR7z8v2vUvJQhHlmzELM8X7zizqE&#xA;Y/vXrVQzgb++bjS14Yr8bu101cApO8yG92KuxV2KuxV2KuxV2KuxV2KuxV2KuxV2KuxV2KuxV2Ku&#xA;xV2KsQ/M3/jjW3/MSP8Ak2+YWu+ke9w9b9I97zXNW612KphrP2dP/wCYSP8A4k2a7tH6x/VH6X0P&#xA;2e/xYe/9SXZgO8Ruif8AHZsP+YmH/k4Mu0397H+sPvaNT/dS/qn7m/MH/He1L/mKn/5ONlWt/vp/&#xA;1pfeuj/uYf1R9yAzGchMNM/3j1X/AJhV/wCoqDNl2Z9Uv6v++i8/7Tf4r/nD9KBzZvnzsVet+Rf+&#xA;UVsf+ev/ACefN3o/7sfjq7fS/wB2Px1T7MlyHYq7FXYq7FXYq7FXYq7FXYq7FXYq7FXYq7FXYq7F&#xA;XYq7FXYqxb8w7dJ9Kt0aeO3AnB5y8uJ+BtvhVjXMTWC4jet3F1YuI36vP/0VB/1crT75v+qea3wx&#xA;3j7f1Ov8Md4/Hwd+ioP+rlaffN/1Tx8Md4+39S+GO8fj4I7VdNhdbKt/bJxtUUcjL8QDN8QpGdsw&#xA;NfiBmPVEekd/6nuuwshjp6ETLfpXl3kID9FQf9XO0++b/qlmF4A/nx+39TufHP8AMl9n60XpGmQp&#xA;qtk41C2crPEQimXk1HGwrGBU5dp8IGSJ4o/UO/v9zTqMxOOQ4ZfSe7u97Wu6RqMmt6g6Qko9zMym&#xA;q7gyEjvlGr08zmmQP4j96dLqIDFAX/CPuQX6F1P/AHwf+CX+uY/5XJ3OR+Zh3o7TtI1FbTUw0JBe&#xA;2VV3Xc/WYT4+AzY9nYJiUrH8P++i6L2iyRnpqjueIfpQX6F1P/fB/wCCX+ubHwpdzwvhS7nfoXU/&#xA;98H/AIJf64+FLuXwpdz1HyXBLB5as4pV4yL6lV2PWVz2zcaUVjF/jd2mmBEACneZDe7FXYq7FXYq&#xA;7FXYq7FXYq7FXYq7FXYq7FXYq7FXYq7FXYq7FWIfmb/xxrb/AJiR/wAm3zC130j3uHrfpHvea5q3&#xA;WuxVMNZ+zp//ADCR/wDEmzXdo/WP6o/S+h+z3+LD3/qS7MB3iN0T/js2H/MTD/ycGXab+9j/AFh9&#xA;7Rqf7qX9U/c35g/472pf8xU//Jxsq1v99P8ArS+9dH/cw/qj7kBmM5CYaZ/vHqv/ADCr/wBRUGbL&#xA;sz6pf1f99F5/2m/xX/OH6UDmzfPnYq9b8i/8orY/89f+Tz5u9H/dj8dXb6X+7H46p9mS5DsVdirs&#xA;VdirsVdirsVdirsVdirsVdirsVdirsVdirsVdirsVYp+YzWy6Rbm4R5E+sCgjcIa8G7lX/VmHra4&#xA;Rfe4msrhF97z31dI/wCWa4/6SE/6o5rbj3H5/sdfce4/P9jvV0j/AJZrj/pIT/qjjce4/P8AYtx7&#xA;j8/2I7V5NLC2PO3nP+ix8aTIKDk2x/dGpzA15hxiwfpHX9j3nYIkdP6SAL6i+7zCA9XSP+Wa4/6S&#xA;E/6o5g8WPul/ph/xLuuHJ3x/0p/4pF6PJpR1exCW86v9Yi4lp0IB5ilQIhX78u05x+JGgfqHXz/q&#xA;tOoGTw5WR9J6Hu/rIbzB/wAd7Uv+Yqf/AJONmJrf76f9aX3tuj/uYf1R9yAzGchMNM/3j1X/AJhV&#xA;/wCoqDNl2Z9Uv6v++i8/7Tf4r/nD9KBzZvnzsVet+Rf+UVsf+ev/ACefN3o/7sfjq7fS/wB2Px1T&#xA;7MlyHYq7FXYq7FXYq7FXYq7FXYq7FXYq7FXYq7FXYq7FXYq7FXYqxD8zf+ONbf8AMSP+Tb5ha76R&#xA;73D1v0j3vNc1brXYqmGs/Z0//mEj/wCJNmu7R+sf1R+l9D9nv8WHv/Ul2YDvEbon/HZsP+YmH/k4&#xA;Mu0397H+sPvaNT/dS/qn7kZrl7bLreoK1hA7LczAuzT1YiQ7njKBU+ww6vLEZp+iJ9R/nd/9Zp0u&#xA;KRxQ9UvpH83u/qoL6/a/9W23/wCCuP8AqtmP40f5kf8AZf8AFOR4Uv58v9j/AMSjtOvbY2upkWEC&#xA;hbZSQGnow+swihrKdt67ZsezskTKXpA9P9L+dHzdD7RQMdNZJl6hzrz7gEF9ftf+rdb/APBXH/Vb&#xA;NjxjuH2/reF4x3D7f1u+v2v/AFbrf/grj/qtjxjuH2/rXjHcPt/W9S8lOsnlmzdI1iU+pSNORUfv&#xA;XG3Ms33nNxpTeMfjq7XTH0BO8yG92KuxV2KuxV2KuxV2KuxV2KuxV2KuxV2KuxV2KuxV2KuxV2Ks&#xA;U/MWaOLSbdnhScG4A4SFwAeDb/AyH8cw9aaiNurias1Ee9599ftf+rdb/wDBXH/VbNbxjuH2/rdf&#xA;xjuH2/rd9ftf+rdb/wDBXH/VbHjHcPt/WvGO4fb+tHateWyrY1sIH5WqEcmn+Ecm2FJRt88wNfkA&#xA;mPSD6R3/AK3vOwYGWnsSMd+leXeCl/1+1/6ttv8A8Fcf9VswfFj/ADI/7L/inc+FL+fL/Y/8SjNH&#xA;vbZtWslFhAhNxEA6tPUEuNxWUjb3GXafJE5I+mP1D+d3+9q1GKQxy9UvpP8AN7v6qF8wf8d7Uv8A&#xA;mKn/AOTjZia3++n/AFpfe26P+5h/VH3IDMZyEw0z/ePVf+YVf+oqDNl2Z9Uv6v8AvovP+03+K/5w&#xA;/Sgc2b587FXrfkX/AJRWx/56/wDJ583ej/ux+Ort9L/dj8dU+zJch2KuxV2KuxV2KuxV2KuxV2Ku&#xA;xV2KuxV2KuxV2KuxV2KuxV2KsQ/M3/jjW3/MSP8Ak2+YWu+ke9w9b9I97zXNW612KphrP2dP/wCY&#xA;SP8A4k2a7tH6x/VH6X0P2e/xYe/9SXZgO8Ruif8AHZsP+YmH/k4Mu0397H+sPvaNT/dS/qn7kZrl&#xA;lbNreoM1/AjNczEoyz1UmQ7HjERUexw6vFE5p+uI9R/nd/8AVadLlkMUPTL6R/N7v6yC+oWv/Vyt&#xA;/wDgbj/qjmP4Mf58f9l/xLkeLL+ZL/Y/8UjtOsrYWupgX8DBrZQSFnoo+swmprENtqbZsezscRKX&#xA;qB9P9L+dHydF7RTMtNRBj6hzrz7iUF9Qtf8Aq42//A3H/VHNjwDvH2/qeE4B3j7f1O+oWv8A1cbf&#xA;/gbj/qjjwDvH2/qXgHePt/U9S8lIsflmzRJFlUepSROQU/vXO3MK33jNxpRWMfjq7XTD0BO8yG92&#xA;KuxV2KuxV2KuxV2KuxV2KuxV2KuxV2KuxV2KuxV2KuxV2KsU/MW4kg0m3dAhJuAKSRpIKcGPRwwz&#xA;D1pqI97ias1Ee959+lrr+S3/AOka3/6p5rfEPl8g6/xD5fIO/S11/Jb/APSNb/8AVPHxD5fIL4h8&#xA;vkEdq2p3KLY0SA8rVGPK3gbcs3SqGg9hmBr8xExy+kfwj9T3nYOMS09m+fQkd3cUv/S11/vu3/6R&#xA;bf8A6p5g/mJd0f8ASx/U7n8vHvl/ppfrRmj6pcvq1khSABriIErbwKaFwNiEBH0Zdp88jkiPT9Q/&#xA;hj3+5q1GCIxyPq+k/wAUu73oXzB/x3tS/wCYqf8A5ONmJrf76f8AWl97bo/7mH9UfcgMxnITDTP9&#xA;49V/5hV/6ioM2XZn1S/q/wC+i8/7Tf4r/nD9KBzZvnzsVet+Rf8AlFbH/nr/AMnnzd6P+7H46u30&#xA;v92Px1T7MlyHYq7FXYq7FXYq7FXYq7FXYq7FXYq7FXYq7FXYq7FXYq7FXYqxT8xra5uNIt0t4nmc&#xA;XAJWNSxpwYVoK5h62JMRXe4msiTEV3vPf0Pq/wDyw3H/ACKf+ma3w5dxdf4cu4u/Q+r/APLDcf8A&#xA;Ip/6Y+HLuK+HLuKO1fStUdbHhZztxtY1akbmhDNsduuYGvwzMxUT9I6Pedg5Yw09SIBvr8EB+htX&#xA;/wCWG4/5FP8A0zB/L5P5svkXdfmcf86PzCL0fSdVTV7F3s51RbiJmZo3AADgkkkZdp8GQZIkxP1D&#xA;p5tOo1GM45ASH0nqO5DeYP8Ajval/wAxU/8AycbMTW/30/60vvbdH/cw/qj7kBmM5CYaZ/vHqv8A&#xA;zCr/ANRUGbLsz6pf1f8AfRef9pv8V/zh+lA5s3z5tEd3VEUs7EKqqKkk7AADEC0gPXfJsT2+gW1p&#xA;LRbmDn60QIJUtIzANQmhoc3umiY4wDzdxp4mMACneXtzsVdirsVdirsVdirsVdirsVdirsVdirsV&#xA;dirsVdirsVdirsVYn+YkT3WnQWsFJLlZfV9AEcyiowJVerUr2zD1guIA5uJqxcQBzeZZqnWOxVMN&#xA;Z+zp/wDzCR/8SbNd2j9Y/qj9L6H7Pf4sPf8AqS7MB3iN0T/js2H/ADEw/wDJwZdpv72P9Yfe0an+&#xA;6l/VP3N+YP8Ajval/wAxU/8AycbKtb/fT/rS+9dH/cw/qj7kBmM5CYaZ/vHqv/MKv/UVBmy7M+qX&#xA;9X/fRef9pv8AFf8AOH6XaVo1/qcpS2T4F/vJWqEXv2qSfYb5uMWGUzs8HjxSmdk/tYbTT0KWQJlI&#xA;pJeOKSMO4Qb8F+W/ic2mHTxh73aYdPGHvV7G/uLK4E8DUYfaU9GHgcyHIZzpmqW+oQCSM0cbSRk7&#xA;qckCxRmFXYq7FXYq7FXYq7FXYq7FXYq7FXYq7FXYq7FXYq7FXYqkXmfzVa6NBxWkt84/dQeH+U1O&#xA;368x8+oEB5tGbOIDzeWXmoXl5dtd3ErPcMa869KdOPhTtmolMyNnm6qUyTZRP161vgE1IcJ+i38Y&#xA;q5/4zL+3/rD4vnk+MS+r5/rZ8Yl9Xz/WhrzT7i0Ks/GSGSvpXEZ5RvT+Vv1g7jvkJQIYSgQr6z9n&#xA;T/8AmEj/AOJNms7R+sf1R+l9B9nv8WHv/Ul2YDvEbon/AB2bD/mJh/5ODLtN/ex/rD72jU/3Uv6p&#xA;+5vzB/x3tS/5ip/+TjZVrf76f9aX3ro/7mH9UfcgMxnIZLo+kC1guH1NSq3UQjS0B4ykCVJeT7Hg&#xA;p9Onj+vOj7K7PmLnMUCKrrzB/Q8123qceaHhA3vZRzXD0jSMCGKH+5ij+FU71Hv79c6GMQBQdFGI&#xA;iKCIrHfGjER3p6NsElPv2VvfofnkkoN0dHKOpV1NGU7EEYEpH5w83XHlnTk+oy+nrF8P9HNAfThB&#xA;+KUg1FWI4rUeJ7ZZjjZei9n+yBqZmeQfu4/ae5g3/K2fzD/6vMn/ACLh/wCaMu8MPY/yBov9THzP&#xA;60y8tfmf57u/MelWlxq0klvcXlvFNGUiHJHlVWFQgO4OAwFOLrew9JDBOUYCxCRG57veg7381fzA&#xA;jvbiNNYkCJI6qPTh2AYgfsYxgKbsXYOjMATjHLvP61H/AJWz+Yf/AFeZP+RcP/NGHww2fyBov9TH&#xA;zP60w1P80PPkNlpEkerSK9xaNJMeEXxOLueMH7H8kajAIBxsHYekM5gwG0qG5/mRPf3lL/8AlbP5&#xA;h/8AV5k/5Fw/80YfDDk/yBov9THzP6000f8AM7z1Pp+uSy6tI0lrZJNbtwi+Fze20RbZP5JGH04m&#xA;AcTUdiaSM8YEB6p0dz/Mme/vASv/AJWz+Yf/AFeZP+RcP/NGPhhy/wCQNF/qY+Z/WmnlX8zvPV55&#xA;o0ezudWkktrm9toZ4ykQDI8qqy7IDuDiYCnE1/YmkhgySjACUYSI3PQe965+bOt6rovk+W+0u4Nt&#xA;drNEglUKx4s1CKMGGVRFl4/sDTY8+pEMg4o0Xh//ACtn8w/+rzJ/yLh/5oy3ww93/IGi/wBTHzP6&#xA;3f8AK2fzD/6vMn/IuH/mjHwwv8gaL/Ux8z+t3/K2fzD/AOrzJ/yLh/5ox8ML/IGi/wBTHzP60w0z&#xA;80PPk1lq8kmrSM9vaLJCeEXwubuCMn7H8kjDAYBxs/YekE4AQG8qO5/mSPf3hL/+Vs/mH/1eZP8A&#xA;kXD/AM0YfDDk/wAgaL/Ux8z+t3/K2fzD/wCrzJ/yLh/5ox8ML/IGi/1MfM/rd/ytn8w/+rzJ/wAi&#xA;4f8AmjHwwv8AIGi/1MfM/rd/ytn8w/8Aq8yf8i4f+aMfDC/yBov9THzP62Vw6sNf05NbU1nciLUo&#xA;6/3dwF6gH9iRRyXw3Xtml1uAxlfQvlvtJ2QdHnNf3ct4rMwnnnYqjdLub5ZxbWyicXBCNauOUbk9&#xA;Kr4j+YUI8csxyN0OrPHI3Q6prq9ha6hMiaTMks1pGIWswSWbhVmMLGnqqKkeO1d8wNZCOWf7s2Yi&#xA;q/V3voPZYlpsQjkHCDvfd5HuY6ysrFWBDA0IOxBGaoh3YKM0T/js2H/MTD/ycGXab+9j/WH3tGp/&#xA;upf1T9yK1LT7u+8yalFbJyIupy7HZVX1G+J2Oyj54c2nnl1E4wFnil97VizwxaeEpGhwj7k0srGy&#xA;02jQkXF53umHwof+KlP/ABI7+FM6HQ9lQw+qXqn9g936/uef1vac8vpj6Yfaff8AqXszMxZiSx3J&#xA;O5JzausaxV2KpjZiO8Ui7B4wAH6wPtca0EbeNf2e4+WVajURxQMpcgzx4zKVBhGu/llNrOqz6jda&#xA;5+8mb4UFqeKINkRay/ZVdhmvj7Q4AORe40nbAwYxjjj2H9L7fpQcf5KxuxUa5uFZv95T+yC3+/fb&#xA;LIe0GGRoA8ifkLciXtGR/k/9l/x1E6N+VEOnaxY6gdY9UWdxFcGP6sV5ek4fjX1TStMgfaLCehat&#xA;T27LJjlDw64okfV3iv5qhc/k9DNcSzfprj6js/H6qTTka0/vcR7RYQORbIe0BjEDw+X9L/jql/yp&#xA;iL/q9/8ATqf+quH/AER4e4sv9ER/1P8A2X/HUbf/AJRxT2mmxfpnj9VtmiDfVieVbmaWv97t/eU+&#xA;jJHt/DEA0fVv+j9DRh7eMZTPh/VK/q/oxHd5IL/lTEX/AFe/+nU/9Vcj/ojw9xb/APREf9T/ANl/&#xA;x1Haf+VUNpaanbnWOf6Qtltg31YjhxuYbjl/e7/3HH6cH+iLD3FozduSnKB8P6JX9X9GUe7+khIv&#xA;yUjkYqNc3Cs3+8p6IpY/7t9ssx9v4pmgDyJ+Qv8AQ2y9pCB/d/7L/jqL0P8AKqHTNa0/UjrHqixu&#xA;YbkxC2K8vSkD8a+qaV45WfaLD3Fq1XbksuKUPDriiR9XeK7me+e4bTzT5ffSUna0LyJJ6xj9QDga&#xA;048l6/PIDt/CDdSef7K4tLmGSuLY7XTzT/lTEX/V7/6dT/1Vyz/RHh7i9P8A6Ij/AKn/ALL/AI6v&#xA;l/JSON+J1zegP+8p7iv+/ffJ5O38UTRBYx9pCRfh/wCy/wCOrP8AlTEX/V7/AOnU/wDVXIf6I8Pc&#xA;WX+iI/6n/sv+Oo62/KKKztr2FtZ5/X7ZYlYWxHGk8U1f73f+5p9OSn2/hjVg77tE+3zOUT4f0Sv6&#xA;v6JH83zQP/KmIv8Aq9/9Op/6q5H/AER4e4t/+iI/6n/sv+Ou/wCVMRf9Xv8A6dT/ANVcf9EeHuK/&#xA;6Ij/AKn/ALL/AI6vH5KxmNpP05srBT/op/aBP+/f8nJD2gw8JlRoED53+pH+iM3Xh/7L/jqz/lTE&#xA;X/V7/wCnU/8AVXI/6I8PcU/6Ij/qf+y/46nPlj8uxol68h1f6xZ3MZhu7b6uV5od1IPqNRkYBlNP&#xA;15Xl7ewTjRBdX2tro63Cccsddx4uX+xUdSsJbC9ktpN+Bqjjo6HdWHsRlR8uT5nlxGEjE8whcDWn&#xA;y20umWUsUXE6vMlZk/3ZDAwqQo/nYfa7he3UivU5DCJjH6+vkP19/k9Z2F2aARlyDbp7/wAfb9pA&#xA;rFSGU0I3BHUHNGC9mQmq6la34WLVgfV2VNRjFZFA2/ert6o9/te5zLGaOTbJz/ndfj3/AHuIcMse&#xA;+Pl/N6fDu+5fZaXcWmsabISsttLcxejcxHlG37wd+x8VO+HHglDJA84mQojlzY5c8Z4pjlIRNg8+&#xA;TL/MWn3FpK7IoWznkaVuAoDI5qxfuWqdq/RnXxxRhfCKs38Xj55ZTqzdCklyTF2KuxVdHG8kixoO&#xA;TuQqqOpJ2GKppIEhjW1jIZUNZHHRpOhPyHQf25xva2u8afDH6I/ae93Gkw8EbPMqWalyla1/vW/4&#xA;xyf8m2y/TfUf6sv9yWGTl8R96jlDN2KuxVWn/urf/jGf+Tj5fm+mH9X/AH0mEOZ9/wCgKOUM3Yqr&#xA;2X983/GKb/k02ZOk+s/1J/7iTXl5fEfeFDMZsdirsVV73/eg/wCqn/EBmRq/7z4R/wByGvF9Pz+9&#xA;QzHbFe6/3T/xiX+OZGp/h/qhrx9feoZjtjsVVl/3jl/4yR/8RfL4/wB1L+tH7pMD9Q9x/Qo5Qzdi&#xA;qF1fTv0jY0QVvLYFoPF06tH/AMbL9I75uezdRY8M8/4f1fpDpe1tFxx448wkulW8FnEl/dMq3EtR&#xA;psb/AGeY/wB3SeCK2w8T7A5sp5BjFn6j9P6z5OF2P2Yc0uOQ9Eft/H46JXM11Hds8rOt0r8mck8+&#xA;da8q9a13rmikZCVn6n0GIiY0PpV6R3/2QI74/sigSX5dlf8ABvn1ntP+t9/7fv8Avr3x+cfu/Z93&#xA;u5AiCpIIoRsQeoOUt7Ofy90G+Zm1CZmjsXFEgPSZlOzEHsh3B61zfdkaSZ9Z2h3d/wDY6HtfVwHo&#xA;G8+/u/tZ9NDFPE0Uqh43FGU50bzjCdb0SXT5eS1e2c/A/h7HIEJSvAl2KqkmpxaREkzR+rdTgiKM&#xA;njwjNQXqN6t0X6cyMWi8aJBJEfJ1uu7TGnIocUkF/itP+WFf+Rjf0zF/0J6bvl83G/0V5v5sVT/F&#xA;lt/1b/8Aksf+acH+hPTd8mX+ivL/ADAuTzhboxK6fuQV/vj0YEH9n3ycPZbTxNgy6/aKQfarKf4B&#xA;81v+LLX/AKt//JY/805D/Qnpu+Sf9FeX+YPm4ebLTvpx/wCRx/5ox/0J6bvkv+ivL/MHz/YitR8w&#xA;2dpdtbiwLhVQ8vWI+2gb+Q+ORh7LaeQu5N2f2ny45cPCDy+5QbzhasqA6caIOK/vz0qT/J75bL2W&#xA;05ABMtv13+loHtVkH8A+f7Fv+LLT/q3H/kef+aMh/oT0/fJP+izL/MHz/Y1/iu1/5YG/5H/9e8H+&#xA;hLT/AM6Sf9FmT+YPmui8328bFlsDUqy7zdmUqf2PA5PH7LYIGxKXIj5iv0sZe1WQ/wAA+arp/mG0&#xA;u7+2tTZMguJUiL+tWnNgtacPfKZ+ymnjEnils3YfajJOYjwDcgc0N/im2/5Yn/5HD/qnj/oQwfz5&#xA;/Z+ph/otyfzI/Mu/xTbf8sT/API4f9U8f9CGD+fP7P1L/otyfzI/MrpfNsEj82smBoBtMOwp/vv2&#xA;yeT2UwzNmcvs93cxj7V5AK4B81v+Kbb/AJYn/wCRw/6p5D/Qhg/nz+z9TL/Rbk/mR+ZXSebYH41s&#xA;m+FQopMOg/555OfspglVzlsK6fqYj2ryD+AfNWi161ewuLr6q4MDxJw9Yb+oH3r6fbhlR9ksHEBx&#xA;z+z9TfH2oyGBlwR2I6nrf6kP/im2/wCWJ/8AkcP+qeS/0IYP58/s/U1f6Lcn8yPzK4ebbcRtH9Sf&#xA;ixDH98K1UEf77/ysmPZPAImPHPcg9Ol+Xmj/AEV5LvgHzK3/ABTbf8sT/wDI4f8AVPIf6EMH8+f2&#xA;fqT/AKLcn8yPzK//ABVYf8sEv/SQv/VHB/oQwfz5/Z+pP+i2f+pj5/sbXzZZKwZbGUMpqCLhdiP+&#xA;eOGPsjhBsTnfw/Up9rZn/Jj5/sQPmJ11IJrMAKxPSCeAsG9F1HwgUC/A6io261zU9vdnywzE7uJe&#xA;v9me1YajFwgcMo9EviljuY1t7hgkiClvcHoB2Rz/AC+B7fLppYyEhR59D+g/jZ6CUTE2OXUfpH43&#xA;96FlikikaORSjoaMp6g5VKJBotsZAiwzTyt5Wk1dI7/VoyIUIMTE0edR/P4qNqN1P6t3oNAc1TyD&#xA;b/de/wDW6PX68YSYYzv/ALn3fqehoiooRAFRQAqgUAA6ADOkArYPOE3uW8KFk0MU8TRSqHjcUZTi&#xA;rCdb0SXT5eS1e2c/A/h7HIEJS+MQpHJc3BpbQDlJTqxP2UX3Y/1yeLGZyoNOpzxxQMj0Yze3c15d&#xA;SXEtObnoNgoGwUDwA2Gb+EBEUHhs2WWSZlLmVDJtTsVdirsVdiqZeYf+OrL/AKkX/JpMqw/T+O9y&#xA;9b/en4fcEty1xHYq7FXYqj9A/wCO7p3/ADFQ/wDJxcrzfQfcXJ0f99D+sPvQGWOM7FXYq7FXYqmN&#xA;r/xw7/8A4zW36pcql9Y9x/Q5eP8AuZ++P++S7LXEdirsVdirsVR2lX0dtM0dwvOyuV9K6j2JKH9p&#xA;a/tIfiXMXWaWOfGYS6uw7M18tLmGSPxQ+pWEljdtAx5ps0MoFFkjbdHX2Izy7VaaWHIYS5h9s0mp&#xA;jnxjJHkWY+UfKbX9vDe6xFWGOhs0bZpE/wCLB3T+X/mmmbfs/s/xAJ5Bt08/f5d36nUdodoeGTDE&#xA;dzz8vd59/wCtn4AAAAoBsAOlM6IB512KuxV2KrJoYp4milUPG4oynFWL6r5He8SOCG99C2jJf0yn&#xA;Ms5/aY8l6LsNsydPnGMcrLrddoZagj1VEdK/alv/ACrCT/q4j/kSf+a8yPz/AJOv/kE/z/s/a7/l&#xA;WEn/AFcR/wAiT/zXj+f8l/kE/wA/7P2u/wCVYSf9XEf8iT/zXj+f8l/kE/z/ALP2u/5VhJ/1cR/y&#xA;JP8AzXj+f8l/kE/z/s/a7/lWEn/VxH/Ik/8ANeP5/wAl/kE/z/s/a7/lWEn/AFcR/wAiT/zXj+f8&#xA;l/kE/wA/7P2onUPy8kvLtrj68E5BBx9Mn7CBevIfy5GGt4RVNufsY5JcXFXw8vehv+VYSf8AVxX/&#xA;AJFH/mvJ/n/Jq/kE/wA/7P2u/wCVYSf9XFf+RR/5rx/P+S/yCf5/2ftd/wAqwk/6uK/8ij/zXj+f&#xA;8l/kE/z/ALP2u/5VhJ/1cV/5FH/mvH8/5L/IJ/n/AGftRGn/AJdSWl/bXX18P9XlSXh6RFeDBqV5&#xA;HrTIT1vFEiubZh7FMJiXFyIPLu+KH/5VhJ/1cR/yJP8AzXkvz/k1/wAgn+f9n7Xf8qwk/wCriP8A&#xA;kSf+a8fz/kv8gn+f9n7Xf8qwk/6uI/5En/mvH8/5L/IJ/n/Z+13/ACrCT/q4j/kSf+a8fz/kv8gn&#xA;+f8AZ+13/KsJP+riP+RJ/wCa8fz/AJL/ACCf5/2ftRMX5dyR2Nxa/XwfXeN+fpHb0w+1OXfnkTrd&#xA;wabY9jEQMeLnXTuvz80N/wAqwk/6uI/5En/mvJfn/Jq/kE/z/s/a7/lWEn/VxH/Ik/8ANeP5/wAl&#xA;/kE/z/s/a7/lWEn/AFcR/wAiT/zXj+f8l/kE/wA/7P2u/wCVYSf9XEf8iT/zXj+f8l/kE/z/ALP2&#xA;u/5VhJ/1cR/yJP8AzXj+f8l/kE/z/s/a7/lWEn/VxH/Ik/8ANeP5/wAl/kE/z/s/am+neSLWJLdd&#xA;RkW+Foxa3PEpQHfg4q3JeXxAfwOavW4MWomJyjvH7fe7/syWbSYzjE7ifs9zJsmzdirsVf/Z</xmpGImg:image>
               </rdf:li>
            </rdf:Alt>
         </xmp:Thumbnails>
      </rdf:Description>
      <rdf:Description rdf:about=""
            xmlns:xmpMM="http://ns.adobe.com/xap/1.0/mm/"
            xmlns:stRef="http://ns.adobe.com/xap/1.0/sType/ResourceRef#"
            xmlns:stEvt="http://ns.adobe.com/xap/1.0/sType/ResourceEvent#">
         <xmpMM:InstanceID>xmp.iid:0480117407206811822AAAB28D81B1D4</xmpMM:InstanceID>
         <xmpMM:DocumentID>xmp.did:0480117407206811822AAAB28D81B1D4</xmpMM:DocumentID>
         <xmpMM:OriginalDocumentID>uuid:5D20892493BFDB11914A8590D31508C8</xmpMM:OriginalDocumentID>
         <xmpMM:RenditionClass>proof:pdf</xmpMM:RenditionClass>
         <xmpMM:DerivedFrom rdf:parseType="Resource">
            <stRef:instanceID>xmp.iid:0380117407206811822AAAB28D81B1D4</stRef:instanceID>
            <stRef:documentID>xmp.did:0380117407206811822AAAB28D81B1D4</stRef:documentID>
            <stRef:originalDocumentID>uuid:5D20892493BFDB11914A8590D31508C8</stRef:originalDocumentID>
            <stRef:renditionClass>proof:pdf</stRef:renditionClass>
         </xmpMM:DerivedFrom>
         <xmpMM:History>
            <rdf:Seq>
               <rdf:li rdf:parseType="Resource">
                  <stEvt:action>saved</stEvt:action>
                  <stEvt:instanceID>xmp.iid:0380117407206811822AAAB28D81B1D4</stEvt:instanceID>
                  <stEvt:when>2016-05-20T15:24:24+01:00</stEvt:when>
                  <stEvt:softwareAgent>Adobe Illustrator CS6 (Macintosh)</stEvt:softwareAgent>
                  <stEvt:changed>/</stEvt:changed>
               </rdf:li>
               <rdf:li rdf:parseType="Resource">
                  <stEvt:action>saved</stEvt:action>
                  <stEvt:instanceID>xmp.iid:0480117407206811822AAAB28D81B1D4</stEvt:instanceID>
                  <stEvt:when>2016-05-20T15:24:34+01:00</stEvt:when>
                  <stEvt:softwareAgent>Adobe Illustrator CS6 (Macintosh)</stEvt:softwareAgent>
                  <stEvt:changed>/</stEvt:changed>
               </rdf:li>
            </rdf:Seq>
         </xmpMM:History>
      </rdf:Description>
      <rdf:Description rdf:about=""
            xmlns:illustrator="http://ns.adobe.com/illustrator/1.0/">
         <illustrator:StartupProfile>Print</illustrator:StartupProfile>
      </rdf:Description>
      <rdf:Description rdf:about=""
            xmlns:xmpTPg="http://ns.adobe.com/xap/1.0/t/pg/"
            xmlns:stDim="http://ns.adobe.com/xap/1.0/sType/Dimensions#"
            xmlns:xmpG="http://ns.adobe.com/xap/1.0/g/">
         <xmpTPg:HasVisibleOverprint>False</xmpTPg:HasVisibleOverprint>
         <xmpTPg:HasVisibleTransparency>False</xmpTPg:HasVisibleTransparency>
         <xmpTPg:NPages>1</xmpTPg:NPages>
         <xmpTPg:MaxPageSize rdf:parseType="Resource">
            <stDim:w>2256.225586</stDim:w>
            <stDim:h>1755.175781</stDim:h>
            <stDim:unit>Points</stDim:unit>
         </xmpTPg:MaxPageSize>
         <xmpTPg:PlateNames>
            <rdf:Seq>
               <rdf:li>Cyan</rdf:li>
               <rdf:li>Magenta</rdf:li>
               <rdf:li>Yellow</rdf:li>
            </rdf:Seq>
         </xmpTPg:PlateNames>
         <xmpTPg:SwatchGroups>
            <rdf:Seq>
               <rdf:li rdf:parseType="Resource">
                  <xmpG:groupName>Default Swatch Group</xmpG:groupName>
                  <xmpG:groupType>0</xmpG:groupType>
                  <xmpG:Colorants>
                     <rdf:Seq>
                        <rdf:li rdf:parseType="Resource">
                           <xmpG:swatchName>White</xmpG:swatchName>
                           <xmpG:mode>CMYK</xmpG:mode>
                           <xmpG:type>PROCESS</xmpG:type>
                           <xmpG:cyan>0.000000</xmpG:cyan>
                           <xmpG:magenta>0.000000</xmpG:magenta>
                           <xmpG:yellow>0.000000</xmpG:yellow>
                           <xmpG:black>0.000000</xmpG:black>
                        </rdf:li>
                        <rdf:li rdf:parseType="Resource">
                           <xmpG:swatchName>Black</xmpG:swatchName>
                           <xmpG:mode>CMYK</xmpG:mode>
                           <xmpG:type>PROCESS</xmpG:type>
                           <xmpG:cyan>0.000000</xmpG:cyan>
                           <xmpG:magenta>0.000000</xmpG:magenta>
                           <xmpG:yellow>0.000000</xmpG:yellow>
                           <xmpG:black>100.000000</xmpG:black>
                        </rdf:li>
                        <rdf:li rdf:parseType="Resource">
                           <xmpG:swatchName>CMYK Red</xmpG:swatchName>
                           <xmpG:mode>CMYK</xmpG:mode>
                           <xmpG:type>PROCESS</xmpG:type>
                           <xmpG:cyan>0.000000</xmpG:cyan>
                           <xmpG:magenta>100.000000</xmpG:magenta>
                           <xmpG:yellow>100.000000</xmpG:yellow>
                           <xmpG:black>0.000000</xmpG:black>
                        </rdf:li>
                        <rdf:li rdf:parseType="Resource">
                           <xmpG:swatchName>CMYK Yellow</xmpG:swatchName>
                           <xmpG:mode>CMYK</xmpG:mode>
                           <xmpG:type>PROCESS</xmpG:type>
                           <xmpG:cyan>0.000000</xmpG:cyan>
                           <xmpG:magenta>0.000000</xmpG:magenta>
                           <xmpG:yellow>100.000000</xmpG:yellow>
                           <xmpG:black>0.000000</xmpG:black>
                        </rdf:li>
                        <rdf:li rdf:parseType="Resource">
                           <xmpG:swatchName>CMYK Green</xmpG:swatchName>
                           <xmpG:mode>CMYK</xmpG:mode>
                           <xmpG:type>PROCESS</xmpG:type>
                           <xmpG:cyan>100.000000</xmpG:cyan>
                           <xmpG:magenta>0.000000</xmpG:magenta>
                           <xmpG:yellow>100.000000</xmpG:yellow>
                           <xmpG:black>0.000000</xmpG:black>
                        </rdf:li>
                        <rdf:li rdf:parseType="Resource">
                           <xmpG:swatchName>CMYK Cyan</xmpG:swatchName>
                           <xmpG:mode>CMYK</xmpG:mode>
                           <xmpG:type>PROCESS</xmpG:type>
                           <xmpG:cyan>100.000000</xmpG:cyan>
                           <xmpG:magenta>0.000000</xmpG:magenta>
                           <xmpG:yellow>0.000000</xmpG:yellow>
                           <xmpG:black>0.000000</xmpG:black>
                        </rdf:li>
                        <rdf:li rdf:parseType="Resource">
                           <xmpG:swatchName>CMYK Blue</xmpG:swatchName>
                           <xmpG:mode>CMYK</xmpG:mode>
                           <xmpG:type>PROCESS</xmpG:type>
                           <xmpG:cyan>100.000000</xmpG:cyan>
                           <xmpG:magenta>100.000000</xmpG:magenta>
                           <xmpG:yellow>0.000000</xmpG:yellow>
                           <xmpG:black>0.000000</xmpG:black>
                        </rdf:li>
                        <rdf:li rdf:parseType="Resource">
                           <xmpG:swatchName>CMYK Magenta</xmpG:swatchName>
                           <xmpG:mode>CMYK</xmpG:mode>
                           <xmpG:type>PROCESS</xmpG:type>
                           <xmpG:cyan>0.000000</xmpG:cyan>
                           <xmpG:magenta>100.000000</xmpG:magenta>
                           <xmpG:yellow>0.000000</xmpG:yellow>
                           <xmpG:black>0.000000</xmpG:black>
                        </rdf:li>
                        <rdf:li rdf:parseType="Resource">
                           <xmpG:swatchName>C=15 M=100 Y=90 K=10</xmpG:swatchName>
                           <xmpG:mode>CMYK</xmpG:mode>
                           <xmpG:type>PROCESS</xmpG:type>
                           <xmpG:cyan>14.999998</xmpG:cyan>
                           <xmpG:magenta>100.000000</xmpG:magenta>
                           <xmpG:yellow>90.000000</xmpG:yellow>
                           <xmpG:black>10.000002</xmpG:black>
                        </rdf:li>
                        <rdf:li rdf:parseType="Resource">
                           <xmpG:swatchName>C=0 M=90 Y=85 K=0</xmpG:swatchName>
                           <xmpG:mode>CMYK</xmpG:mode>
                           <xmpG:type>PROCESS</xmpG:type>
                           <xmpG:cyan>0.000000</xmpG:cyan>
                           <xmpG:magenta>90.000000</xmpG:magenta>
                           <xmpG:yellow>85.000000</xmpG:yellow>
                           <xmpG:black>0.000000</xmpG:black>
                        </rdf:li>
                        <rdf:li rdf:parseType="Resource">
                           <xmpG:swatchName>C=0 M=80 Y=95 K=0</xmpG:swatchName>
                           <xmpG:mode>CMYK</xmpG:mode>
                           <xmpG:type>PROCESS</xmpG:type>
                           <xmpG:cyan>0.000000</xmpG:cyan>
                           <xmpG:magenta>80.000000</xmpG:magenta>
                           <xmpG:yellow>95.000000</xmpG:yellow>
                           <xmpG:black>0.000000</xmpG:black>
                        </rdf:li>
                        <rdf:li rdf:parseType="Resource">
                           <xmpG:swatchName>C=0 M=50 Y=100 K=0</xmpG:swatchName>
                           <xmpG:mode>CMYK</xmpG:mode>
                           <xmpG:type>PROCESS</xmpG:type>
                           <xmpG:cyan>0.000000</xmpG:cyan>
                           <xmpG:magenta>50.000000</xmpG:magenta>
                           <xmpG:yellow>100.000000</xmpG:yellow>
                           <xmpG:black>0.000000</xmpG:black>
                        </rdf:li>
                        <rdf:li rdf:parseType="Resource">
                           <xmpG:swatchName>C=0 M=35 Y=85 K=0</xmpG:swatchName>
                           <xmpG:mode>CMYK</xmpG:mode>
                           <xmpG:type>PROCESS</xmpG:type>
                           <xmpG:cyan>0.000000</xmpG:cyan>
                           <xmpG:magenta>35.000004</xmpG:magenta>
                           <xmpG:yellow>85.000000</xmpG:yellow>
                           <xmpG:black>0.000000</xmpG:black>
                        </rdf:li>
                        <rdf:li rdf:parseType="Resource">
                           <xmpG:swatchName>C=5 M=0 Y=90 K=0</xmpG:swatchName>
                           <xmpG:mode>CMYK</xmpG:mode>
                           <xmpG:type>PROCESS</xmpG:type>
                           <xmpG:cyan>5.000001</xmpG:cyan>
                           <xmpG:magenta>0.000000</xmpG:magenta>
                           <xmpG:yellow>90.000000</xmpG:yellow>
                           <xmpG:black>0.000000</xmpG:black>
                        </rdf:li>
                        <rdf:li rdf:parseType="Resource">
                           <xmpG:swatchName>C=20 M=0 Y=100 K=0</xmpG:swatchName>
                           <xmpG:mode>CMYK</xmpG:mode>
                           <xmpG:type>PROCESS</xmpG:type>
                           <xmpG:cyan>19.999998</xmpG:cyan>
                           <xmpG:magenta>0.000000</xmpG:magenta>
                           <xmpG:yellow>100.000000</xmpG:yellow>
                           <xmpG:black>0.000000</xmpG:black>
                        </rdf:li>
                        <rdf:li rdf:parseType="Resource">
                           <xmpG:swatchName>C=50 M=0 Y=100 K=0</xmpG:swatchName>
                           <xmpG:mode>CMYK</xmpG:mode>
                           <xmpG:type>PROCESS</xmpG:type>
                           <xmpG:cyan>50.000000</xmpG:cyan>
                           <xmpG:magenta>0.000000</xmpG:magenta>
                           <xmpG:yellow>100.000000</xmpG:yellow>
                           <xmpG:black>0.000000</xmpG:black>
                        </rdf:li>
                        <rdf:li rdf:parseType="Resource">
                           <xmpG:swatchName>C=75 M=0 Y=100 K=0</xmpG:swatchName>
                           <xmpG:mode>CMYK</xmpG:mode>
                           <xmpG:type>PROCESS</xmpG:type>
                           <xmpG:cyan>75.000000</xmpG:cyan>
                           <xmpG:magenta>0.000000</xmpG:magenta>
                           <xmpG:yellow>100.000000</xmpG:yellow>
                           <xmpG:black>0.000000</xmpG:black>
                        </rdf:li>
                        <rdf:li rdf:parseType="Resource">
                           <xmpG:swatchName>C=85 M=10 Y=100 K=10</xmpG:swatchName>
                           <xmpG:mode>CMYK</xmpG:mode>
                           <xmpG:type>PROCESS</xmpG:type>
                           <xmpG:cyan>85.000000</xmpG:cyan>
                           <xmpG:magenta>10.000002</xmpG:magenta>
                           <xmpG:yellow>100.000000</xmpG:yellow>
                           <xmpG:black>10.000002</xmpG:black>
                        </rdf:li>
                        <rdf:li rdf:parseType="Resource">
                           <xmpG:swatchName>C=90 M=30 Y=95 K=30</xmpG:swatchName>
                           <xmpG:mode>CMYK</xmpG:mode>
                           <xmpG:type>PROCESS</xmpG:type>
                           <xmpG:cyan>90.000000</xmpG:cyan>
                           <xmpG:magenta>30.000002</xmpG:magenta>
                           <xmpG:yellow>95.000000</xmpG:yellow>
                           <xmpG:black>30.000002</xmpG:black>
                        </rdf:li>
                        <rdf:li rdf:parseType="Resource">
                           <xmpG:swatchName>C=75 M=0 Y=75 K=0</xmpG:swatchName>
                           <xmpG:mode>CMYK</xmpG:mode>
                           <xmpG:type>PROCESS</xmpG:type>
                           <xmpG:cyan>75.000000</xmpG:cyan>
                           <xmpG:magenta>0.000000</xmpG:magenta>
                           <xmpG:yellow>75.000000</xmpG:yellow>
                           <xmpG:black>0.000000</xmpG:black>
                        </rdf:li>
                        <rdf:li rdf:parseType="Resource">
                           <xmpG:swatchName>C=80 M=10 Y=45 K=0</xmpG:swatchName>
                           <xmpG:mode>CMYK</xmpG:mode>
                           <xmpG:type>PROCESS</xmpG:type>
                           <xmpG:cyan>80.000000</xmpG:cyan>
                           <xmpG:magenta>10.000002</xmpG:magenta>
                           <xmpG:yellow>45.000000</xmpG:yellow>
                           <xmpG:black>0.000000</xmpG:black>
                        </rdf:li>
                        <rdf:li rdf:parseType="Resource">
                           <xmpG:swatchName>C=70 M=15 Y=0 K=0</xmpG:swatchName>
                           <xmpG:mode>CMYK</xmpG:mode>
                           <xmpG:type>PROCESS</xmpG:type>
                           <xmpG:cyan>70.000000</xmpG:cyan>
                           <xmpG:magenta>14.999998</xmpG:magenta>
                           <xmpG:yellow>0.000000</xmpG:yellow>
                           <xmpG:black>0.000000</xmpG:black>
                        </rdf:li>
                        <rdf:li rdf:parseType="Resource">
                           <xmpG:swatchName>C=85 M=50 Y=0 K=0</xmpG:swatchName>
                           <xmpG:mode>CMYK</xmpG:mode>
                           <xmpG:type>PROCESS</xmpG:type>
                           <xmpG:cyan>85.000000</xmpG:cyan>
                           <xmpG:magenta>50.000000</xmpG:magenta>
                           <xmpG:yellow>0.000000</xmpG:yellow>
                           <xmpG:black>0.000000</xmpG:black>
                        </rdf:li>
                        <rdf:li rdf:parseType="Resource">
                           <xmpG:swatchName>C=100 M=95 Y=5 K=0</xmpG:swatchName>
                           <xmpG:mode>CMYK</xmpG:mode>
                           <xmpG:type>PROCESS</xmpG:type>
                           <xmpG:cyan>100.000000</xmpG:cyan>
                           <xmpG:magenta>95.000000</xmpG:magenta>
                           <xmpG:yellow>5.000001</xmpG:yellow>
                           <xmpG:black>0.000000</xmpG:black>
                        </rdf:li>
                        <rdf:li rdf:parseType="Resource">
                           <xmpG:swatchName>C=100 M=100 Y=25 K=25</xmpG:swatchName>
                           <xmpG:mode>CMYK</xmpG:mode>
                           <xmpG:type>PROCESS</xmpG:type>
                           <xmpG:cyan>100.000000</xmpG:cyan>
                           <xmpG:magenta>100.000000</xmpG:magenta>
                           <xmpG:yellow>25.000000</xmpG:yellow>
                           <xmpG:black>25.000000</xmpG:black>
                        </rdf:li>
                        <rdf:li rdf:parseType="Resource">
                           <xmpG:swatchName>C=75 M=100 Y=0 K=0</xmpG:swatchName>
                           <xmpG:mode>CMYK</xmpG:mode>
                           <xmpG:type>PROCESS</xmpG:type>
                           <xmpG:cyan>75.000000</xmpG:cyan>
                           <xmpG:magenta>100.000000</xmpG:magenta>
                           <xmpG:yellow>0.000000</xmpG:yellow>
                           <xmpG:black>0.000000</xmpG:black>
                        </rdf:li>
                        <rdf:li rdf:parseType="Resource">
                           <xmpG:swatchName>C=50 M=100 Y=0 K=0</xmpG:swatchName>
                           <xmpG:mode>CMYK</xmpG:mode>
                           <xmpG:type>PROCESS</xmpG:type>
                           <xmpG:cyan>50.000000</xmpG:cyan>
                           <xmpG:magenta>100.000000</xmpG:magenta>
                           <xmpG:yellow>0.000000</xmpG:yellow>
                           <xmpG:black>0.000000</xmpG:black>
                        </rdf:li>
                        <rdf:li rdf:parseType="Resource">
                           <xmpG:swatchName>C=35 M=100 Y=35 K=10</xmpG:swatchName>
                           <xmpG:mode>CMYK</xmpG:mode>
                           <xmpG:type>PROCESS</xmpG:type>
                           <xmpG:cyan>35.000004</xmpG:cyan>
                           <xmpG:magenta>100.000000</xmpG:magenta>
                           <xmpG:yellow>35.000004</xmpG:yellow>
                           <xmpG:black>10.000002</xmpG:black>
                        </rdf:li>
                        <rdf:li rdf:parseType="Resource">
                           <xmpG:swatchName>C=10 M=100 Y=50 K=0</xmpG:swatchName>
                           <xmpG:mode>CMYK</xmpG:mode>
                           <xmpG:type>PROCESS</xmpG:type>
                           <xmpG:cyan>10.000002</xmpG:cyan>
                           <xmpG:magenta>100.000000</xmpG:magenta>
                           <xmpG:yellow>50.000000</xmpG:yellow>
                           <xmpG:black>0.000000</xmpG:black>
                        </rdf:li>
                        <rdf:li rdf:parseType="Resource">
                           <xmpG:swatchName>C=0 M=95 Y=20 K=0</xmpG:swatchName>
                           <xmpG:mode>CMYK</xmpG:mode>
                           <xmpG:type>PROCESS</xmpG:type>
                           <xmpG:cyan>0.000000</xmpG:cyan>
                           <xmpG:magenta>95.000000</xmpG:magenta>
                           <xmpG:yellow>19.999998</xmpG:yellow>
                           <xmpG:black>0.000000</xmpG:black>
                        </rdf:li>
                        <rdf:li rdf:parseType="Resource">
                           <xmpG:swatchName>C=25 M=25 Y=40 K=0</xmpG:swatchName>
                           <xmpG:mode>CMYK</xmpG:mode>
                           <xmpG:type>PROCESS</xmpG:type>
                           <xmpG:cyan>25.000000</xmpG:cyan>
                           <xmpG:magenta>25.000000</xmpG:magenta>
                           <xmpG:yellow>39.999996</xmpG:yellow>
                           <xmpG:black>0.000000</xmpG:black>
                        </rdf:li>
                        <rdf:li rdf:parseType="Resource">
                           <xmpG:swatchName>C=40 M=45 Y=50 K=5</xmpG:swatchName>
                           <xmpG:mode>CMYK</xmpG:mode>
                           <xmpG:type>PROCESS</xmpG:type>
                           <xmpG:cyan>39.999996</xmpG:cyan>
                           <xmpG:magenta>45.000000</xmpG:magenta>
                           <xmpG:yellow>50.000000</xmpG:yellow>
                           <xmpG:black>5.000001</xmpG:black>
                        </rdf:li>
                        <rdf:li rdf:parseType="Resource">
                           <xmpG:swatchName>C=50 M=50 Y=60 K=25</xmpG:swatchName>
                           <xmpG:mode>CMYK</xmpG:mode>
                           <xmpG:type>PROCESS</xmpG:type>
                           <xmpG:cyan>50.000000</xmpG:cyan>
                           <xmpG:magenta>50.000000</xmpG:magenta>
                           <xmpG:yellow>60.000004</xmpG:yellow>
                           <xmpG:black>25.000000</xmpG:black>
                        </rdf:li>
                        <rdf:li rdf:parseType="Resource">
                           <xmpG:swatchName>C=55 M=60 Y=65 K=40</xmpG:swatchName>
                           <xmpG:mode>CMYK</xmpG:mode>
                           <xmpG:type>PROCESS</xmpG:type>
                           <xmpG:cyan>55.000000</xmpG:cyan>
                           <xmpG:magenta>60.000004</xmpG:magenta>
                           <xmpG:yellow>65.000000</xmpG:yellow>
                           <xmpG:black>39.999996</xmpG:black>
                        </rdf:li>
                        <rdf:li rdf:parseType="Resource">
                           <xmpG:swatchName>C=25 M=40 Y=65 K=0</xmpG:swatchName>
                           <xmpG:mode>CMYK</xmpG:mode>
                           <xmpG:type>PROCESS</xmpG:type>
                           <xmpG:cyan>25.000000</xmpG:cyan>
                           <xmpG:magenta>39.999996</xmpG:magenta>
                           <xmpG:yellow>65.000000</xmpG:yellow>
                           <xmpG:black>0.000000</xmpG:black>
                        </rdf:li>
                        <rdf:li rdf:parseType="Resource">
                           <xmpG:swatchName>C=30 M=50 Y=75 K=10</xmpG:swatchName>
                           <xmpG:mode>CMYK</xmpG:mode>
                           <xmpG:type>PROCESS</xmpG:type>
                           <xmpG:cyan>30.000002</xmpG:cyan>
                           <xmpG:magenta>50.000000</xmpG:magenta>
                           <xmpG:yellow>75.000000</xmpG:yellow>
                           <xmpG:black>10.000002</xmpG:black>
                        </rdf:li>
                        <rdf:li rdf:parseType="Resource">
                           <xmpG:swatchName>C=35 M=60 Y=80 K=25</xmpG:swatchName>
                           <xmpG:mode>CMYK</xmpG:mode>
                           <xmpG:type>PROCESS</xmpG:type>
                           <xmpG:cyan>35.000004</xmpG:cyan>
                           <xmpG:magenta>60.000004</xmpG:magenta>
                           <xmpG:yellow>80.000000</xmpG:yellow>
                           <xmpG:black>25.000000</xmpG:black>
                        </rdf:li>
                        <rdf:li rdf:parseType="Resource">
                           <xmpG:swatchName>C=40 M=65 Y=90 K=35</xmpG:swatchName>
                           <xmpG:mode>CMYK</xmpG:mode>
                           <xmpG:type>PROCESS</xmpG:type>
                           <xmpG:cyan>39.999996</xmpG:cyan>
                           <xmpG:magenta>65.000000</xmpG:magenta>
                           <xmpG:yellow>90.000000</xmpG:yellow>
                           <xmpG:black>35.000004</xmpG:black>
                        </rdf:li>
                        <rdf:li rdf:parseType="Resource">
                           <xmpG:swatchName>C=40 M=70 Y=100 K=50</xmpG:swatchName>
                           <xmpG:mode>CMYK</xmpG:mode>
                           <xmpG:type>PROCESS</xmpG:type>
                           <xmpG:cyan>39.999996</xmpG:cyan>
                           <xmpG:magenta>70.000000</xmpG:magenta>
                           <xmpG:yellow>100.000000</xmpG:yellow>
                           <xmpG:black>50.000000</xmpG:black>
                        </rdf:li>
                        <rdf:li rdf:parseType="Resource">
                           <xmpG:swatchName>C=50 M=70 Y=80 K=70</xmpG:swatchName>
                           <xmpG:mode>CMYK</xmpG:mode>
                           <xmpG:type>PROCESS</xmpG:type>
                           <xmpG:cyan>50.000000</xmpG:cyan>
                           <xmpG:magenta>70.000000</xmpG:magenta>
                           <xmpG:yellow>80.000000</xmpG:yellow>
                           <xmpG:black>70.000000</xmpG:black>
                        </rdf:li>
                     </rdf:Seq>
                  </xmpG:Colorants>
               </rdf:li>
               <rdf:li rdf:parseType="Resource">
                  <xmpG:groupName>Grays</xmpG:groupName>
                  <xmpG:groupType>1</xmpG:groupType>
                  <xmpG:Colorants>
                     <rdf:Seq>
                        <rdf:li rdf:parseType="Resource">
                           <xmpG:swatchName>C=0 M=0 Y=0 K=100</xmpG:swatchName>
                           <xmpG:mode>CMYK</xmpG:mode>
                           <xmpG:type>PROCESS</xmpG:type>
                           <xmpG:cyan>0.000000</xmpG:cyan>
                           <xmpG:magenta>0.000000</xmpG:magenta>
                           <xmpG:yellow>0.000000</xmpG:yellow>
                           <xmpG:black>100.000000</xmpG:black>
                        </rdf:li>
                        <rdf:li rdf:parseType="Resource">
                           <xmpG:swatchName>C=0 M=0 Y=0 K=90</xmpG:swatchName>
                           <xmpG:mode>CMYK</xmpG:mode>
                           <xmpG:type>PROCESS</xmpG:type>
                           <xmpG:cyan>0.000000</xmpG:cyan>
                           <xmpG:magenta>0.000000</xmpG:magenta>
                           <xmpG:yellow>0.000000</xmpG:yellow>
                           <xmpG:black>89.999405</xmpG:black>
                        </rdf:li>
                        <rdf:li rdf:parseType="Resource">
                           <xmpG:swatchName>C=0 M=0 Y=0 K=80</xmpG:swatchName>
                           <xmpG:mode>CMYK</xmpG:mode>
                           <xmpG:type>PROCESS</xmpG:type>
                           <xmpG:cyan>0.000000</xmpG:cyan>
                           <xmpG:magenta>0.000000</xmpG:magenta>
                           <xmpG:yellow>0.000000</xmpG:yellow>
                           <xmpG:black>79.998795</xmpG:black>
                        </rdf:li>
                        <rdf:li rdf:parseType="Resource">
                           <xmpG:swatchName>C=0 M=0 Y=0 K=70</xmpG:swatchName>
                           <xmpG:mode>CMYK</xmpG:mode>
                           <xmpG:type>PROCESS</xmpG:type>
                           <xmpG:cyan>0.000000</xmpG:cyan>
                           <xmpG:magenta>0.000000</xmpG:magenta>
                           <xmpG:yellow>0.000000</xmpG:yellow>
                           <xmpG:black>69.999702</xmpG:black>
                        </rdf:li>
                        <rdf:li rdf:parseType="Resource">
                           <xmpG:swatchName>C=0 M=0 Y=0 K=60</xmpG:swatchName>
                           <xmpG:mode>CMYK</xmpG:mode>
                           <xmpG:type>PROCESS</xmpG:type>
                           <xmpG:cyan>0.000000</xmpG:cyan>
                           <xmpG:magenta>0.000000</xmpG:magenta>
                           <xmpG:yellow>0.000000</xmpG:yellow>
                           <xmpG:black>59.999104</xmpG:black>
                        </rdf:li>
                        <rdf:li rdf:parseType="Resource">
                           <xmpG:swatchName>C=0 M=0 Y=0 K=50</xmpG:swatchName>
                           <xmpG:mode>CMYK</xmpG:mode>
                           <xmpG:type>PROCESS</xmpG:type>
                           <xmpG:cyan>0.000000</xmpG:cyan>
                           <xmpG:magenta>0.000000</xmpG:magenta>
                           <xmpG:yellow>0.000000</xmpG:yellow>
                           <xmpG:black>50.000000</xmpG:black>
                        </rdf:li>
                        <rdf:li rdf:parseType="Resource">
                           <xmpG:swatchName>C=0 M=0 Y=0 K=40</xmpG:swatchName>
                           <xmpG:mode>CMYK</xmpG:mode>
                           <xmpG:type>PROCESS</xmpG:type>
                           <xmpG:cyan>0.000000</xmpG:cyan>
                           <xmpG:magenta>0.000000</xmpG:magenta>
                           <xmpG:yellow>0.000000</xmpG:yellow>
                           <xmpG:black>39.999401</xmpG:black>
                        </rdf:li>
                        <rdf:li rdf:parseType="Resource">
                           <xmpG:swatchName>C=0 M=0 Y=0 K=30</xmpG:swatchName>
                           <xmpG:mode>CMYK</xmpG:mode>
                           <xmpG:type>PROCESS</xmpG:type>
                           <xmpG:cyan>0.000000</xmpG:cyan>
                           <xmpG:magenta>0.000000</xmpG:magenta>
                           <xmpG:yellow>0.000000</xmpG:yellow>
                           <xmpG:black>29.998802</xmpG:black>
                        </rdf:li>
                        <rdf:li rdf:parseType="Resource">
                           <xmpG:swatchName>C=0 M=0 Y=0 K=20</xmpG:swatchName>
                           <xmpG:mode>CMYK</xmpG:mode>
                           <xmpG:type>PROCESS</xmpG:type>
                           <xmpG:cyan>0.000000</xmpG:cyan>
                           <xmpG:magenta>0.000000</xmpG:magenta>
                           <xmpG:yellow>0.000000</xmpG:yellow>
                           <xmpG:black>19.999701</xmpG:black>
                        </rdf:li>
                        <rdf:li rdf:parseType="Resource">
                           <xmpG:swatchName>C=0 M=0 Y=0 K=10</xmpG:swatchName>
                           <xmpG:mode>CMYK</xmpG:mode>
                           <xmpG:type>PROCESS</xmpG:type>
                           <xmpG:cyan>0.000000</xmpG:cyan>
                           <xmpG:magenta>0.000000</xmpG:magenta>
                           <xmpG:yellow>0.000000</xmpG:yellow>
                           <xmpG:black>9.999103</xmpG:black>
                        </rdf:li>
                        <rdf:li rdf:parseType="Resource">
                           <xmpG:swatchName>C=0 M=0 Y=0 K=5</xmpG:swatchName>
                           <xmpG:mode>CMYK</xmpG:mode>
                           <xmpG:type>PROCESS</xmpG:type>
                           <xmpG:cyan>0.000000</xmpG:cyan>
                           <xmpG:magenta>0.000000</xmpG:magenta>
                           <xmpG:yellow>0.000000</xmpG:yellow>
                           <xmpG:black>4.998803</xmpG:black>
                        </rdf:li>
                     </rdf:Seq>
                  </xmpG:Colorants>
               </rdf:li>
               <rdf:li rdf:parseType="Resource">
                  <xmpG:groupName>Brights</xmpG:groupName>
                  <xmpG:groupType>1</xmpG:groupType>
                  <xmpG:Colorants>
                     <rdf:Seq>
                        <rdf:li rdf:parseType="Resource">
                           <xmpG:swatchName>C=0 M=100 Y=100 K=0</xmpG:swatchName>
                           <xmpG:mode>CMYK</xmpG:mode>
                           <xmpG:type>PROCESS</xmpG:type>
                           <xmpG:cyan>0.000000</xmpG:cyan>
                           <xmpG:magenta>100.000000</xmpG:magenta>
                           <xmpG:yellow>100.000000</xmpG:yellow>
                           <xmpG:black>0.000000</xmpG:black>
                        </rdf:li>
                        <rdf:li rdf:parseType="Resource">
                           <xmpG:swatchName>C=0 M=75 Y=100 K=0</xmpG:swatchName>
                           <xmpG:mode>CMYK</xmpG:mode>
                           <xmpG:type>PROCESS</xmpG:type>
                           <xmpG:cyan>0.000000</xmpG:cyan>
                           <xmpG:magenta>75.000000</xmpG:magenta>
                           <xmpG:yellow>100.000000</xmpG:yellow>
                           <xmpG:black>0.000000</xmpG:black>
                        </rdf:li>
                        <rdf:li rdf:parseType="Resource">
                           <xmpG:swatchName>C=0 M=10 Y=95 K=0</xmpG:swatchName>
                           <xmpG:mode>CMYK</xmpG:mode>
                           <xmpG:type>PROCESS</xmpG:type>
                           <xmpG:cyan>0.000000</xmpG:cyan>
                           <xmpG:magenta>10.000002</xmpG:magenta>
                           <xmpG:yellow>95.000000</xmpG:yellow>
                           <xmpG:black>0.000000</xmpG:black>
                        </rdf:li>
                        <rdf:li rdf:parseType="Resource">
                           <xmpG:swatchName>C=85 M=10 Y=100 K=0</xmpG:swatchName>
                           <xmpG:mode>CMYK</xmpG:mode>
                           <xmpG:type>PROCESS</xmpG:type>
                           <xmpG:cyan>85.000000</xmpG:cyan>
                           <xmpG:magenta>10.000002</xmpG:magenta>
                           <xmpG:yellow>100.000000</xmpG:yellow>
                           <xmpG:black>0.000000</xmpG:black>
                        </rdf:li>
                        <rdf:li rdf:parseType="Resource">
                           <xmpG:swatchName>C=100 M=90 Y=0 K=0</xmpG:swatchName>
                           <xmpG:mode>CMYK</xmpG:mode>
                           <xmpG:type>PROCESS</xmpG:type>
                           <xmpG:cyan>100.000000</xmpG:cyan>
                           <xmpG:magenta>90.000000</xmpG:magenta>
                           <xmpG:yellow>0.000000</xmpG:yellow>
                           <xmpG:black>0.000000</xmpG:black>
                        </rdf:li>
                        <rdf:li rdf:parseType="Resource">
                           <xmpG:swatchName>C=60 M=90 Y=0 K=0</xmpG:swatchName>
                           <xmpG:mode>CMYK</xmpG:mode>
                           <xmpG:type>PROCESS</xmpG:type>
                           <xmpG:cyan>60.000004</xmpG:cyan>
                           <xmpG:magenta>90.000000</xmpG:magenta>
                           <xmpG:yellow>0.003099</xmpG:yellow>
                           <xmpG:black>0.003099</xmpG:black>
                        </rdf:li>
                     </rdf:Seq>
                  </xmpG:Colorants>
               </rdf:li>
            </rdf:Seq>
         </xmpTPg:SwatchGroups>
      </rdf:Description>
      <rdf:Description rdf:about=""
            xmlns:pdf="http://ns.adobe.com/pdf/1.3/">
         <pdf:Producer>Adobe PDF library 10.01</pdf:Producer>
      </rdf:Description>
   </rdf:RDF>
</x:xmpmeta>
                                                                                                    
                                                                                                    
                                                                                                    
                                                                                                    
                                                                                                    
                                                                                                    
                                                                                                    
                                                                                                    
                                                                                                    
                                                                                                    
                                                                                                    
                                                                                                    
                                                                                                    
                                                                                                    
                                                                                                    
                                                                                                    
                                                                                                    
                                                                                                    
                                                                                                    
                                                                                                    
                           
<?xpacket end="w"?>
	</metadata>





	
		<polygon class="cat_ll" points="861.587,296.365 861.587,429.248 1032.604,429.666 1032.604,296.365 		"/>
		<path fill="#FFFFFF" d="M1035.104,432.171l-176.017-0.43V293.865h176.017V432.171z M864.087,426.754l166.017,0.405V298.865
			H864.087V426.754z"/>
	
	
		<rect x="861.587" y="62.342" class="cat_lu" width="171.017" height="124.957"/>
		<path fill="#FFFFFF" d="M1035.104,189.799H859.087V59.842h176.017V189.799z M864.087,184.799h166.017V64.842H864.087V184.799z"/>
	
	
		<polygon class="cat_ll" points="1032.604,296.365 1032.604,429.666 1203.622,430.083 1203.622,296.365 		"/>
		<path fill="#FFFFFF" d="M1206.122,432.59l-176.018-0.431V293.865h176.018V432.59z M1035.104,427.171l166.018,0.406V298.865
			h-166.018V427.171z"/>
	
	
		<rect x="1032.604" y="62.342" class="cat_lu" width="171.018" height="124.957"/>
		<path fill="#FFFFFF" d="M1206.122,189.799h-176.018V59.842h176.018V189.799z M1035.104,184.799h166.018V64.842h-166.018V184.799z"
			/>
	
	
		<rect x="1203.622" y="62.342" class="cat_lu" width="172.018" height="124.957"/>
		<path fill="#FFFFFF" d="M1378.14,189.799h-177.018V59.842h177.018V189.799z M1206.122,184.799h167.018V64.842h-167.018V184.799z"
			/>
	
	
		<polygon class="cat_ll" points="1203.622,296.365 1203.622,430.083 1375.64,430.504 1375.64,296.365 		"/>
		<path fill="#FFFFFF" d="M1378.14,433.011l-177.018-0.434V293.865h177.018V433.011z M1206.122,427.589l167.018,0.409V298.865
			h-167.018V427.589z"/>
	
	
		<polygon class="cat_ll" points="1375.64,296.365 1375.64,430.504 1548.657,430.927 1548.657,296.365 		"/>
		<path fill="#FFFFFF" d="M1551.157,433.433l-178.018-0.435V293.865h178.018V433.433z M1378.14,428.01l168.018,0.411V298.865
			H1378.14V428.01z"/>
	
	
		<rect x="1375.64" y="62.342" class="cat_lu" width="173.018" height="124.957"/>
		<path fill="#FFFFFF" d="M1551.157,189.799H1373.14V59.842h178.018V189.799z M1378.14,184.799h168.018V64.842H1378.14V184.799z"/>
	
	<path class="cat_su" stroke="#FFFFFF" stroke-width="5" stroke-miterlimit="10" d="M2123.056,1588.002l-153.306-133l-89.32,111.436
		l102.411,154.247c7.992-7.374,37.245-34.422,71.863-67.131l-135.684-135.261l135.684,135.261
		c12.257-11.581,25.186-23.871,38.083-36.25C2103.942,1606.597,2113.99,1596.864,2123.056,1588.002z"/>
	<path class="cat_su" stroke="#FFFFFF" stroke-width="5" stroke-miterlimit="10" d="M2204.581,1500.633l-178.166-116.325
		l-56.665,70.694l153.306,133C2188.989,1523.554,2202.513,1505.578,2204.581,1500.633z"/>
	<path fill="#FFFFFF" stroke="#FFFFFF" stroke-width="5" stroke-miterlimit="10" d="M1982.38,1724.51l-105.043-158.211
		l148.546-185.324l181.519,118.514c0,7.38-37.821,46.529-82.45,90.158l1.896,1.645c83.039-81.179,83.055-88.766,83.055-91.803
		v-1.354l-182.651-119.254l-1.899-1.239l-151.106,188.519l107.673,162.173l2.155-1.983c0.432-0.396,33.64-30.963,74.175-69.264
		l-1.771-1.766C2015.581,1693.965,1982.38,1724.51,1982.38,1724.51z"/>
	<path fill="#FFFFFF" stroke="#FFFFFF" stroke-width="5" stroke-miterlimit="10" d="M2126.847,1591.291l-1.896-1.645
		c-22.418,21.914-46.551,44.957-68.475,65.674l1.771,1.766c12.352-11.671,25.383-24.06,38.375-36.532
		C2107.762,1609.859,2117.79,1600.145,2126.847,1591.291z"/>
	<path fill="#FFFFFF" stroke="#FFFFFF" stroke-width="5" stroke-miterlimit="10" d="M2207.401,1499.488l-181.519-118.514
		l-148.546,185.324l105.043,158.211c0,0,33.201-30.545,74.097-69.189l-1.772-1.767c-34.618,32.709-63.871,59.757-71.863,67.131
		l-102.411-154.247l89.32-111.436l0,0l0,0l56.665-70.694l178.166,116.325c-2.068,4.945-15.592,22.921-81.525,87.369l1.896,1.645
		C2169.58,1546.018,2207.401,1506.868,2207.401,1499.488z"/>
	<path fill="#FFFFFF" stroke="#FFFFFF" stroke-width="5" stroke-miterlimit="10" d="M2092.787,1617.304
		c-12.897,12.379-25.826,24.669-38.083,36.25l1.772,1.767c21.924-20.717,46.057-43.76,68.475-65.674l-1.896-1.645
		C2113.99,1596.864,2103.942,1606.597,2092.787,1617.304z"/>
	
		<path class="cat_su" d="M2025.883,717.907h181.519c0-48.724,0-95.711,0-139.514h-181.519V717.907z"/>
		<path fill="#FFFFFF" d="M2209.901,720.407h-186.519V575.893h186.519V720.407z M2028.383,715.407h176.519V580.893h-176.519V715.407
			z"/>
	
	
		<path class="cat_su" d="M2025.883,962.431h181.519c0-41.858,0-84.136,0-126.012h-181.519V962.431z"/>
		<path fill="#FFFFFF" d="M2209.901,964.931h-186.519V833.919h186.519V964.931z M2028.383,959.931h176.519V838.919h-176.519V959.931
			z"/>
	
	
		<path class="cat_su" d="M2025.883,1380.975L2025.883,1380.975l181.519,118.514c0-5.672,0-127.209,0-291.033h-181.519V1380.975z"/>
		<path fill="#FFFFFF" d="M2209.901,1504.106l-186.519-121.778v-176.373h186.519V1504.106z M2028.383,1379.621l176.519,115.249
			v-283.915h-176.519V1379.621z"/>
	
	
		<path class="cat_su" d="M2025.883,1208.455h181.519c0-38.031,0-78.341,0-120.011h-181.519V1208.455z"/>
		<path fill="#FFFFFF" d="M2209.901,1210.955h-186.519v-125.011h186.519V1210.955z M2028.383,1205.955h176.519v-115.011h-176.519
			V1205.955z"/>
	
	
		<path class="cat_su" d="M2025.883,1088.444h181.519c0-40.982,0-83.277,0-126.013h-181.519V1088.444z"/>
		<path fill="#FFFFFF" d="M2209.901,1090.944h-186.519V959.931h186.519V1090.944z M2028.383,1085.944h176.519V964.931h-176.519
			V1085.944z"/>
	
	
		<path class="cat_su" d="M2025.883,836.419h181.519c0-40.115,0-79.859,0-118.513h-181.519V836.419z"/>
		<path fill="#FFFFFF" d="M2209.901,838.919h-186.519V715.407h186.519V838.919z M2028.383,833.919h176.519V720.407h-176.519V833.919
			z"/>
	
	
		<path class="cat_su" d="M2025.883,416.378L2025.883,416.378v162.015h181.519c0-163.089,0-282.028,0-282.028L2025.883,416.378z"/>
		<path fill="#FFFFFF" d="M2209.901,580.893h-186.519V415.034l186.519-123.318V580.893z M2028.383,575.893h176.519V301.015
			l-176.519,116.707V575.893z"/>
	
	
		<polygon class="cat_su" points="2207.401,296.365 1982.38,62.342 1857.867,246.86 2025.883,416.378 		"/>
		<path fill="#FFFFFF" d="M2025.551,419.594l-170.903-172.431l127.391-188.784l229.245,238.416L2025.551,419.594z M1861.087,246.558
			l165.128,166.604l177.305-117.227L1982.722,66.304L1861.087,246.558z"/>
	
	
		<polygon fill="#FFFFFF" points="1877.337,1566.299 1877.337,1566.299 1877.337,1566.298 		"/>
	
	
		<polygon class="cat_sl" points="2025.883,1380.975 1873.131,1281.243 1844.366,1262.463 1739.354,1358.475 1877.337,1566.298 
			1877.337,1566.299 		"/>
		<path fill="#FFFFFF" d="M1877.147,1570.533l-141.06-212.459l108.021-98.765l30.389,19.84l155.059,101.238L1877.147,1570.533z
			 M1742.621,1358.875l134.906,203.189l144.682-180.503l-177.586-115.945L1742.621,1358.875z"/>
	
	
		<polygon class="cat_sl" points="1862.759,578.393 1844.366,578.393 1844.366,717.907 1864.818,717.907 2025.883,717.907 
			2025.883,578.393 		"/>
		<path fill="#FFFFFF" d="M2028.383,720.407h-186.517V575.893h186.517V720.407z M1846.866,715.407h176.517V580.893h-176.517V715.407
			z"/>
	
	
		<polygon class="cat_sl" points="1866.566,836.419 1844.366,836.419 1844.366,962.431 1868.426,962.431 2025.883,962.431 
			2025.883,836.419 		"/>
		<path fill="#FFFFFF" d="M2028.383,964.931h-186.517V833.919h186.517V964.931z M1846.866,959.931h176.517V838.919h-176.517V959.931
			z"/>
	
	
		<polygon class="cat_sl" points="1872.057,1208.455 1844.366,1208.455 1844.366,1262.463 1873.131,1281.243 2025.883,1380.975 
			2025.883,1208.455 		"/>
		<path fill="#FFFFFF" d="M2028.383,1385.593l-186.517-121.776v-57.861h186.517V1385.593z M1846.866,1261.109l176.517,115.247
			v-165.401h-176.517V1261.109z"/>
	
	
		<polygon class="cat_sl" points="1870.286,1088.444 1844.366,1088.444 1844.366,1208.455 1872.057,1208.455 2025.883,1208.455 
			2025.883,1088.444 		"/>
		<path fill="#FFFFFF" d="M2028.383,1210.955h-186.517v-125.011h186.517V1210.955z M1846.866,1205.955h176.517v-115.011h-176.517
			V1205.955z"/>
	
	
		<polygon class="cat_sl" points="1868.426,962.431 1844.366,962.431 1844.366,1088.444 1870.286,1088.444 2025.883,1088.444 
			2025.883,962.431 		"/>
		<path fill="#FFFFFF" d="M2028.383,1090.944h-186.517V959.931h186.517V1090.944z M1846.866,1085.944h176.517V964.931h-176.517
			V1085.944z"/>
	
	
		<polygon class="cat_sl" points="1864.818,717.907 1844.366,717.907 1844.366,836.419 1866.566,836.419 2025.883,836.419 
			2025.883,717.907 		"/>
		<path fill="#FFFFFF" d="M2028.383,838.919h-186.517V715.407h186.517V838.919z M1846.866,833.919h176.517V720.407h-176.517V833.919
			z"/>
	
	
		<polygon class="cat_sl" points="1861.968,524.752 1844.366,536.389 1844.366,578.393 1862.759,578.393 2025.883,578.393 
			2025.883,416.378 		"/>
		<path fill="#FFFFFF" d="M2028.383,580.893h-186.517v-45.848l186.517-123.317V580.893z M1846.866,575.893h176.517V421.028
			l-176.517,116.706V575.893z"/>
	
	
		<polygon class="cat_sl" points="1857.867,246.86 1733.354,431.379 1844.366,536.389 1861.968,524.752 2025.883,416.378 		"/>
		<path fill="#FFFFFF" d="M1844.09,539.569l-113.993-107.831l1.186-1.758l126.217-187.043l172.305,173.846L1844.09,539.569z
			 M1736.613,431.02l108.029,102.189l177.319-117.236l-163.727-165.189L1736.613,431.02z"/>
	
	
		<polygon class="cat_su" points="222.703,411.876 387.203,246.86 266.208,62.342 44.185,287.364 222.703,411.877 		"/>
		<path fill="#FFFFFF" d="M222.993,415.127L40.323,287.719L266.601,58.383l123.806,188.804L222.993,415.127z M48.047,287.01
			l174.366,121.617l161.586-162.094L265.814,66.3L48.047,287.01z"/>
	
	
		<rect x="44.185" y="638.399" class="cat_su" width="178.518" height="159.016"/>
		<path fill="#FFFFFF" d="M225.203,799.915H41.685V635.899h183.518V799.915z M46.685,794.915h173.518V640.899H46.685V794.915z"/>
	
	
		<polygon class="cat_su" points="222.703,411.877 44.185,287.364 44.185,638.399 222.703,638.399 		"/>
		<path fill="#FFFFFF" d="M225.203,640.899H41.685V282.572l183.518,128V640.899z M46.685,635.899h173.518V413.181L46.685,292.156
			V635.899z"/>
	
	
		<rect x="44.185" y="797.415" class="cat_su" width="178.518" height="165.017"/>
		<path fill="#FFFFFF" d="M225.203,964.931H41.685V794.915h183.518V964.931z M46.685,959.931h173.518V799.915H46.685V959.931z"/>
	
	
		<rect x="44.185" y="962.431" class="cat_su" width="178.518" height="162.017"/>
		<path fill="#FFFFFF" d="M225.203,1126.948H41.685V959.931h183.518V1126.948z M46.685,1121.948h173.518V964.931H46.685V1121.948z"
			/>
	
	
		<polygon fill="#FFFFFF" points="387.203,246.86 387.203,246.86 387.203,246.86 		"/>
	
	
		<polygon class="cat_sl" points="387.203,246.86 222.703,411.876 222.703,411.877 350.354,500.91 401.221,536.389 506.231,428.378
					"/>
		<path fill="#FFFFFF" d="M401.533,539.655L218.829,412.223l168.777-169.307l121.815,185.768L401.533,539.655z M226.578,411.531
			l174.332,121.593l102.132-105.051L386.8,250.805L226.578,411.531z"/>
	
	
		<polygon class="cat_sl" points="330.412,638.399 222.703,638.399 222.703,797.415 307.347,797.415 401.221,797.415
			401.221,638.399 		"/>
		<path fill="#FFFFFF" d="M403.721,799.915H220.203V635.899h183.518V799.915z M225.203,794.915h173.518V640.899H225.203V794.915z"/>
	
	
		<polygon class="cat_sl" points="350.354,500.91 222.703,411.877 222.703,638.399 330.412,638.399 401.221,638.399
			401.221,536.389 		"/>
		<path fill="#FFFFFF" d="M403.721,640.899H220.203V407.085l183.518,128V640.899z M225.203,635.899h173.518v-98.206L225.203,416.668
			V635.899z"/>
	
	
		<polygon class="cat_sl" points="307.347,797.415 222.703,797.415 222.703,962.431 283.412,962.431 401.221,962.431
			401.221,797.415 		"/>
		<path fill="#FFFFFF" d="M403.721,964.931H220.203V794.915h183.518V964.931z M225.203,959.931h173.518V799.915H225.203V959.931z"/>
	
	
		<polygon class="cat_sl" points="283.412,962.431 222.703,962.431 222.703,1124.448 259.912,1124.448 401.221,1124.448
			401.221,962.431 		"/>
		<path fill="#FFFFFF" d="M403.721,1126.948H220.203V959.931h183.518V1126.948z M225.203,1121.948h173.518V964.931H225.203V1121.948
			z"/>
	
	
		<polygon class="cat_sl" points="259.912,1124.448 222.703,1124.448 222.703,1386.976 401.221,1262.463 401.221,1124.448 		"/>
		<path fill="#FFFFFF" d="M220.203,1391.768v-269.82h183.518v141.82L220.203,1391.768z M225.203,1126.948v255.236l173.518-121.025
			v-134.21H225.203z"/>
	
	
		<polygon class="cat_su" points="44.185,1124.448 44.185,1511.488 222.703,1386.976 222.703,1124.448 		"/>
		<path fill="#FFFFFF" d="M41.685,1516.28v-394.333h183.518v266.333L41.685,1516.28z M46.685,1126.948v379.749l173.518-121.025
			v-258.723H46.685z"/>
	
	
		<rect x="642.565" y="132.118" class="cat_vip" width="219.022" height="55.181"/>
		<path fill="#FFFFFF" d="M864.087,189.799H640.065v-60.181h224.022V189.799z M645.065,184.799h214.022v-50.181H645.065V184.799z"/>
	
	
		<rect x="642.565" y="62.342" class="cat_lu" width="219.022" height="69.776"/>
		<path fill="#FFFFFF" d="M864.087,134.618H640.065V59.842h224.022V134.618z M645.065,129.618h214.022V64.842H645.065V129.618z"/>
	
	
		<polygon class="cat_lu" points="642.565,62.342 266.208,62.342 311.962,132.118 642.565,132.118 		"/>
		<path fill="#FFFFFF" d="M645.065,134.618H310.612l-49.033-74.776h383.486V134.618z M313.312,129.618h326.753V64.842H270.836
			L313.312,129.618z"/>
	
	
		<polygon class="cat_vip" points="311.962,132.118 348.146,187.299 642.565,187.299 642.565,132.118 		"/>
		<path fill="#FFFFFF" d="M645.065,189.799H346.796l-39.463-60.181h337.732V189.799z M349.497,184.799h290.568v-50.181H316.591 
			L349.497,184.799z"/>
	
	
		<polygon class="cat_vip" points="642.565,428.712 861.587,429.248 861.587,363.872 642.565,363.139 		"/>
		<path fill="#FFFFFF" d="M864.087,431.754l-224.022-0.548v-70.575l224.022,0.75V431.754z M645.065,426.218l214.022,0.523v-60.377
			l-214.022-0.716V426.218z"/>
	
	
		<polygon class="cat_ll" points="642.565,296.365 642.565,363.139 861.587,363.872 861.587,296.365 		"/>
		<path fill="#FFFFFF" d="M864.087,366.38l-224.022-0.75v-71.766h224.022V366.38z M645.065,360.647l214.022,0.716v-62.499H645.065
			V360.647z"/>
	
	
		<polygon class="cat_vip" points="463.338,362.966 506.231,428.378 642.565,428.712 642.565,363.632 		"/>
		<path fill="#FFFFFF" d="M645.065,431.218l-140.187-0.343l-46.181-70.426l186.367,0.692V431.218z M507.583,425.882l132.481,0.324
			v-60.083l-172.087-0.639L507.583,425.882z"/>
	
	
		<polygon class="cat_ll" points="642.565,363.139 642.565,296.365 419.665,296.365 463.338,362.966 642.565,363.632 		"/>
		<path fill="#FFFFFF" d="M645.065,366.141l-183.081-0.68l-46.948-71.596h230.029V366.141z M464.691,360.471l175.374,0.651v-62.257
			H424.294L464.691,360.471z"/>
	
	
		<polygon class="cat_vip" points="1548.657,132.118 1548.657,187.299 1775.898,187.299 1775.687,132.118 		"/>
		<path fill="#FFFFFF" d="M1778.408,189.799h-232.251v-60.181h232.02L1778.408,189.799z M1551.157,184.799h222.231l-0.192-50.181
			h-222.039V184.799z"/>
	
	
		<polygon class="cat_lu" points="1775.418,62.342 1548.657,62.342 1548.657,132.118 1775.687,132.118 		"/>
		<path fill="#FFFFFF" d="M1778.196,134.618h-232.039V59.842h231.751L1778.196,134.618z M1551.157,129.618h222.02l-0.249-64.776
			h-221.771V129.618z"/>
	
	
		<polygon class="cat_lu" points="1775.418,62.342 1775.687,132.118 1935.296,132.118 1982.38,62.342 		"/>
		<path fill="#FFFFFF" d="M1936.625,134.618h-163.429l-0.288-74.776h214.175L1936.625,134.618z M1778.177,129.618h155.79
			l43.71-64.776h-199.749L1778.177,129.618z"/>
	
	
		<polygon class="cat_vip" points="1775.898,187.299 1898.06,187.299 1935.296,132.118 1775.687,132.118 		"/>
		<path fill="#FFFFFF" d="M1899.389,189.799h-125.98l-0.231-60.181h166.822L1899.389,189.799z M1778.389,184.799h118.342
			l33.862-50.181h-152.396L1778.389,184.799z"/>
	
	
		<polygon class="cat_ll" points="1703.345,296.365 1548.657,296.365 1548.657,363.872 1680.604,363.111 		"/>
		<path fill="#FFFFFF" d="M1546.157,366.387v-72.521h160.681l-24.44,71.735L1546.157,366.387z M1551.157,298.865v62.492
			l127.654-0.736l21.04-61.756H1551.157z"/>
	
	
		<polygon class="cat_vip" points="1548.657,363.872 1548.657,430.927 1657.408,431.193 1680.604,363.111 		"/>
		<path fill="#FFFFFF" d="M1659.196,433.698l-113.039-0.277v-72.035l137.947-0.795L1659.196,433.698z M1551.157,428.434
			l104.463,0.255l21.484-63.058l-125.947,0.727V428.434z"/>
	
	
		<polygon class="cat_vip" points="1657.408,431.193 1733.354,431.379 1778.926,363.847 1680.392,363.734 		"/>
		<path fill="#FFFFFF" d="M1734.682,433.882l-80.764-0.197l24.685-72.453l105.022,0.12L1734.682,433.882z M1660.898,428.702
			l71.129,0.174l42.199-62.534l-92.046-0.105L1660.898,428.702z"/>
	
	
		<polygon class="cat_ll" points="1703.345,296.365 1680.604,363.111 1680.392,363.734 1778.926,363.847 1824.462,296.365 		"/>
		<path fill="#FFFFFF" d="M1780.254,366.348l-103.356-0.118l24.658-72.365h127.609L1780.254,366.348z M1683.884,361.238
			l93.714,0.107l42.161-62.48h-114.625L1683.884,361.238z"/>
	
	
		<polygon class="cat_vip" points="1548.657,187.299 1375.64,187.299 1203.622,187.299 1032.604,187.299 861.587,187.299 
			642.565,187.299 348.146,187.299 387.203,246.86 419.665,296.365 642.565,296.365 861.587,296.365 1032.604,296.365 
			1203.622,296.365 1375.64,296.365 1548.657,296.365 1824.462,296.365 1862.593,239.859 1898.06,187.299 		"/>
		<path fill="#FFFFFF" d="M1825.791,298.865H418.315l-74.797-114.066h1559.245L1825.791,298.865z M421.015,293.865h1402.118
			l70.224-104.066H352.775L421.015,293.865z"/>
	
	
		<path fill="#FFFFFF" stroke="#FFFFFF" stroke-width="5" stroke-miterlimit="10" d="M273.708,1331.299"/>
	
	
		<polygon class="cat_lu" points="729.315,1579.348 729.315,1724.51 1120.667,1724.51 1121.876,1579.997 		"/>
		<path fill="#FFFFFF" d="M1123.146,1727.01H726.815v-150.166l397.582,0.657L1123.146,1727.01z M731.815,1722.01h386.373
			l1.167-139.517l-387.54-0.642V1722.01z"/>
	
	
		<polygon fill="#C7C5BF" points="295.226,1336.393 178.068,1418.107 44.185,1511.488 257.206,1724.51 355.19,1578.729 
			436.671,1457.502 		"/>
		<path fill="#FFFFFF" d="M257.586,1728.426l-217.279-217.28l255.076-177.91l144.605,123.814L257.586,1728.426z M48.063,1511.831
			l208.762,208.763l176.53-262.64L295.069,1339.55L48.063,1511.831z"/>
	
	
		<polygon fill="#C7C5BF" points="503.231,1358.475 401.221,1262.463 295.226,1336.393 436.671,1457.502 		"/>
		<path fill="#FFFFFF" d="M437.179,1461.228L291.146,1336.19l110.31-76.939l105.033,98.857L437.179,1461.228z M299.306,1336.595
			l136.857,117.182l63.809-94.936l-98.986-93.166L299.306,1336.595z"/>
	
	
		
			<rect x="809.345" y="1358.475" class="cat_ll" width="160" height="99.027"/>
			<path fill="#FFFFFF" d="M971.845,1460.002h-165v-104.027h165V1460.002z M811.845,1455.002h155v-94.027h-155V1455.002z"/>
		
		
			<polygon class="cat_ll" points="503.231,1358.475 436.671,1457.502 649.345,1457.502 649.345,1358.475 			"/>
			<path fill="#FFFFFF" d="M651.845,1460.002H431.979l69.92-104.027h149.946V1460.002z M441.364,1455.002h205.481v-94.027H504.563
				L441.364,1455.002z"/>
		
		
			<polygon class="cat_ll" points="1805.103,1457.502 1739.354,1358.475 1506.394,1358.475 1445.345,1358.475 1445.345,1457.502 
				1506.394,1457.502 			"/>
			<path fill="#FFFFFF" d="M1809.764,1460.002h-366.919v-104.027h297.851L1809.764,1460.002z M1447.845,1455.002h352.597
				l-62.428-94.027h-290.169V1455.002z"/>
		
		
			<polygon class="cat_ll" points="729.315,1358.475 649.345,1358.475 649.345,1457.502 729.315,1457.502 809.345,1457.502 
				809.345,1358.475 			"/>
			<path fill="#FFFFFF" d="M811.845,1460.002h-165v-104.027h165V1460.002z M651.845,1455.002h155v-94.027h-155V1455.002z"/>
		
		
			<rect x="969.345" y="1358.475" class="cat_ll" width="152.531" height="99.027"/>
			<path fill="#FFFFFF" d="M1124.376,1460.002H966.845v-104.027h157.531V1460.002z M971.845,1455.002h147.531v-94.027H971.845
				V1455.002z"/>
		
		
			<rect x="1169.345" y="1358.475" class="cat_ll" width="276" height="99.027"/>
			<path fill="#FFFFFF" d="M1447.845,1460.002h-281v-104.027h281V1460.002z M1171.845,1455.002h271v-94.027h-271V1455.002z"/>
		
	
	
		
			<polygon class="cat_vip" points="1271.345,1457.502 1271.345,1580.244 1415.345,1580.482 1415.345,1457.502 			"/>
			<path fill="#FFFFFF" d="M1417.845,1582.986l-149-0.246v-127.738h149V1582.986z M1273.845,1577.748l139,0.23v-117.977h-139
				V1577.748z"/>
		
		
			<polygon class="cat_vip" points="1887.272,1581.263 1805.103,1457.502 1641.345,1457.502 1641.345,1580.856 			"/>
			<path fill="#FFFFFF" d="M1891.938,1583.771l-253.094-0.418v-128.351h167.599L1891.938,1583.771z M1643.845,1578.36l238.762,0.395
				l-78.845-118.753h-159.917V1578.36z"/>
		
		
			<polygon class="cat_vip" points="436.671,1457.502 355.19,1578.729 569.345,1579.083 569.345,1457.502 			"/>
			<path fill="#FFFFFF" d="M571.845,1581.587l-221.342-0.365l84.837-126.22h136.505V1581.587z M359.877,1576.237l206.967,0.342
				v-116.577H438.003L359.877,1576.237z"/>
		
		
			<polygon class="cat_vip" points="809.345,1457.502 809.345,1579.48 1045.61,1579.871 1045.61,1457.502 			"/>
			<path fill="#FFFFFF" d="M1048.11,1582.375l-241.266-0.398v-126.975h241.266V1582.375z M811.845,1576.984l231.266,0.383v-117.365
				H811.845V1576.984z"/>
		
		
			<polygon class="cat_vip" points="729.315,1457.502 569.345,1457.502 569.345,1579.083 729.315,1579.348 809.345,1579.48 
				809.345,1457.502 			"/>
			<path fill="#FFFFFF" d="M811.845,1581.984l-245-0.405v-126.577h245V1581.984z M571.845,1576.587l235,0.39v-116.975h-235V1576.587
				z"/>
		
		
			<polygon class="cat_vip" points="1122.901,1457.502 1045.61,1457.502 1045.61,1579.871 1121.876,1579.997 1271.345,1580.244 
				1271.345,1457.502 			"/>
			<path fill="#FFFFFF" d="M1273.845,1582.748l-230.734-0.381v-127.365h230.734V1582.748z M1048.11,1577.375l220.734,0.365v-117.738
				H1048.11V1577.375z"/>
		
		
			<polygon class="cat_vip" points="1641.345,1580.856 1641.345,1457.502 1506.394,1457.502 1415.345,1457.502 1415.345,1580.482 
				1506.394,1580.633 			"/>
			<path fill="#FFFFFF" d="M1643.845,1583.36l-231-0.382v-127.977h231V1583.36z M1417.845,1577.986l221,0.366v-118.351h-221
				V1577.986z"/>
		
	
	
		<polygon class="cat_lu" points="257.206,1724.51 729.315,1724.51 729.315,1579.348 355.19,1578.729 		"/>
		<path fill="#FFFFFF" d="M731.815,1727.01H252.513l101.346-150.782l1.334,0.002l376.621,0.622V1727.01z M261.898,1722.01h464.917
			v-140.166l-370.294-0.612L261.898,1722.01z"/>
	
	
		<polygon class="cat_lu" points="1121.876,1579.997 1121.876,1724.51 1506.394,1724.51 1506.394,1580.633 		"/>
		<path fill="#FFFFFF" d="M1508.894,1727.01h-389.518v-149.517l389.518,0.644V1727.01z M1124.376,1722.01h379.518v-138.881
			l-379.518-0.628V1722.01z"/>
	
	
		<polygon class="cat_vip" points="1120.667,1724.51 1121.876,1724.51 1121.876,1579.997 		"/>
		<polygon fill="#FFFFFF" points="1124.376,1727.01 1118.146,1727.01 1119.376,1579.977 1124.376,1579.997 		"/>
	
	
		<polygon class="cat_lu" points="1887.272,1581.263 1715.345,1580.979 1515.345,1580.647 1506.394,1580.633 1506.394,1724.51 
			1515.345,1724.51 1715.345,1724.51 1982.38,1724.51 		"/>
		<path fill="#FFFFFF" d="M1987.04,1727.01h-483.146v-148.881l384.722,0.636L1987.04,1727.01z M1508.894,1722.01h468.825
			l-91.789-138.249l-377.036-0.624V1722.01z"/>
	
	
		<rect x="729.315" y="1579.348" class="cat_lu" width="392.561" height="145.162"/>
		<path fill="#FFFFFF" d="M1124.376,1727.01H726.815v-150.162h397.561V1727.01z M731.815,1722.01h387.561v-140.162H731.815V1722.01z
			"/>
	
	
	
	
	
	
	
	
	
	
	
	
	

</svg>
