<?xml version="1.0" encoding="utf-8"?>
<!-- Generator: Adobe Illustrator 19.2.0, SVG Export Plug-In . SVG Version: 6.00 Build 0)  -->
<svg version="1.1" id="Layer_1" xmlns="http://www.w3.org/2000/svg" xmlns:xlink="http://www.w3.org/1999/xlink" x="0px" y="0px"
 viewBox="0 0 416 314" style="enable-background:new 0 0 416 314;" xml:space="preserve">
<style type="text/css">
.st0{fill:#D0D0D0;stroke:#D0D0D0;stroke-width:2;}
.st1{enable-background:new    ;}
.st2{fill:#FFFFFF;}
.st3{fill-opacity:0;}
.st4{fill:#2196F3;stroke:#2196F3;stroke-width:2;}
.st5{fill:#E91E63;stroke:#E91E63;stroke-width:2;}
.st6{fill:#9C27B0;stroke:#9C27B0;stroke-width:2;}
</style>
<path id="SvgjsPath1001" class="st0" d="M161.5,260.3h92.6v21.4h-92.6V260.3z"/>
<path class="st2" d="M205.8,269.2h1.2l-2,5.8h-1.1l-1.9-5.8h1.3l1.2,4.4L205.8,269.2z"/>
<path class="st2" d="M208.8,274.9h-1.2v-5.8h1.2V274.9z"/>
<path class="st2" d="M213.8,272.4c-0.3,0.3-0.8,0.4-1.4,0.4h-1.2v2.1H210v-5.8h2.5c0.6,0,1,0.1,1.4,0.4s0.5,0.8,0.5,1.4C214.3,271.7,214.1,272.2,213.8,272.4z M212.9,270.4c-0.2-0.1-0.4-0.2-0.6-0.2h-1.1v1.7h1.1c0.3,0,0.5-0.1,0.6-0.2s0.2-0.4,0.2-0.7S213,270.5,212.9,270.4z"/>
<path class="st2" d="M73.5,46.8c0.2-0.4,0.5-0.8,1.1-1.2c0.5-0.4,0.8-0.6,1-0.8c0.2-0.2,0.3-0.5,0.3-0.8c0-0.2-0.1-0.4-0.2-0.6s-0.3-0.2-0.6-0.2c-0.3,0-0.6,0.1-0.7,0.4c-0.1,0.1-0.1,0.4-0.1,0.7h-1.1c0-0.5,0.1-0.9,0.3-1.2c0.3-0.6,0.8-0.8,1.6-0.8c0.6,0,1.1,0.2,1.4,0.5s0.5,0.8,0.5,1.3c0,0.4-0.1,0.8-0.4,1.1c-0.2,0.2-0.4,0.5-0.8,0.7l-0.4,0.3c-0.3,0.2-0.5,0.3-0.6,0.4s-0.2,0.2-0.3,0.3h2.5v1h-3.9C73.3,47.5,73.3,47.2,73.5,46.8z"/>
<path class="st2" d="M78.8,46.4c0,0.2,0.1,0.4,0.3,0.6c0.1,0.1,0.3,0.2,0.5,0.2c0.3,0,0.5-0.1,0.6-0.3s0.2-0.4,0.2-0.7c0-0.3-0.1-0.5-0.2-0.7s-0.3-0.3-0.6-0.3c-0.1,0-0.3,0-0.4,0.1c-0.2,0.1-0.3,0.2-0.4,0.3l-1,0l0.4-3.1h3.1v0.9H79l-0.2,1.2c0.2-0.1,0.3-0.2,0.4-0.2c0.2-0.1,0.4-0.1,0.6-0.1c0.5,0,0.9,0.2,1.2,0.5c0.3,0.3,0.5,0.8,0.5,1.4c0,0.5-0.2,1-0.5,1.4s-0.8,0.6-1.5,0.6c-0.5,0-1-0.1-1.3-0.4c-0.3-0.3-0.5-0.7-0.6-1.2H78.8z"/>
<path class="st2" d="M86.5,39.8c0.2-0.4,0.5-0.8,1.1-1.2c0.5-0.4,0.8-0.6,1-0.8c0.2-0.2,0.3-0.5,0.3-0.8c0-0.2-0.1-0.4-0.2-0.6s-0.3-0.2-0.6-0.2c-0.3,0-0.6,0.1-0.7,0.4c-0.1,0.1-0.1,0.4-0.1,0.7h-1.1c0-0.5,0.1-0.9,0.3-1.2c0.3-0.6,0.8-0.8,1.6-0.8c0.6,0,1.1,0.2,1.4,0.5s0.5,0.8,0.5,1.3c0,0.4-0.1,0.8-0.4,1.1c-0.2,0.2-0.4,0.5-0.8,0.7l-0.4,0.3c-0.3,0.2-0.5,0.3-0.6,0.4s-0.2,0.2-0.3,0.3h2.5v1h-3.9C86.3,40.5,86.3,40.2,86.5,39.8z"/>
<path class="st2" d="M93.4,36.7c0-0.1,0-0.2-0.1-0.3c-0.1-0.2-0.3-0.3-0.5-0.3c-0.4,0-0.6,0.2-0.8,0.6c-0.1,0.2-0.1,0.6-0.2,1c0.1-0.2,0.3-0.3,0.5-0.4s0.4-0.1,0.6-0.1c0.5,0,0.9,0.2,1.2,0.5s0.5,0.8,0.5,1.3c0,0.5-0.2,1-0.5,1.4s-0.8,0.6-1.5,0.6c-0.7,0-1.2-0.3-1.6-0.9c-0.3-0.5-0.4-1.1-0.4-1.8c0-0.4,0-0.8,0.1-1.1c0.1-0.5,0.2-0.9,0.4-1.2c0.2-0.3,0.4-0.5,0.6-0.7s0.6-0.2,0.9-0.2c0.5,0,0.9,0.1,1.3,0.4s0.5,0.6,0.5,1.1H93.4z M92.1,39.9c0.2,0.2,0.4,0.3,0.6,0.3c0.2,0,0.4-0.1,0.6-0.3s0.2-0.4,0.2-0.7c0-0.3-0.1-0.6-0.2-0.8s-0.4-0.3-0.6-0.3c-0.2,0-0.4,0.1-0.5,0.2c-0.2,0.2-0.3,0.4-0.3,0.8C91.8,39.4,91.9,39.7,92.1,39.9z"/>
<path class="st2" d="M100.8,61.7c0.2-0.4,0.5-0.8,1.1-1.2c0.5-0.4,0.8-0.6,1-0.8c0.2-0.2,0.3-0.5,0.3-0.8c0-0.2-0.1-0.4-0.2-0.6s-0.3-0.2-0.6-0.2c-0.3,0-0.6,0.1-0.7,0.4c-0.1,0.1-0.1,0.4-0.1,0.7h-1.1c0-0.5,0.1-0.9,0.3-1.2c0.3-0.6,0.8-0.8,1.6-0.8c0.6,0,1.1,0.2,1.4,0.5s0.5,0.8,0.5,1.3c0,0.4-0.1,0.8-0.4,1.1c-0.2,0.2-0.4,0.5-0.8,0.7l-0.4,0.3c-0.3,0.2-0.5,0.3-0.6,0.4c-0.1,0.1-0.2,0.2-0.3,0.3h2.5v1h-3.9C100.5,62.4,100.6,62.1,100.8,61.7z"/>
<path class="st2" d="M108.9,58.1c-0.2,0.2-0.4,0.5-0.7,0.9c-0.3,0.4-0.5,0.9-0.7,1.3c-0.2,0.4-0.3,0.8-0.4,1.3s-0.2,0.9-0.2,1.2h-1.2c0-1,0.4-2.1,1-3.2c0.4-0.7,0.8-1.2,1-1.4h-2.8l0-1h4V58.1z"/>
<path class="st2" d="M123.5,61.7c0.2-0.4,0.5-0.8,1.1-1.2c0.5-0.4,0.8-0.6,1-0.8c0.2-0.2,0.3-0.5,0.3-0.8c0-0.2-0.1-0.4-0.2-0.6s-0.3-0.2-0.6-0.2c-0.3,0-0.6,0.1-0.7,0.4c-0.1,0.1-0.1,0.4-0.1,0.7h-1.1c0-0.5,0.1-0.9,0.3-1.2c0.3-0.6,0.8-0.8,1.6-0.8c0.6,0,1.1,0.2,1.4,0.5s0.5,0.8,0.5,1.3c0,0.4-0.1,0.8-0.4,1.1c-0.2,0.2-0.4,0.5-0.8,0.7l-0.4,0.3c-0.3,0.2-0.5,0.3-0.6,0.4s-0.2,0.2-0.3,0.3h2.5v1h-3.9C123.2,62.4,123.3,62.1,123.5,61.7z"/>
<path class="st2" d="M127.8,60.4c0.1-0.3,0.4-0.5,0.6-0.6c-0.3-0.2-0.5-0.4-0.5-0.6s-0.1-0.4-0.1-0.6c0-0.4,0.2-0.8,0.5-1.1s0.7-0.4,1.3-0.4s1,0.1,1.3,0.4s0.5,0.6,0.5,1.1c0,0.2,0,0.4-0.1,0.6s-0.3,0.4-0.5,0.6c0.3,0.2,0.5,0.4,0.6,0.6s0.2,0.5,0.2,0.9c0,0.5-0.2,0.9-0.5,1.2s-0.8,0.5-1.5,0.5s-1.1-0.2-1.4-0.5s-0.5-0.7-0.5-1.2C127.6,60.9,127.7,60.7,127.8,60.4z M129,61.8c0.1,0.2,0.3,0.2,0.6,0.2s0.5-0.1,0.6-0.2s0.2-0.4,0.2-0.6c0-0.3-0.1-0.5-0.2-0.7s-0.3-0.2-0.6-0.2s-0.4,0.1-0.6,0.2s-0.2,0.4-0.2,0.7C128.8,61.5,128.8,61.7,129,61.8z M129,59.3c0.1,0.1,0.3,0.2,0.5,0.2c0.2,0,0.4-0.1,0.5-0.2s0.2-0.3,0.2-0.5c0-0.2-0.1-0.4-0.2-0.5s-0.3-0.2-0.5-0.2c-0.2,0-0.4,0.1-0.5,0.2s-0.2,0.3-0.2,0.5C128.9,59,128.9,59.1,129,59.3z"/>
<path class="st2" d="M150.2,61.7c0.2-0.4,0.5-0.8,1.1-1.2c0.5-0.4,0.8-0.6,1-0.8c0.2-0.2,0.3-0.5,0.3-0.8c0-0.2-0.1-0.4-0.2-0.6s-0.3-0.2-0.6-0.2c-0.3,0-0.6,0.1-0.7,0.4c-0.1,0.1-0.1,0.4-0.1,0.7H150c0-0.5,0.1-0.9,0.3-1.2c0.3-0.6,0.8-0.8,1.6-0.8c0.6,0,1.1,0.2,1.4,0.5s0.5,0.8,0.5,1.3c0,0.4-0.1,0.8-0.4,1.1c-0.2,0.2-0.4,0.5-0.8,0.7l-0.4,0.3c-0.3,0.2-0.5,0.3-0.6,0.4s-0.2,0.2-0.3,0.3h2.5v1H150C150,62.4,150.1,62.1,150.2,61.7z"/>
<path class="st2" d="M154.9,57.7c0.4-0.4,0.8-0.6,1.4-0.6c0.9,0,1.5,0.4,1.8,1.1c0.2,0.4,0.3,1,0.3,1.7c0,0.7-0.1,1.3-0.3,1.7c-0.3,0.9-0.9,1.3-1.8,1.3c-0.4,0-0.8-0.1-1.1-0.4s-0.5-0.6-0.6-1.1h1.1c0,0.2,0.1,0.3,0.2,0.4s0.3,0.2,0.5,0.2c0.4,0,0.6-0.2,0.8-0.6c0.1-0.2,0.1-0.6,0.2-1c-0.1,0.1-0.2,0.2-0.3,0.3c-0.2,0.1-0.5,0.2-0.8,0.2c-0.5,0-0.9-0.2-1.2-0.5s-0.5-0.8-0.5-1.3C154.4,58.5,154.6,58.1,154.9,57.7z M156.8,59.9c0.3-0.2,0.4-0.4,0.4-0.8c0-0.3-0.1-0.6-0.2-0.8s-0.4-0.3-0.6-0.3c-0.2,0-0.4,0.1-0.5,0.2c-0.2,0.2-0.3,0.4-0.3,0.8c0,0.3,0.1,0.6,0.2,0.8s0.3,0.3,0.6,0.3C156.5,60.1,156.7,60,156.8,59.9z"/>
<path class="st2" d="M177.8,61.1c0,0.2,0,0.4,0.1,0.6c0.1,0.3,0.4,0.4,0.7,0.4c0.2,0,0.4-0.1,0.6-0.2c0.2-0.1,0.2-0.4,0.2-0.6c0-0.4-0.2-0.6-0.5-0.7c-0.2-0.1-0.4-0.1-0.8-0.1v-0.8c0.4,0,0.6,0,0.8-0.1c0.2-0.1,0.4-0.3,0.4-0.7c0-0.2-0.1-0.4-0.2-0.5s-0.3-0.2-0.5-0.2c-0.3,0-0.5,0.1-0.6,0.2s-0.2,0.4-0.2,0.7h-1c0-0.3,0.1-0.5,0.1-0.8c0.1-0.2,0.2-0.4,0.4-0.6c0.1-0.1,0.3-0.2,0.5-0.3c0.2-0.1,0.4-0.1,0.7-0.1c0.5,0,1,0.1,1.3,0.4s0.5,0.7,0.5,1.1c0,0.3-0.1,0.6-0.3,0.8c-0.1,0.1-0.3,0.2-0.4,0.3c0.1,0,0.2,0.1,0.4,0.3c0.3,0.3,0.4,0.6,0.4,1.1c0,0.5-0.2,0.9-0.5,1.3s-0.8,0.5-1.5,0.5c-0.8,0-1.4-0.3-1.7-0.8c-0.2-0.3-0.3-0.6-0.3-1.1H177.8z"/>
<path class="st2" d="M184.6,57.9c0.3,0.5,0.4,1.2,0.4,2.2s-0.1,1.7-0.4,2.2s-0.8,0.8-1.5,0.8s-1.2-0.3-1.5-0.8s-0.4-1.2-0.4-2.2s0.1-1.7,0.4-2.2s0.8-0.8,1.5-0.8S184.3,57.4,184.6,57.9z M182.5,61.5c0.1,0.3,0.3,0.5,0.7,0.5s0.5-0.2,0.7-0.5s0.2-0.8,0.2-1.5c0-0.7-0.1-1.2-0.2-1.5s-0.3-0.5-0.7-0.5s-0.5,0.2-0.7,0.5s-0.2,0.8-0.2,1.5C182.3,60.7,182.4,61.2,182.5,61.5z"/>
<path class="st2" d="M204.1,43.3c0,0.2,0,0.4,0.1,0.6c0.1,0.3,0.4,0.4,0.7,0.4c0.2,0,0.4-0.1,0.6-0.2c0.2-0.1,0.2-0.4,0.2-0.6c0-0.4-0.2-0.6-0.5-0.7c-0.2-0.1-0.4-0.1-0.8-0.1v-0.8c0.4,0,0.6,0,0.8-0.1c0.2-0.1,0.4-0.3,0.4-0.7c0-0.2-0.1-0.4-0.2-0.5s-0.3-0.2-0.5-0.2c-0.3,0-0.5,0.1-0.6,0.2s-0.2,0.4-0.2,0.7h-1c0-0.3,0.1-0.5,0.1-0.8c0.1-0.2,0.2-0.4,0.4-0.6c0.1-0.1,0.3-0.2,0.5-0.3c0.2-0.1,0.4-0.1,0.7-0.1c0.5,0,1,0.1,1.3,0.4s0.5,0.7,0.5,1.1c0,0.3-0.1,0.6-0.3,0.8c-0.1,0.1-0.3,0.2-0.4,0.3c0.1,0,0.2,0.1,0.4,0.3c0.3,0.3,0.4,0.6,0.4,1.1c0,0.5-0.2,0.9-0.5,1.3s-0.8,0.5-1.5,0.5c-0.8,0-1.4-0.3-1.7-0.8c-0.2-0.3-0.3-0.6-0.3-1.1H204.1z"/>
<path class="st2" d="M207.8,41.1v-0.8c0.4,0,0.6,0,0.7-0.1c0.2,0,0.4-0.1,0.5-0.3c0.1-0.1,0.2-0.2,0.2-0.4c0-0.1,0-0.2,0-0.2h0.9v5.7h-1.1v-3.9H207.8z"/>
<path class="st2" d="M231.6,43.3c0,0.2,0,0.4,0.1,0.6c0.1,0.3,0.4,0.4,0.7,0.4c0.2,0,0.4-0.1,0.6-0.2s0.2-0.4,0.2-0.6c0-0.4-0.2-0.6-0.5-0.7c-0.2-0.1-0.4-0.1-0.8-0.1v-0.8c0.4,0,0.6,0,0.8-0.1c0.2-0.1,0.4-0.3,0.4-0.7c0-0.2-0.1-0.4-0.2-0.5s-0.3-0.2-0.5-0.2c-0.3,0-0.5,0.1-0.6,0.2c-0.1,0.2-0.2,0.4-0.2,0.7h-1c0-0.3,0.1-0.5,0.1-0.8c0.1-0.2,0.2-0.4,0.4-0.6c0.1-0.1,0.3-0.2,0.5-0.3s0.4-0.1,0.7-0.1c0.5,0,1,0.1,1.3,0.4c0.3,0.3,0.5,0.7,0.5,1.1c0,0.3-0.1,0.6-0.3,0.8c-0.1,0.1-0.3,0.2-0.4,0.3c0.1,0,0.2,0.1,0.4,0.3c0.3,0.3,0.4,0.6,0.4,1.1c0,0.5-0.2,0.9-0.5,1.3c-0.3,0.4-0.8,0.5-1.5,0.5c-0.8,0-1.4-0.3-1.7-0.8c-0.2-0.3-0.3-0.6-0.3-1.1H231.6z"/>
<path class="st2" d="M235.3,43.9c0.2-0.4,0.5-0.8,1.1-1.2c0.5-0.4,0.8-0.6,1-0.8c0.2-0.2,0.3-0.5,0.3-0.8c0-0.2-0.1-0.4-0.2-0.6s-0.3-0.2-0.6-0.2c-0.3,0-0.6,0.1-0.7,0.4c-0.1,0.1-0.1,0.4-0.1,0.7h-1.1c0-0.5,0.1-0.9,0.3-1.2c0.3-0.6,0.8-0.8,1.6-0.8c0.6,0,1.1,0.2,1.4,0.5s0.5,0.8,0.5,1.3c0,0.4-0.1,0.8-0.4,1.1c-0.2,0.2-0.4,0.5-0.8,0.7l-0.4,0.3c-0.3,0.2-0.5,0.3-0.6,0.4c-0.1,0.1-0.2,0.2-0.3,0.3h2.5v1H235C235,44.6,235.1,44.3,235.3,43.9z"/>
<path class="st2" d="M204.1,78.6c0,0.2,0,0.4,0.1,0.6c0.1,0.3,0.4,0.4,0.7,0.4c0.2,0,0.4-0.1,0.6-0.2c0.2-0.1,0.2-0.4,0.2-0.6c0-0.4-0.2-0.6-0.5-0.7c-0.2-0.1-0.4-0.1-0.8-0.1V77c0.4,0,0.6,0,0.8-0.1c0.2-0.1,0.4-0.3,0.4-0.7c0-0.2-0.1-0.4-0.2-0.5s-0.3-0.2-0.5-0.2c-0.3,0-0.5,0.1-0.6,0.2s-0.2,0.4-0.2,0.7h-1c0-0.3,0.1-0.5,0.1-0.8c0.1-0.2,0.2-0.4,0.4-0.6c0.1-0.1,0.3-0.2,0.5-0.3c0.2-0.1,0.4-0.1,0.7-0.1c0.5,0,1,0.1,1.3,0.4s0.5,0.7,0.5,1.1c0,0.3-0.1,0.6-0.3,0.8c-0.1,0.1-0.3,0.2-0.4,0.3c0.1,0,0.2,0.1,0.4,0.3c0.3,0.3,0.4,0.6,0.4,1.1c0,0.5-0.2,0.9-0.5,1.3s-0.8,0.5-1.5,0.5c-0.8,0-1.4-0.3-1.7-0.8c-0.2-0.3-0.3-0.6-0.3-1.1H204.1z"/>
<path class="st2" d="M207.8,76.4v-0.8c0.4,0,0.6,0,0.7-0.1c0.2,0,0.4-0.1,0.5-0.3c0.1-0.1,0.2-0.2,0.2-0.4c0-0.1,0-0.2,0-0.2h0.9v5.7h-1.1v-3.9H207.8z"/>
<path class="st2" d="M231.6,78.6c0,0.2,0,0.4,0.1,0.6c0.1,0.3,0.4,0.4,0.7,0.4c0.2,0,0.4-0.1,0.6-0.2s0.2-0.4,0.2-0.6c0-0.4-0.2-0.6-0.5-0.7c-0.2-0.1-0.4-0.1-0.8-0.1V77c0.4,0,0.6,0,0.8-0.1c0.2-0.1,0.4-0.3,0.4-0.7c0-0.2-0.1-0.4-0.2-0.5s-0.3-0.2-0.5-0.2c-0.3,0-0.5,0.1-0.6,0.2c-0.1,0.2-0.2,0.4-0.2,0.7h-1c0-0.3,0.1-0.5,0.1-0.8c0.1-0.2,0.2-0.4,0.4-0.6c0.1-0.1,0.3-0.2,0.5-0.3s0.4-0.1,0.7-0.1c0.5,0,1,0.1,1.3,0.4c0.3,0.3,0.5,0.7,0.5,1.1c0,0.3-0.1,0.6-0.3,0.8c-0.1,0.1-0.3,0.2-0.4,0.3c0.1,0,0.2,0.1,0.4,0.3c0.3,0.3,0.4,0.6,0.4,1.1c0,0.5-0.2,0.9-0.5,1.3c-0.3,0.4-0.8,0.5-1.5,0.5c-0.8,0-1.4-0.3-1.7-0.8c-0.2-0.3-0.3-0.6-0.3-1.1H231.6z"/>
<path class="st2" d="M235.3,79.2c0.2-0.4,0.5-0.8,1.1-1.2c0.5-0.4,0.8-0.6,1-0.8c0.2-0.2,0.3-0.5,0.3-0.8c0-0.2-0.1-0.4-0.2-0.6s-0.3-0.2-0.6-0.2c-0.3,0-0.6,0.1-0.7,0.4c-0.1,0.1-0.1,0.4-0.1,0.7h-1.1c0-0.5,0.1-0.9,0.3-1.2c0.3-0.6,0.8-0.8,1.6-0.8c0.6,0,1.1,0.2,1.4,0.5s0.5,0.8,0.5,1.3c0,0.4-0.1,0.8-0.4,1.1c-0.2,0.2-0.4,0.5-0.8,0.7l-0.4,0.3c-0.3,0.2-0.5,0.3-0.6,0.4c-0.1,0.1-0.2,0.2-0.3,0.3h2.5v1H235C235,79.9,235.1,79.5,235.3,79.2z"/>
<path class="st2" d="M257.7,61.1c0,0.2,0,0.4,0.1,0.6c0.1,0.3,0.4,0.4,0.7,0.4c0.2,0,0.4-0.1,0.6-0.2c0.2-0.1,0.2-0.4,0.2-0.6c0-0.4-0.2-0.6-0.5-0.7c-0.2-0.1-0.4-0.1-0.8-0.1v-0.8c0.4,0,0.6,0,0.8-0.1c0.2-0.1,0.4-0.3,0.4-0.7c0-0.2-0.1-0.4-0.2-0.5s-0.3-0.2-0.5-0.2c-0.3,0-0.5,0.1-0.6,0.2c-0.1,0.2-0.2,0.4-0.2,0.7h-1c0-0.3,0.1-0.5,0.1-0.8c0.1-0.2,0.2-0.4,0.4-0.6c0.1-0.1,0.3-0.2,0.5-0.3c0.2-0.1,0.4-0.1,0.7-0.1c0.5,0,1,0.1,1.3,0.4c0.3,0.3,0.5,0.7,0.5,1.1c0,0.3-0.1,0.6-0.3,0.8c-0.1,0.1-0.3,0.2-0.4,0.3c0.1,0,0.2,0.1,0.4,0.3c0.3,0.3,0.4,0.6,0.4,1.1c0,0.5-0.2,0.9-0.5,1.3c-0.3,0.4-0.8,0.5-1.5,0.5c-0.8,0-1.4-0.3-1.7-0.8c-0.2-0.3-0.3-0.6-0.3-1.1H257.7z"/>
<path class="st2" d="M262.1,61.1c0,0.2,0,0.4,0.1,0.6c0.1,0.3,0.4,0.4,0.7,0.4c0.2,0,0.4-0.1,0.6-0.2c0.2-0.1,0.2-0.4,0.2-0.6c0-0.4-0.2-0.6-0.5-0.7c-0.2-0.1-0.4-0.1-0.8-0.1v-0.8c0.4,0,0.6,0,0.8-0.1c0.2-0.1,0.4-0.3,0.4-0.7c0-0.2-0.1-0.4-0.2-0.5s-0.3-0.2-0.5-0.2c-0.3,0-0.5,0.1-0.6,0.2c-0.1,0.2-0.2,0.4-0.2,0.7h-1c0-0.3,0.1-0.5,0.1-0.8c0.1-0.2,0.2-0.4,0.4-0.6c0.1-0.1,0.3-0.2,0.5-0.3c0.2-0.1,0.4-0.1,0.7-0.1c0.5,0,1,0.1,1.3,0.4c0.3,0.3,0.5,0.7,0.5,1.1c0,0.3-0.1,0.6-0.3,0.8c-0.1,0.1-0.3,0.2-0.4,0.3c0.1,0,0.2,0.1,0.4,0.3c0.3,0.3,0.4,0.6,0.4,1.1c0,0.5-0.2,0.9-0.5,1.3c-0.3,0.4-0.8,0.5-1.5,0.5c-0.8,0-1.4-0.3-1.7-0.8c-0.2-0.3-0.3-0.6-0.3-1.1H262.1z"/>
<path class="st2" d="M284.1,61.1c0,0.2,0,0.4,0.1,0.6c0.1,0.3,0.4,0.4,0.7,0.4c0.2,0,0.4-0.1,0.6-0.2s0.2-0.4,0.2-0.6c0-0.4-0.2-0.6-0.5-0.7c-0.2-0.1-0.4-0.1-0.8-0.1v-0.8c0.4,0,0.6,0,0.8-0.1c0.2-0.1,0.4-0.3,0.4-0.7c0-0.2-0.1-0.4-0.2-0.5s-0.3-0.2-0.5-0.2c-0.3,0-0.5,0.1-0.6,0.2c-0.1,0.2-0.2,0.4-0.2,0.7h-1c0-0.3,0.1-0.5,0.1-0.8c0.1-0.2,0.2-0.4,0.4-0.6c0.1-0.1,0.3-0.2,0.5-0.3s0.4-0.1,0.7-0.1c0.5,0,1,0.1,1.3,0.4c0.3,0.3,0.5,0.7,0.5,1.1c0,0.3-0.1,0.6-0.3,0.8c-0.1,0.1-0.3,0.2-0.4,0.3c0.1,0,0.2,0.1,0.4,0.3c0.3,0.3,0.4,0.6,0.4,1.1c0,0.5-0.2,0.9-0.5,1.3c-0.3,0.4-0.8,0.5-1.5,0.5c-0.8,0-1.4-0.3-1.7-0.8c-0.2-0.3-0.3-0.6-0.3-1.1H284.1z"/>
<path class="st2" d="M291.4,61.6h-0.6v1.2h-1.1v-1.2h-2.2v-1l2.1-3.4h1.2v3.5h0.6V61.6z M289.7,60.7v-2.4l-1.4,2.4H289.7z"/>
<path class="st2" d="M309.5,61.1c0,0.2,0,0.4,0.1,0.6c0.1,0.3,0.4,0.4,0.7,0.4c0.2,0,0.4-0.1,0.6-0.2s0.2-0.4,0.2-0.6c0-0.4-0.2-0.6-0.5-0.7c-0.2-0.1-0.4-0.1-0.8-0.1v-0.8c0.4,0,0.6,0,0.8-0.1c0.2-0.1,0.4-0.3,0.4-0.7c0-0.2-0.1-0.4-0.2-0.5s-0.3-0.2-0.5-0.2c-0.3,0-0.5,0.1-0.6,0.2c-0.1,0.2-0.2,0.4-0.2,0.7h-1c0-0.3,0.1-0.5,0.1-0.8c0.1-0.2,0.2-0.4,0.4-0.6c0.1-0.1,0.3-0.2,0.5-0.3s0.4-0.1,0.7-0.1c0.5,0,1,0.1,1.3,0.4c0.3,0.3,0.5,0.7,0.5,1.1c0,0.3-0.1,0.6-0.3,0.8c-0.1,0.1-0.3,0.2-0.4,0.3c0.1,0,0.2,0.1,0.4,0.3c0.3,0.3,0.4,0.6,0.4,1.1c0,0.5-0.2,0.9-0.5,1.3c-0.3,0.4-0.8,0.5-1.5,0.5c-0.8,0-1.4-0.3-1.7-0.8c-0.2-0.3-0.3-0.6-0.3-1.1H309.5z"/>
<path class="st2" d="M314,61.3c0,0.2,0.1,0.4,0.3,0.6c0.1,0.1,0.3,0.2,0.5,0.2c0.3,0,0.5-0.1,0.6-0.3c0.1-0.2,0.2-0.4,0.2-0.7c0-0.3-0.1-0.5-0.2-0.7c-0.1-0.2-0.3-0.3-0.6-0.3c-0.1,0-0.3,0-0.4,0.1c-0.2,0.1-0.3,0.2-0.4,0.3l-1,0l0.4-3.1h3.1v0.9h-2.3l-0.2,1.2c0.2-0.1,0.3-0.2,0.4-0.2c0.2-0.1,0.4-0.1,0.6-0.1c0.5,0,0.9,0.2,1.2,0.5s0.5,0.8,0.5,1.4c0,0.5-0.2,1-0.5,1.4c-0.3,0.4-0.8,0.6-1.5,0.6c-0.5,0-1-0.1-1.3-0.4c-0.3-0.3-0.5-0.7-0.6-1.2H314z"/>
<path class="st2" d="M332.3,46.2c0,0.2,0,0.4,0.1,0.6c0.1,0.3,0.4,0.4,0.7,0.4c0.2,0,0.4-0.1,0.6-0.2c0.2-0.1,0.2-0.4,0.2-0.6c0-0.4-0.2-0.6-0.5-0.7c-0.2-0.1-0.4-0.1-0.8-0.1v-0.8c0.4,0,0.6,0,0.8-0.1c0.2-0.1,0.4-0.3,0.4-0.7c0-0.2-0.1-0.4-0.2-0.5c-0.1-0.1-0.3-0.2-0.5-0.2c-0.3,0-0.5,0.1-0.6,0.2c-0.1,0.2-0.2,0.4-0.2,0.7h-1c0-0.3,0.1-0.5,0.1-0.8c0.1-0.2,0.2-0.4,0.4-0.6c0.1-0.1,0.3-0.2,0.5-0.3s0.4-0.1,0.7-0.1c0.5,0,1,0.1,1.3,0.4c0.3,0.3,0.5,0.7,0.5,1.1c0,0.3-0.1,0.6-0.3,0.8c-0.1,0.1-0.3,0.2-0.4,0.3c0.1,0,0.2,0.1,0.4,0.3c0.3,0.3,0.4,0.6,0.4,1.1c0,0.5-0.2,0.9-0.5,1.3c-0.3,0.4-0.8,0.5-1.5,0.5c-0.8,0-1.4-0.3-1.7-0.8c-0.2-0.3-0.3-0.6-0.3-1.1H332.3z"/>
<path class="st2" d="M338.4,43.7c0-0.1,0-0.2-0.1-0.3c-0.1-0.2-0.3-0.3-0.5-0.3c-0.4,0-0.6,0.2-0.8,0.6c-0.1,0.2-0.1,0.6-0.2,1c0.1-0.2,0.3-0.3,0.5-0.4s0.4-0.1,0.6-0.1c0.5,0,0.9,0.2,1.2,0.5s0.5,0.8,0.5,1.3c0,0.5-0.2,1-0.5,1.4s-0.8,0.6-1.5,0.6c-0.7,0-1.2-0.3-1.6-0.9c-0.3-0.5-0.4-1.1-0.4-1.8c0-0.4,0-0.8,0.1-1.1c0.1-0.5,0.2-0.9,0.4-1.2c0.2-0.3,0.4-0.5,0.6-0.7s0.6-0.2,0.9-0.2c0.5,0,0.9,0.1,1.3,0.4s0.5,0.6,0.5,1.1H338.4z M337.1,46.9c0.2,0.2,0.4,0.3,0.6,0.3c0.2,0,0.4-0.1,0.6-0.3s0.2-0.4,0.2-0.7c0-0.3-0.1-0.6-0.2-0.8s-0.4-0.3-0.6-0.3c-0.2,0-0.4,0.1-0.5,0.2c-0.2,0.2-0.3,0.4-0.3,0.8C336.8,46.4,336.9,46.7,337.1,46.9z"/>
<path class="st2" d="M74.6,268.8V268c0.4,0,0.6,0,0.7-0.1c0.2,0,0.4-0.1,0.5-0.3c0.1-0.1,0.2-0.2,0.2-0.4c0-0.1,0-0.2,0-0.2h0.9v5.7h-1.1v-3.9H74.6z"/>
<path class="st2" d="M79,271.6c0.2-0.4,0.5-0.8,1.1-1.2c0.5-0.4,0.8-0.6,1-0.8c0.2-0.2,0.3-0.5,0.3-0.8c0-0.2-0.1-0.4-0.2-0.6S81,268,80.7,268c-0.3,0-0.6,0.1-0.7,0.4c-0.1,0.1-0.1,0.4-0.1,0.7h-1.1c0-0.5,0.1-0.9,0.3-1.2c0.3-0.6,0.8-0.8,1.6-0.8c0.6,0,1.1,0.2,1.4,0.5s0.5,0.8,0.5,1.3c0,0.4-0.1,0.8-0.4,1.1c-0.2,0.2-0.4,0.5-0.8,0.7L81,271c-0.3,0.2-0.5,0.3-0.6,0.4s-0.2,0.2-0.3,0.3h2.5v1h-3.9C78.8,272.3,78.9,271.9,79,271.6z"/>
<path class="st2" d="M99.7,258.9v-0.8c0.4,0,0.6,0,0.7-0.1c0.2,0,0.4-0.1,0.5-0.3c0.1-0.1,0.2-0.2,0.2-0.4c0-0.1,0-0.2,0-0.2h0.9v5.7h-1.1v-3.9H99.7z"/>
<path class="st2" d="M103.7,258.9v-0.8c0.4,0,0.6,0,0.7-0.1c0.2,0,0.4-0.1,0.5-0.3c0.1-0.1,0.2-0.2,0.2-0.4c0-0.1,0-0.2,0-0.2h0.9v5.7h-1.1v-3.9H103.7z"/>
<path class="st2" d="M125.7,258.9v-0.8c0.4,0,0.6,0,0.7-0.1c0.2,0,0.4-0.1,0.5-0.3c0.1-0.1,0.2-0.2,0.2-0.4c0-0.1,0-0.2,0-0.2h0.9v5.7h-1.1v-3.9H125.7z"/>
<path class="st2" d="M133.4,257.9c0.3,0.5,0.4,1.2,0.4,2.2s-0.1,1.7-0.4,2.2s-0.8,0.8-1.5,0.8s-1.2-0.3-1.5-0.8s-0.4-1.2-0.4-2.2s0.1-1.7,0.4-2.2s0.8-0.8,1.5-0.8S133.1,257.4,133.4,257.9z M131.2,261.6c0.1,0.3,0.3,0.5,0.7,0.5s0.5-0.2,0.7-0.5s0.2-0.8,0.2-1.5c0-0.7-0.1-1.2-0.2-1.5s-0.3-0.5-0.7-0.5s-0.5,0.2-0.7,0.5s-0.2,0.8-0.2,1.5C131,260.7,131.1,261.2,131.2,261.6z"/>
<path class="st2" d="M155.4,245c0.3,0.5,0.4,1.2,0.4,2.2s-0.1,1.7-0.4,2.2s-0.8,0.8-1.5,0.8s-1.2-0.3-1.5-0.8s-0.4-1.2-0.4-2.2s0.1-1.7,0.4-2.2s0.8-0.8,1.5-0.8S155.1,244.5,155.4,245z M153.2,248.7c0.1,0.3,0.3,0.5,0.7,0.5s0.5-0.2,0.7-0.5s0.2-0.8,0.2-1.5c0-0.7-0.1-1.2-0.2-1.5s-0.3-0.5-0.7-0.5s-0.5,0.2-0.7,0.5s-0.2,0.8-0.2,1.5C153.1,247.8,153.1,248.3,153.2,248.7z"/>
<path class="st2" d="M156.9,244.8c0.4-0.4,0.8-0.6,1.4-0.6c0.9,0,1.5,0.4,1.8,1.1c0.2,0.4,0.3,1,0.3,1.7c0,0.7-0.1,1.3-0.3,1.7c-0.3,0.9-0.9,1.3-1.8,1.3c-0.4,0-0.8-0.1-1.1-0.4s-0.5-0.6-0.6-1.1h1.1c0,0.2,0.1,0.3,0.2,0.4s0.3,0.2,0.5,0.2c0.4,0,0.6-0.2,0.8-0.6c0.1-0.2,0.1-0.6,0.2-1c-0.1,0.1-0.2,0.2-0.3,0.3c-0.2,0.1-0.5,0.2-0.8,0.2c-0.5,0-0.9-0.2-1.2-0.5s-0.5-0.8-0.5-1.3C156.4,245.7,156.5,245.2,156.9,244.8z M158.8,247c0.3-0.2,0.4-0.4,0.4-0.8c0-0.3-0.1-0.6-0.2-0.8s-0.4-0.3-0.6-0.3c-0.2,0-0.4,0.1-0.5,0.2c-0.2,0.2-0.3,0.4-0.3,0.8c0,0.3,0.1,0.6,0.2,0.8s0.3,0.3,0.6,0.3C158.5,247.2,158.6,247.1,158.8,247z"/>
<path class="st2" d="M181.7,245.7c0.3,0.5,0.4,1.2,0.4,2.2s-0.1,1.7-0.4,2.2s-0.8,0.8-1.5,0.8s-1.2-0.3-1.5-0.8s-0.4-1.2-0.4-2.2s0.1-1.7,0.4-2.2s0.8-0.8,1.5-0.8S181.4,245.2,181.7,245.7z M179.5,249.4c0.1,0.3,0.3,0.5,0.7,0.5s0.5-0.2,0.7-0.5s0.2-0.8,0.2-1.5c0-0.7-0.1-1.2-0.2-1.5s-0.3-0.5-0.7-0.5s-0.5,0.2-0.7,0.5s-0.2,0.8-0.2,1.5C179.4,248.5,179.4,249,179.5,249.4z"/>
<path class="st2" d="M182.9,248.2c0.1-0.3,0.4-0.5,0.6-0.6c-0.3-0.2-0.5-0.4-0.5-0.6s-0.1-0.4-0.1-0.6c0-0.4,0.2-0.8,0.5-1.1s0.7-0.4,1.3-0.4s1,0.1,1.3,0.4s0.5,0.6,0.5,1.1c0,0.2,0,0.4-0.1,0.6s-0.3,0.4-0.5,0.6c0.3,0.2,0.5,0.4,0.6,0.6s0.2,0.5,0.2,0.9c0,0.5-0.2,0.9-0.5,1.2s-0.8,0.5-1.5,0.5s-1.1-0.2-1.4-0.5s-0.5-0.7-0.5-1.2C182.6,248.8,182.7,248.5,182.9,248.2z M184,249.7c0.1,0.2,0.3,0.2,0.6,0.2s0.5-0.1,0.6-0.2s0.2-0.4,0.2-0.6c0-0.3-0.1-0.5-0.2-0.7s-0.3-0.2-0.6-0.2s-0.4,0.1-0.6,0.2s-0.2,0.4-0.2,0.7C183.8,249.3,183.9,249.5,184,249.7z M184.1,247.1c0.1,0.1,0.3,0.2,0.5,0.2c0.2,0,0.4-0.1,0.5-0.2s0.2-0.3,0.2-0.5c0-0.2-0.1-0.4-0.2-0.5s-0.3-0.2-0.5-0.2c-0.2,0-0.4,0.1-0.5,0.2s-0.2,0.3-0.2,0.5C183.9,246.8,184,247,184.1,247.1z"/>
<path class="st2" d="M207.9,245.7c0.3,0.5,0.4,1.2,0.4,2.2s-0.1,1.7-0.4,2.2s-0.8,0.8-1.5,0.8s-1.2-0.3-1.5-0.8s-0.4-1.2-0.4-2.2s0.1-1.7,0.4-2.2s0.8-0.8,1.5-0.8S207.6,245.2,207.9,245.7z M205.8,249.4c0.1,0.3,0.3,0.5,0.7,0.5s0.5-0.2,0.7-0.5s0.2-0.8,0.2-1.5c0-0.7-0.1-1.2-0.2-1.5s-0.3-0.5-0.7-0.5s-0.5,0.2-0.7,0.5s-0.2,0.8-0.2,1.5C205.6,248.5,205.6,249,205.8,249.4z"/>
<path class="st2" d="M212.9,245.9c-0.2,0.2-0.4,0.5-0.7,0.9s-0.5,0.9-0.7,1.3c-0.2,0.4-0.3,0.8-0.4,1.3c-0.1,0.5-0.2,0.9-0.2,1.2h-1.2c0-1,0.4-2.1,1-3.2c0.4-0.7,0.8-1.2,1-1.4h-2.8l0-1h4V245.9z"/>
<path class="st2" d="M234.4,245.7c0.3,0.5,0.4,1.2,0.4,2.2s-0.1,1.7-0.4,2.2c-0.3,0.5-0.8,0.8-1.5,0.8c-0.7,0-1.2-0.3-1.5-0.8c-0.3-0.5-0.4-1.2-0.4-2.2s0.1-1.7,0.4-2.2c0.3-0.5,0.8-0.8,1.5-0.8C233.7,245,234.2,245.2,234.4,245.7z M232.3,249.4c0.1,0.3,0.3,0.5,0.7,0.5c0.3,0,0.5-0.2,0.7-0.5c0.1-0.3,0.2-0.8,0.2-1.5c0-0.7-0.1-1.2-0.2-1.5c-0.1-0.3-0.3-0.5-0.7-0.5c-0.3,0-0.5,0.2-0.7,0.5c-0.1,0.3-0.2,0.8-0.2,1.5C232.1,248.5,232.2,249,232.3,249.4z"/>
<path class="st2" d="M238.1,246.4c0-0.1,0-0.2-0.1-0.3c-0.1-0.2-0.3-0.3-0.5-0.3c-0.4,0-0.6,0.2-0.8,0.6c-0.1,0.2-0.1,0.6-0.2,1c0.1-0.2,0.3-0.3,0.5-0.4c0.2-0.1,0.4-0.1,0.6-0.1c0.5,0,0.9,0.2,1.2,0.5c0.3,0.3,0.5,0.8,0.5,1.3c0,0.5-0.2,1-0.5,1.4c-0.3,0.4-0.8,0.6-1.5,0.6c-0.7,0-1.2-0.3-1.6-0.9c-0.3-0.5-0.4-1.1-0.4-1.8c0-0.4,0-0.8,0.1-1.1c0.1-0.5,0.2-0.9,0.4-1.2c0.2-0.3,0.4-0.5,0.6-0.7s0.6-0.2,0.9-0.2c0.5,0,0.9,0.1,1.3,0.4s0.5,0.6,0.5,1.1H238.1z M236.8,249.6c0.2,0.2,0.4,0.3,0.6,0.3c0.2,0,0.4-0.1,0.6-0.3c0.1-0.2,0.2-0.4,0.2-0.7c0-0.3-0.1-0.6-0.2-0.8c-0.2-0.2-0.4-0.3-0.6-0.3c-0.2,0-0.4,0.1-0.5,0.2c-0.2,0.2-0.3,0.4-0.3,0.8C236.5,249.2,236.6,249.4,236.8,249.6z"/>
<path class="st2" d="M261,245c0.3,0.5,0.4,1.2,0.4,2.2s-0.1,1.7-0.4,2.2c-0.3,0.5-0.8,0.8-1.5,0.8c-0.7,0-1.2-0.3-1.5-0.8c-0.3-0.5-0.4-1.2-0.4-2.2s0.1-1.7,0.4-2.2c0.3-0.5,0.8-0.8,1.5-0.8C260.2,244.2,260.7,244.5,261,245z M258.9,248.7c0.1,0.3,0.3,0.5,0.7,0.5c0.3,0,0.5-0.2,0.7-0.5c0.1-0.3,0.2-0.8,0.2-1.5c0-0.7-0.1-1.2-0.2-1.5c-0.1-0.3-0.3-0.5-0.7-0.5c-0.3,0-0.5,0.2-0.7,0.5c-0.1,0.3-0.2,0.8-0.2,1.5C258.7,247.8,258.8,248.3,258.9,248.7z"/>
<path class="st2" d="M263.1,248.4c0,0.2,0.1,0.4,0.3,0.6s0.3,0.2,0.5,0.2c0.3,0,0.5-0.1,0.6-0.3s0.2-0.4,0.2-0.7c0-0.3-0.1-0.5-0.2-0.7s-0.3-0.3-0.6-0.3c-0.1,0-0.3,0-0.3,0.1c-0.2,0.1-0.3,0.2-0.4,0.3l-1,0l0.4-3.1h3.1v0.9h-2.3l-0.2,1.2c0.2-0.1,0.3-0.2,0.4-0.2c0.2-0.1,0.4-0.1,0.6-0.1c0.5,0,0.9,0.2,1.2,0.5s0.5,0.8,0.5,1.4c0,0.5-0.2,1-0.5,1.4s-0.8,0.6-1.5,0.6c-0.5,0-1-0.1-1.3-0.4s-0.5-0.7-0.6-1.2H263.1z"/>
<path class="st2" d="M287.7,242c0.3,0.5,0.4,1.2,0.4,2.2s-0.1,1.7-0.4,2.2s-0.8,0.8-1.5,0.8s-1.2-0.3-1.5-0.8s-0.4-1.2-0.4-2.2s0.1-1.7,0.4-2.2s0.8-0.8,1.5-0.8S287.4,241.5,287.7,242z M285.5,245.6c0.1,0.3,0.3,0.5,0.7,0.5s0.5-0.2,0.7-0.5s0.2-0.8,0.2-1.5c0-0.7-0.1-1.2-0.2-1.5s-0.3-0.5-0.7-0.5s-0.5,0.2-0.7,0.5s-0.2,0.8-0.2,1.5C285.3,244.8,285.4,245.3,285.5,245.6z"/>
<path class="st2" d="M292.6,245.7H292v1.2h-1.1v-1.2h-2.2v-1l2.1-3.4h1.2v3.5h0.6V245.7z M290.9,244.8v-2.4l-1.4,2.4H290.9z"/>
<path class="st2" d="M310.3,257.9c0.3,0.5,0.4,1.2,0.4,2.2s-0.1,1.7-0.4,2.2c-0.3,0.5-0.8,0.8-1.5,0.8c-0.7,0-1.2-0.3-1.5-0.8c-0.3-0.5-0.4-1.2-0.4-2.2s0.1-1.7,0.4-2.2c0.3-0.5,0.8-0.8,1.5-0.8C309.5,257.1,310.1,257.4,310.3,257.9z M308.2,261.6c0.1,0.3,0.3,0.5,0.7,0.5c0.3,0,0.5-0.2,0.7-0.5c0.1-0.3,0.2-0.8,0.2-1.5c0-0.7-0.1-1.2-0.2-1.5c-0.1-0.3-0.3-0.5-0.7-0.5c-0.3,0-0.5,0.2-0.7,0.5c-0.1,0.3-0.2,0.8-0.2,1.5C308,260.7,308.1,261.2,308.2,261.6z"/>
<path class="st2" d="M312.4,261.1c0,0.2,0,0.4,0.1,0.6c0.1,0.3,0.4,0.4,0.7,0.4c0.2,0,0.4-0.1,0.6-0.2c0.2-0.1,0.2-0.4,0.2-0.6c0-0.4-0.2-0.6-0.5-0.7c-0.2-0.1-0.4-0.1-0.8-0.1v-0.8c0.4,0,0.6,0,0.8-0.1c0.2-0.1,0.4-0.3,0.4-0.7c0-0.2-0.1-0.4-0.2-0.5s-0.3-0.2-0.5-0.2c-0.3,0-0.5,0.1-0.6,0.2c-0.1,0.2-0.2,0.4-0.2,0.7h-1c0-0.3,0.1-0.5,0.1-0.8c0.1-0.2,0.2-0.4,0.4-0.6c0.1-0.1,0.3-0.2,0.5-0.3c0.2-0.1,0.4-0.1,0.7-0.1c0.5,0,1,0.1,1.3,0.4c0.3,0.3,0.5,0.7,0.5,1.1c0,0.3-0.1,0.6-0.3,0.8c-0.1,0.1-0.3,0.2-0.4,0.3c0.1,0,0.2,0.1,0.4,0.3c0.3,0.3,0.4,0.6,0.4,1.1c0,0.5-0.2,0.9-0.5,1.3c-0.3,0.4-0.8,0.5-1.5,0.5c-0.8,0-1.4-0.3-1.7-0.8c-0.2-0.3-0.3-0.6-0.3-1.1H312.4z"/>
<path class="st2" d="M326.7,267.9c0.3,0.5,0.4,1.2,0.4,2.2s-0.1,1.7-0.4,2.2s-0.8,0.8-1.5,0.8s-1.2-0.3-1.5-0.8s-0.4-1.2-0.4-2.2s0.1-1.7,0.4-2.2s0.8-0.8,1.5-0.8S326.4,267.4,326.7,267.9z M324.5,271.5c0.1,0.3,0.3,0.5,0.7,0.5s0.5-0.2,0.7-0.5s0.2-0.8,0.2-1.5c0-0.7-0.1-1.2-0.2-1.5s-0.3-0.5-0.7-0.5s-0.5,0.2-0.7,0.5s-0.2,0.8-0.2,1.5C324.4,270.7,324.4,271.2,324.5,271.5z"/>
<path class="st2" d="M328,271.7c0.2-0.4,0.5-0.8,1.1-1.2c0.5-0.4,0.8-0.6,1-0.8c0.2-0.2,0.3-0.5,0.3-0.8c0-0.2-0.1-0.4-0.2-0.6s-0.3-0.2-0.6-0.2c-0.3,0-0.6,0.1-0.7,0.4c-0.1,0.1-0.1,0.4-0.1,0.7h-1.1c0-0.5,0.1-0.9,0.3-1.2c0.3-0.6,0.8-0.8,1.6-0.8c0.6,0,1.1,0.2,1.4,0.5c0.4,0.3,0.5,0.8,0.5,1.3c0,0.4-0.1,0.8-0.4,1.1c-0.2,0.2-0.4,0.5-0.8,0.7l-0.4,0.3c-0.3,0.2-0.5,0.3-0.6,0.4s-0.2,0.2-0.3,0.3h2.5v1h-3.9C327.7,272.4,327.8,272.1,328,271.7z"/>
<path class="st2" d="M287.7,274.7c0.3,0.5,0.4,1.2,0.4,2.2s-0.1,1.7-0.4,2.2s-0.8,0.8-1.5,0.8s-1.2-0.3-1.5-0.8s-0.4-1.2-0.4-2.2s0.1-1.7,0.4-2.2s0.8-0.8,1.5-0.8S287.4,274.2,287.7,274.7z M285.5,278.4c0.1,0.3,0.3,0.5,0.7,0.5s0.5-0.2,0.7-0.5s0.2-0.8,0.2-1.5c0-0.7-0.1-1.2-0.2-1.5s-0.3-0.5-0.7-0.5s-0.5,0.2-0.7,0.5s-0.2,0.8-0.2,1.5C285.3,277.5,285.4,278,285.5,278.4z"/>
<path class="st2" d="M292.6,278.4H292v1.2h-1.1v-1.2h-2.2v-1l2.1-3.4h1.2v3.5h0.6V278.4z M290.9,277.6v-2.4l-1.4,2.4H290.9z"/>
<path class="st2" d="M58.8,254.6v-0.8c0.4,0,0.6,0,0.7-0.1c0.2,0,0.4-0.1,0.5-0.3c0.1-0.1,0.2-0.2,0.2-0.4c0-0.1,0-0.2,0-0.2h0.9v5.7h-1.1v-3.9H58.8z"/>
<path class="st2" d="M64,256.7c0,0.2,0,0.4,0.1,0.6c0.1,0.3,0.4,0.4,0.7,0.4c0.2,0,0.4-0.1,0.6-0.2c0.2-0.1,0.2-0.4,0.2-0.6c0-0.4-0.2-0.6-0.5-0.7c-0.2-0.1-0.4-0.1-0.8-0.1v-0.8c0.4,0,0.6,0,0.8-0.1c0.2-0.1,0.4-0.3,0.4-0.7c0-0.2-0.1-0.4-0.2-0.5s-0.3-0.2-0.5-0.2c-0.3,0-0.5,0.1-0.6,0.2s-0.2,0.4-0.2,0.7h-1c0-0.3,0.1-0.5,0.1-0.8c0.1-0.2,0.2-0.4,0.4-0.6c0.1-0.1,0.3-0.2,0.5-0.3c0.2-0.1,0.4-0.1,0.7-0.1c0.5,0,1,0.1,1.3,0.4s0.5,0.7,0.5,1.1c0,0.3-0.1,0.6-0.3,0.8c-0.1,0.1-0.3,0.2-0.4,0.3c0.1,0,0.2,0.1,0.4,0.3c0.3,0.3,0.4,0.6,0.4,1.1c0,0.5-0.2,0.9-0.5,1.3s-0.8,0.5-1.5,0.5c-0.8,0-1.4-0.3-1.7-0.8c-0.2-0.3-0.3-0.6-0.3-1.1H64z"/>
<path class="st2" d="M43.6,242v-0.8c0.4,0,0.6,0,0.7-0.1c0.2,0,0.4-0.1,0.5-0.3c0.1-0.1,0.2-0.2,0.2-0.4c0-0.1,0-0.2,0-0.2H46v5.7h-1.1V242H43.6z"/>
<path class="st2" d="M51.7,244.7H51v1.2h-1.1v-1.2h-2.2v-1l2.1-3.4H51v3.5h0.6V244.7z M49.9,243.8v-2.4l-1.4,2.4H49.9z"/>
<path class="st2" d="M51.5,219v-0.8c0.4,0,0.6,0,0.7-0.1c0.2,0,0.4-0.1,0.5-0.3c0.1-0.1,0.2-0.2,0.2-0.4c0-0.1,0-0.2,0-0.2H54v5.7h-1.1V219H51.5z"/>
<path class="st2" d="M56.8,221.4c0,0.2,0.1,0.4,0.3,0.6c0.1,0.1,0.3,0.2,0.5,0.2c0.3,0,0.5-0.1,0.6-0.3s0.2-0.4,0.2-0.7c0-0.3-0.1-0.5-0.2-0.7s-0.3-0.3-0.6-0.3c-0.1,0-0.3,0-0.4,0.1c-0.2,0.1-0.3,0.2-0.4,0.3l-1,0l0.4-3.1h3.1v0.9H57l-0.2,1.2c0.2-0.1,0.3-0.2,0.4-0.2c0.2-0.1,0.4-0.1,0.6-0.1c0.5,0,0.9,0.2,1.2,0.5c0.3,0.3,0.5,0.8,0.5,1.4c0,0.5-0.2,1-0.5,1.4s-0.8,0.6-1.5,0.6c-0.5,0-1-0.1-1.3-0.4c-0.3-0.3-0.5-0.7-0.6-1.2H56.8z"/>
<path class="st2" d="M51.5,193v-0.8c0.4,0,0.6,0,0.7-0.1c0.2,0,0.4-0.1,0.5-0.3c0.1-0.1,0.2-0.2,0.2-0.4c0-0.1,0-0.2,0-0.2H54v5.7h-1.1V193H51.5z"/>
<path class="st2" d="M58.4,192.7c0-0.1,0-0.2-0.1-0.3c-0.1-0.2-0.3-0.3-0.5-0.3c-0.4,0-0.6,0.2-0.8,0.6c-0.1,0.2-0.1,0.6-0.2,1c0.1-0.2,0.3-0.3,0.5-0.4s0.4-0.1,0.6-0.1c0.5,0,0.9,0.2,1.2,0.5s0.5,0.8,0.5,1.3c0,0.5-0.2,1-0.5,1.4s-0.8,0.6-1.5,0.6c-0.7,0-1.2-0.3-1.6-0.9c-0.3-0.5-0.4-1.1-0.4-1.8c0-0.4,0-0.8,0.1-1.1c0.1-0.5,0.2-0.9,0.4-1.2c0.2-0.3,0.4-0.5,0.6-0.7s0.6-0.2,0.9-0.2c0.5,0,0.9,0.1,1.3,0.4s0.5,0.6,0.5,1.1H58.4z M57.1,195.9c0.2,0.2,0.4,0.3,0.6,0.3c0.2,0,0.4-0.1,0.6-0.3s0.2-0.4,0.2-0.7c0-0.3-0.1-0.6-0.2-0.8s-0.4-0.3-0.6-0.3c-0.2,0-0.4,0.1-0.5,0.2c-0.2,0.2-0.3,0.4-0.3,0.8C56.8,195.4,56.9,195.7,57.1,195.9z"/>
<path class="st2" d="M32.6,171v-0.8c0.4,0,0.6,0,0.7-0.1c0.2,0,0.4-0.1,0.5-0.3c0.1-0.1,0.2-0.2,0.2-0.4c0-0.1,0-0.2,0-0.2H35v5.7h-1.1V171H32.6z"/>
<path class="st2" d="M40.7,170.2c-0.2,0.2-0.4,0.5-0.7,0.9s-0.5,0.9-0.7,1.3c-0.2,0.4-0.3,0.8-0.4,1.3c-0.1,0.5-0.2,0.9-0.2,1.2h-1.2c0-1,0.4-2.1,1-3.2c0.4-0.7,0.8-1.2,1-1.4h-2.8l0-1h4V170.2z"/>
<path class="st2" d="M69.3,171v-0.8c0.4,0,0.6,0,0.7-0.1c0.2,0,0.4-0.1,0.5-0.3c0.1-0.1,0.2-0.2,0.2-0.4c0-0.1,0-0.2,0-0.2h0.9v5.7h-1.1V171H69.3z"/>
<path class="st2" d="M77.4,170.2c-0.2,0.2-0.4,0.5-0.7,0.9s-0.5,0.9-0.7,1.3c-0.2,0.4-0.3,0.8-0.4,1.3c-0.1,0.5-0.2,0.9-0.2,1.2h-1.2c0-1,0.4-2.1,1-3.2c0.4-0.7,0.8-1.2,1-1.4h-2.8l0-1h4V170.2z"/>
<path class="st2" d="M32.6,149v-0.8c0.4,0,0.6,0,0.7-0.1c0.2,0,0.4-0.1,0.5-0.3c0.1-0.1,0.2-0.2,0.2-0.4c0-0.1,0-0.2,0-0.2H35v5.7h-1.1V149H32.6z"/>
<path class="st2" d="M36.9,150.5c0.1-0.3,0.4-0.5,0.6-0.6c-0.3-0.2-0.5-0.4-0.5-0.6s-0.1-0.4-0.1-0.6c0-0.4,0.2-0.8,0.5-1.1s0.7-0.4,1.3-0.4s1,0.1,1.3,0.4s0.5,0.6,0.5,1.1c0,0.2,0,0.4-0.1,0.6s-0.3,0.4-0.5,0.6c0.3,0.2,0.5,0.4,0.6,0.6s0.2,0.5,0.2,0.9c0,0.5-0.2,0.9-0.5,1.2s-0.8,0.5-1.5,0.5s-1.1-0.2-1.4-0.5s-0.5-0.7-0.5-1.2C36.7,151,36.7,150.8,36.9,150.5z M38,151.9c0.1,0.2,0.3,0.2,0.6,0.2s0.5-0.1,0.6-0.2s0.2-0.4,0.2-0.6c0-0.3-0.1-0.5-0.2-0.7s-0.3-0.2-0.6-0.2s-0.4,0.1-0.6,0.2s-0.2,0.4-0.2,0.7C37.8,151.6,37.9,151.8,38,151.9z M38.1,149.4c0.1,0.1,0.3,0.2,0.5,0.2c0.2,0,0.4-0.1,0.5-0.2s0.2-0.3,0.2-0.5c0-0.2-0.1-0.4-0.2-0.5s-0.3-0.2-0.5-0.2c-0.2,0-0.4,0.1-0.5,0.2s-0.2,0.3-0.2,0.5C37.9,149.1,38,149.2,38.1,149.4z"/>
<path class="st2" d="M69.3,149v-0.8c0.4,0,0.6,0,0.7-0.1c0.2,0,0.4-0.1,0.5-0.3c0.1-0.1,0.2-0.2,0.2-0.4c0-0.1,0-0.2,0-0.2h0.9v5.7h-1.1V149H69.3z"/>
<path class="st2" d="M73.6,150.5c0.1-0.3,0.4-0.5,0.6-0.6c-0.3-0.2-0.5-0.4-0.5-0.6s-0.1-0.4-0.1-0.6c0-0.4,0.2-0.8,0.5-1.1s0.7-0.4,1.3-0.4s1,0.1,1.3,0.4s0.5,0.6,0.5,1.1c0,0.2,0,0.4-0.1,0.6s-0.3,0.4-0.5,0.6c0.3,0.2,0.5,0.4,0.6,0.6s0.2,0.5,0.2,0.9c0,0.5-0.2,0.9-0.5,1.2s-0.8,0.5-1.5,0.5s-1.1-0.2-1.4-0.5s-0.5-0.7-0.5-1.2C73.4,151,73.5,150.8,73.6,150.5z M74.8,151.9c0.1,0.2,0.3,0.2,0.6,0.2s0.5-0.1,0.6-0.2s0.2-0.4,0.2-0.6c0-0.3-0.1-0.5-0.2-0.7s-0.3-0.2-0.6-0.2s-0.4,0.1-0.6,0.2s-0.2,0.4-0.2,0.7C74.6,151.6,74.6,151.8,74.8,151.9z M74.8,149.4c0.1,0.1,0.3,0.2,0.5,0.2c0.2,0,0.4-0.1,0.5-0.2s0.2-0.3,0.2-0.5c0-0.2-0.1-0.4-0.2-0.5s-0.3-0.2-0.5-0.2c-0.2,0-0.4,0.1-0.5,0.2s-0.2,0.3-0.2,0.5C74.7,149.1,74.7,149.2,74.8,149.4z"/>
<path class="st2" d="M32.6,128v-0.8c0.4,0,0.6,0,0.7-0.1c0.2,0,0.4-0.1,0.5-0.3c0.1-0.1,0.2-0.2,0.2-0.4c0-0.1,0-0.2,0-0.2H35v5.7h-1.1V128H32.6z"/>
<path class="st2" d="M37.2,126.8c0.4-0.4,0.8-0.6,1.4-0.6c0.9,0,1.5,0.4,1.8,1.1c0.2,0.4,0.3,1,0.3,1.7c0,0.7-0.1,1.3-0.3,1.7c-0.3,0.9-0.9,1.3-1.8,1.3c-0.4,0-0.8-0.1-1.1-0.4s-0.5-0.6-0.6-1.1h1.1c0,0.2,0.1,0.3,0.2,0.4s0.3,0.2,0.5,0.2c0.4,0,0.6-0.2,0.8-0.6c0.1-0.2,0.1-0.6,0.2-1c-0.1,0.1-0.2,0.2-0.3,0.3c-0.2,0.1-0.5,0.2-0.8,0.2c-0.5,0-0.9-0.2-1.2-0.5s-0.5-0.8-0.5-1.3C36.7,127.7,36.9,127.2,37.2,126.8z M39.1,129c0.3-0.2,0.4-0.4,0.4-0.8c0-0.3-0.1-0.6-0.2-0.8s-0.4-0.3-0.6-0.3c-0.2,0-0.4,0.1-0.5,0.2c-0.2,0.2-0.3,0.4-0.3,0.8c0,0.3,0.1,0.6,0.2,0.8s0.3,0.3,0.6,0.3C38.8,129.2,39,129.1,39.1,129z"/>
<path class="st2" d="M69.3,128v-0.8c0.4,0,0.6,0,0.7-0.1c0.2,0,0.4-0.1,0.5-0.3c0.1-0.1,0.2-0.2,0.2-0.4c0-0.1,0-0.2,0-0.2h0.9v5.7h-1.1V128H69.3z"/>
<path class="st2" d="M74,126.8c0.4-0.4,0.8-0.6,1.4-0.6c0.9,0,1.5,0.4,1.8,1.1c0.2,0.4,0.3,1,0.3,1.7c0,0.7-0.1,1.3-0.3,1.7c-0.3,0.9-0.9,1.3-1.8,1.3c-0.4,0-0.8-0.1-1.1-0.4s-0.5-0.6-0.6-1.1h1.1c0,0.2,0.1,0.3,0.2,0.4s0.3,0.2,0.5,0.2c0.4,0,0.6-0.2,0.8-0.6c0.1-0.2,0.1-0.6,0.2-1c-0.1,0.1-0.2,0.2-0.3,0.3c-0.2,0.1-0.5,0.2-0.8,0.2c-0.5,0-0.9-0.2-1.2-0.5s-0.5-0.8-0.5-1.3C73.4,127.7,73.6,127.2,74,126.8z M75.8,129c0.3-0.2,0.4-0.4,0.4-0.8c0-0.3-0.1-0.6-0.2-0.8s-0.4-0.3-0.6-0.3c-0.2,0-0.4,0.1-0.5,0.2c-0.2,0.2-0.3,0.4-0.3,0.8c0,0.3,0.1,0.6,0.2,0.8s0.3,0.3,0.6,0.3C75.5,129.2,75.7,129.1,75.8,129z"/>
<path class="st2" d="M51.5,110.8c0.2-0.4,0.5-0.8,1.1-1.2c0.5-0.4,0.8-0.6,1-0.8c0.2-0.2,0.3-0.5,0.3-0.8c0-0.2-0.1-0.4-0.2-0.6s-0.3-0.2-0.6-0.2c-0.3,0-0.6,0.1-0.7,0.4c-0.1,0.1-0.1,0.4-0.1,0.7h-1.1c0-0.5,0.1-0.9,0.3-1.2c0.3-0.6,0.8-0.8,1.6-0.8c0.6,0,1.1,0.2,1.4,0.5s0.5,0.8,0.5,1.3c0,0.4-0.1,0.8-0.4,1.1c-0.2,0.2-0.4,0.5-0.8,0.7l-0.4,0.3c-0.3,0.2-0.5,0.3-0.6,0.4s-0.2,0.2-0.3,0.3h2.5v1h-3.9C51.3,111.5,51.3,111.2,51.5,110.8z"/>
<path class="st2" d="M59.2,107c0.3,0.5,0.4,1.2,0.4,2.2s-0.1,1.7-0.4,2.2s-0.8,0.8-1.5,0.8s-1.2-0.3-1.5-0.8s-0.4-1.2-0.4-2.2s0.1-1.7,0.4-2.2s0.8-0.8,1.5-0.8S58.9,106.5,59.2,107z M57,110.7c0.1,0.3,0.3,0.5,0.7,0.5s0.5-0.2,0.7-0.5s0.2-0.8,0.2-1.5c0-0.7-0.1-1.2-0.2-1.5s-0.3-0.5-0.7-0.5s-0.5,0.2-0.7,0.5s-0.2,0.8-0.2,1.5C56.8,109.8,56.9,110.3,57,110.7z"/>
<path class="st2" d="M51.5,91.6c0.2-0.4,0.5-0.8,1.1-1.2c0.5-0.4,0.8-0.6,1-0.8c0.2-0.2,0.3-0.5,0.3-0.8c0-0.2-0.1-0.4-0.2-0.6s-0.3-0.2-0.6-0.2c-0.3,0-0.6,0.1-0.7,0.4c-0.1,0.1-0.1,0.4-0.1,0.7h-1.1c0-0.5,0.1-0.9,0.3-1.2c0.3-0.6,0.8-0.8,1.6-0.8c0.6,0,1.1,0.2,1.4,0.5s0.5,0.8,0.5,1.3c0,0.4-0.1,0.8-0.4,1.1c-0.2,0.2-0.4,0.5-0.8,0.7L53.5,91c-0.3,0.2-0.5,0.3-0.6,0.4s-0.2,0.2-0.3,0.3h2.5v1h-3.9C51.3,92.3,51.3,91.9,51.5,91.6z"/>
<path class="st2" d="M56,88.8V88c0.4,0,0.6,0,0.7-0.1c0.2,0,0.4-0.1,0.5-0.3c0.1-0.1,0.2-0.2,0.2-0.4c0-0.1,0-0.2,0-0.2h0.9v5.7h-1.1v-3.9H56z"/>
<path class="st2" d="M35.5,73.8c0.2-0.4,0.5-0.8,1.1-1.2c0.5-0.4,0.8-0.6,1-0.8c0.2-0.2,0.3-0.5,0.3-0.8c0-0.2-0.1-0.4-0.2-0.6s-0.3-0.2-0.6-0.2c-0.3,0-0.6,0.1-0.7,0.4c-0.1,0.1-0.1,0.4-0.1,0.7h-1.1c0-0.5,0.1-0.9,0.3-1.2c0.3-0.6,0.8-0.8,1.6-0.8c0.6,0,1.1,0.2,1.4,0.5s0.5,0.8,0.5,1.3c0,0.4-0.1,0.8-0.4,1.1c-0.2,0.2-0.4,0.5-0.8,0.7l-0.4,0.3c-0.3,0.2-0.5,0.3-0.6,0.4s-0.2,0.2-0.3,0.3h2.5v1h-3.9C35.3,74.5,35.3,74.2,35.5,73.8z"/>
<path class="st2" d="M40,73.8c0.2-0.4,0.5-0.8,1.1-1.2c0.5-0.4,0.8-0.6,1-0.8c0.2-0.2,0.3-0.5,0.3-0.8c0-0.2-0.1-0.4-0.2-0.6s-0.3-0.2-0.6-0.2c-0.3,0-0.6,0.1-0.7,0.4c-0.1,0.1-0.1,0.4-0.1,0.7h-1.1c0-0.5,0.1-0.9,0.3-1.2c0.3-0.6,0.8-0.8,1.6-0.8c0.6,0,1.1,0.2,1.4,0.5s0.5,0.8,0.5,1.3c0,0.4-0.1,0.8-0.4,1.1c-0.2,0.2-0.4,0.5-0.8,0.7l-0.4,0.3c-0.3,0.2-0.5,0.3-0.6,0.4s-0.2,0.2-0.3,0.3h2.5v1h-3.9C39.7,74.5,39.8,74.2,40,73.8z"/>
<path class="st2" d="M44,61.8c0.2-0.4,0.5-0.8,1.1-1.2c0.5-0.4,0.8-0.6,1-0.8c0.2-0.2,0.3-0.5,0.3-0.8c0-0.2-0.1-0.4-0.2-0.6s-0.3-0.2-0.6-0.2c-0.3,0-0.6,0.1-0.7,0.4c-0.1,0.1-0.1,0.4-0.1,0.7h-1.1c0-0.5,0.1-0.9,0.3-1.2c0.3-0.6,0.8-0.8,1.6-0.8c0.6,0,1.1,0.2,1.4,0.5s0.5,0.8,0.5,1.3c0,0.4-0.1,0.8-0.4,1.1c-0.2,0.2-0.4,0.5-0.8,0.7L46,61.2c-0.3,0.2-0.5,0.3-0.6,0.4c-0.1,0.1-0.2,0.2-0.3,0.3h2.5v1h-3.9C43.8,62.5,43.9,62.2,44,61.8z"/>
<path class="st2" d="M49.3,61.2c0,0.2,0,0.4,0.1,0.6c0.1,0.3,0.4,0.4,0.7,0.4c0.2,0,0.4-0.1,0.6-0.2c0.2-0.1,0.2-0.4,0.2-0.6c0-0.4-0.2-0.6-0.5-0.7c-0.2-0.1-0.4-0.1-0.8-0.1v-0.8c0.4,0,0.6,0,0.8-0.1c0.2-0.1,0.4-0.3,0.4-0.7c0-0.2-0.1-0.4-0.2-0.5s-0.3-0.2-0.5-0.2c-0.3,0-0.5,0.1-0.6,0.2c-0.1,0.2-0.2,0.4-0.2,0.7h-1c0-0.3,0.1-0.5,0.1-0.8c0.1-0.2,0.2-0.4,0.4-0.6c0.1-0.1,0.3-0.2,0.5-0.3c0.2-0.1,0.4-0.1,0.7-0.1c0.5,0,1,0.1,1.3,0.4c0.3,0.3,0.5,0.7,0.5,1.1c0,0.3-0.1,0.6-0.3,0.8c-0.1,0.1-0.3,0.2-0.4,0.3c0.1,0,0.2,0.1,0.4,0.3c0.3,0.3,0.4,0.6,0.4,1.1c0,0.5-0.2,0.9-0.5,1.3c-0.3,0.4-0.8,0.5-1.5,0.5c-0.8,0-1.4-0.3-1.7-0.8c-0.2-0.3-0.3-0.6-0.3-1.1H49.3z"/>
<path class="st2" d="M57.5,53.8c0.2-0.4,0.5-0.8,1.1-1.2c0.5-0.4,0.8-0.6,1-0.8c0.2-0.2,0.3-0.5,0.3-0.8c0-0.2-0.1-0.4-0.2-0.6s-0.3-0.2-0.6-0.2c-0.3,0-0.6,0.1-0.7,0.4c-0.1,0.1-0.1,0.4-0.1,0.7h-1.1c0-0.5,0.1-0.9,0.3-1.2c0.3-0.6,0.8-0.8,1.6-0.8c0.6,0,1.1,0.2,1.4,0.5s0.5,0.8,0.5,1.3c0,0.4-0.1,0.8-0.4,1.1c-0.2,0.2-0.4,0.5-0.8,0.7l-0.4,0.3c-0.3,0.2-0.5,0.3-0.6,0.4s-0.2,0.2-0.3,0.3h2.5v1h-3.9C57.3,54.5,57.3,54.2,57.5,53.8z"/>
<path class="st2" d="M65.6,53.7H65v1.2h-1.1v-1.2h-2.2v-1l2.1-3.4H65v3.5h0.6V53.7z M63.9,52.8v-2.4l-1.4,2.4H63.9z"/>
<path class="st2" d="M348.4,63.2c0,0.2,0,0.4,0.1,0.6c0.1,0.3,0.4,0.4,0.7,0.4c0.2,0,0.4-0.1,0.6-0.2s0.2-0.4,0.2-0.6c0-0.4-0.2-0.6-0.5-0.7c-0.2-0.1-0.4-0.1-0.8-0.1v-0.8c0.4,0,0.6,0,0.8-0.1c0.2-0.1,0.4-0.3,0.4-0.7c0-0.2-0.1-0.4-0.2-0.5s-0.3-0.2-0.5-0.2c-0.3,0-0.5,0.1-0.6,0.2c-0.1,0.2-0.2,0.4-0.2,0.7h-1c0-0.3,0.1-0.5,0.1-0.8c0.1-0.2,0.2-0.4,0.4-0.6c0.1-0.1,0.3-0.2,0.5-0.3s0.4-0.1,0.7-0.1c0.5,0,1,0.1,1.3,0.4c0.3,0.3,0.5,0.7,0.5,1.1c0,0.3-0.1,0.6-0.3,0.8c-0.1,0.1-0.3,0.2-0.4,0.3c0.1,0,0.2,0.1,0.4,0.3c0.3,0.3,0.4,0.6,0.4,1.1c0,0.5-0.2,0.9-0.5,1.3c-0.3,0.4-0.8,0.5-1.5,0.5c-0.8,0-1.4-0.3-1.7-0.8c-0.2-0.3-0.3-0.6-0.3-1.1H348.4z"/>
<path class="st2" d="M355.8,60.2c-0.2,0.2-0.4,0.5-0.7,0.9c-0.3,0.4-0.5,0.9-0.7,1.3c-0.2,0.4-0.3,0.8-0.4,1.3c-0.1,0.5-0.2,0.9-0.2,1.2h-1.2c0-1,0.4-2.1,1-3.2c0.4-0.7,0.8-1.2,1-1.4h-2.8l0-1h4V60.2z"/>
<path class="st2" d="M364.2,74.4c0,0.2,0,0.4,0.1,0.6c0.1,0.3,0.4,0.4,0.7,0.4c0.2,0,0.4-0.1,0.6-0.2c0.2-0.1,0.2-0.4,0.2-0.6c0-0.4-0.2-0.6-0.5-0.7c-0.2-0.1-0.4-0.1-0.8-0.1v-0.8c0.4,0,0.6,0,0.8-0.1c0.2-0.1,0.4-0.3,0.4-0.7c0-0.2-0.1-0.4-0.2-0.5s-0.3-0.2-0.5-0.2c-0.3,0-0.5,0.1-0.6,0.2c-0.1,0.2-0.2,0.4-0.2,0.7h-1c0-0.3,0.1-0.5,0.1-0.8c0.1-0.2,0.2-0.4,0.4-0.6c0.1-0.1,0.3-0.2,0.5-0.3c0.2-0.1,0.4-0.1,0.7-0.1c0.5,0,1,0.1,1.3,0.4c0.3,0.3,0.5,0.7,0.5,1.1c0,0.3-0.1,0.6-0.3,0.8c-0.1,0.1-0.3,0.2-0.4,0.3c0.1,0,0.2,0.1,0.4,0.3c0.3,0.3,0.4,0.6,0.4,1.1c0,0.5-0.2,0.9-0.5,1.3c-0.3,0.4-0.8,0.5-1.5,0.5c-0.8,0-1.4-0.3-1.7-0.8c-0.2-0.3-0.3-0.6-0.3-1.1H364.2z"/>
<path class="st2" d="M367.7,73.7c0.1-0.3,0.4-0.5,0.6-0.6c-0.3-0.2-0.5-0.4-0.5-0.6c-0.1-0.2-0.1-0.4-0.1-0.6c0-0.4,0.2-0.8,0.5-1.1s0.7-0.4,1.3-0.4s1,0.1,1.3,0.4s0.5,0.6,0.5,1.1c0,0.2,0,0.4-0.1,0.6s-0.3,0.4-0.5,0.6c0.3,0.2,0.5,0.4,0.6,0.6c0.1,0.3,0.2,0.5,0.2,0.9c0,0.5-0.2,0.9-0.5,1.2c-0.4,0.3-0.8,0.5-1.5,0.5c-0.6,0-1.1-0.2-1.4-0.5c-0.3-0.3-0.5-0.7-0.5-1.2C367.5,74.3,367.6,74,367.7,73.7z M368.9,75.2c0.1,0.2,0.3,0.2,0.6,0.2c0.3,0,0.5-0.1,0.6-0.2s0.2-0.4,0.2-0.6c0-0.3-0.1-0.5-0.2-0.7c-0.1-0.1-0.3-0.2-0.6-0.2s-0.4,0.1-0.6,0.2c-0.1,0.1-0.2,0.4-0.2,0.7C368.7,74.8,368.7,75,368.9,75.2z M369,72.6c0.1,0.1,0.3,0.2,0.5,0.2c0.2,0,0.4-0.1,0.5-0.2s0.2-0.3,0.2-0.5c0-0.2-0.1-0.4-0.2-0.5s-0.3-0.2-0.5-0.2c-0.2,0-0.4,0.1-0.5,0.2c-0.1,0.1-0.2,0.3-0.2,0.5C368.8,72.3,368.8,72.4,369,72.6z"/>
<path class="st2" d="M368.7,87.2c0,0.2,0,0.4,0.1,0.6c0.1,0.3,0.4,0.4,0.7,0.4c0.2,0,0.4-0.1,0.6-0.2s0.2-0.4,0.2-0.6c0-0.4-0.2-0.6-0.5-0.7c-0.2-0.1-0.4-0.1-0.8-0.1v-0.8c0.4,0,0.6,0,0.8-0.1c0.2-0.1,0.4-0.3,0.4-0.7c0-0.2-0.1-0.4-0.2-0.5s-0.3-0.2-0.5-0.2c-0.3,0-0.5,0.1-0.6,0.2c-0.1,0.2-0.2,0.4-0.2,0.7h-1c0-0.3,0.1-0.5,0.1-0.8c0.1-0.2,0.2-0.4,0.4-0.6c0.1-0.1,0.3-0.2,0.5-0.3s0.4-0.1,0.7-0.1c0.5,0,1,0.1,1.3,0.4c0.3,0.3,0.5,0.7,0.5,1.1c0,0.3-0.1,0.6-0.3,0.8c-0.1,0.1-0.3,0.2-0.4,0.3c0.1,0,0.2,0.1,0.4,0.3c0.3,0.3,0.4,0.6,0.4,1.1c0,0.5-0.2,0.9-0.5,1.3c-0.3,0.4-0.8,0.5-1.5,0.5c-0.8,0-1.4-0.3-1.7-0.8c-0.2-0.3-0.3-0.6-0.3-1.1H368.7z"/>
<path class="st2" d="M372.6,83.8c0.4-0.4,0.8-0.6,1.4-0.6c0.9,0,1.5,0.4,1.8,1.1c0.2,0.4,0.3,1,0.3,1.7c0,0.7-0.1,1.3-0.3,1.7c-0.3,0.9-0.9,1.3-1.8,1.3c-0.4,0-0.8-0.1-1.1-0.4c-0.3-0.3-0.5-0.6-0.6-1.1h1.1c0,0.2,0.1,0.3,0.2,0.4c0.1,0.1,0.3,0.2,0.5,0.2c0.4,0,0.6-0.2,0.8-0.6c0.1-0.2,0.1-0.6,0.2-1c-0.1,0.1-0.2,0.2-0.3,0.3c-0.2,0.1-0.5,0.2-0.8,0.2c-0.5,0-0.8-0.2-1.2-0.5c-0.3-0.3-0.5-0.8-0.5-1.3C372.1,84.7,372.3,84.2,372.6,83.8z M374.5,86c0.3-0.2,0.4-0.4,0.4-0.8c0-0.3-0.1-0.6-0.2-0.8c-0.1-0.2-0.4-0.3-0.6-0.3c-0.2,0-0.4,0.1-0.5,0.2c-0.2,0.2-0.3,0.4-0.3,0.8c0,0.3,0.1,0.6,0.2,0.8s0.3,0.3,0.6,0.3C374.2,86.2,374.4,86.1,374.5,86z"/>
<path class="st2" d="M355.4,102.7h-0.6v1.2h-1.1v-1.2h-2.2v-1l2.1-3.4h1.2v3.5h0.6V102.7z M353.7,101.8v-2.4l-1.4,2.4H353.7z"/>
<path class="st2" d="M359.4,99c0.3,0.5,0.4,1.2,0.4,2.2s-0.1,1.7-0.4,2.2c-0.3,0.5-0.8,0.8-1.5,0.8c-0.7,0-1.2-0.3-1.5-0.8c-0.3-0.5-0.4-1.2-0.4-2.2s0.1-1.7,0.4-2.2c0.3-0.5,0.8-0.8,1.5-0.8C358.6,98.2,359.1,98.5,359.4,99z M357.3,102.7c0.1,0.3,0.3,0.5,0.7,0.5c0.3,0,0.5-0.2,0.7-0.5c0.1-0.3,0.2-0.8,0.2-1.5c0-0.7-0.1-1.2-0.2-1.5c-0.1-0.3-0.3-0.5-0.7-0.5c-0.3,0-0.5,0.2-0.7,0.5c-0.1,0.3-0.2,0.8-0.2,1.5C357.1,101.8,357.1,102.3,357.3,102.7z"/>
<path class="st2" d="M355.4,120.7h-0.6v1.2h-1.1v-1.2h-2.2v-1l2.1-3.4h1.2v3.5h0.6V120.7z M353.7,119.8v-2.4l-1.4,2.4H353.7z"/>
<path class="st2" d="M356.3,118v-0.8c0.4,0,0.6,0,0.7-0.1c0.2,0,0.4-0.1,0.5-0.3c0.1-0.1,0.2-0.2,0.2-0.4c0-0.1,0-0.2,0-0.2h0.9v5.7h-1.1V118H356.3z"/>
<path class="st2" d="M355.4,139.7h-0.6v1.2h-1.1v-1.2h-2.2v-1l2.1-3.4h1.2v3.5h0.6V139.7z M353.7,138.8v-2.4l-1.4,2.4H353.7z"/>
<path class="st2" d="M356.2,139.8c0.2-0.4,0.5-0.8,1.1-1.2c0.5-0.4,0.8-0.6,1-0.8c0.2-0.2,0.3-0.5,0.3-0.8c0-0.2-0.1-0.4-0.2-0.6s-0.3-0.2-0.6-0.2c-0.3,0-0.6,0.1-0.7,0.4c-0.1,0.1-0.1,0.4-0.1,0.7H356c0-0.5,0.1-0.9,0.3-1.2c0.3-0.6,0.8-0.8,1.6-0.8c0.6,0,1.1,0.2,1.4,0.5s0.5,0.8,0.5,1.3c0,0.4-0.1,0.8-0.4,1.1c-0.2,0.2-0.4,0.5-0.8,0.7l-0.4,0.3c-0.3,0.2-0.5,0.3-0.6,0.4c-0.1,0.1-0.2,0.2-0.3,0.3h2.5v1H356C356,140.5,356.1,140.2,356.2,139.8z"/>
<path class="st2" d="M355.4,158.7h-0.6v1.2h-1.1v-1.2h-2.2v-1l2.1-3.4h1.2v3.5h0.6V158.7z M353.7,157.8v-2.4l-1.4,2.4H353.7z"/>
<path class="st2" d="M357,158.2c0,0.2,0,0.4,0.1,0.6c0.1,0.3,0.4,0.4,0.7,0.4c0.2,0,0.4-0.1,0.6-0.2s0.2-0.4,0.2-0.6c0-0.4-0.2-0.6-0.5-0.7c-0.2-0.1-0.4-0.1-0.8-0.1v-0.8c0.4,0,0.6,0,0.8-0.1c0.2-0.1,0.4-0.3,0.4-0.7c0-0.2-0.1-0.4-0.2-0.5s-0.3-0.2-0.5-0.2c-0.3,0-0.5,0.1-0.6,0.2c-0.1,0.2-0.2,0.4-0.2,0.7h-1c0-0.3,0.1-0.5,0.1-0.8c0.1-0.2,0.2-0.4,0.4-0.6c0.1-0.1,0.3-0.2,0.5-0.3s0.4-0.1,0.7-0.1c0.5,0,1,0.1,1.3,0.4c0.3,0.3,0.5,0.7,0.5,1.1c0,0.3-0.1,0.6-0.3,0.8c-0.1,0.1-0.3,0.2-0.4,0.3c0.1,0,0.2,0.1,0.4,0.3c0.3,0.3,0.4,0.6,0.4,1.1c0,0.5-0.2,0.9-0.5,1.3c-0.3,0.4-0.8,0.5-1.5,0.5c-0.8,0-1.4-0.3-1.7-0.8c-0.2-0.3-0.3-0.6-0.3-1.1H357z"/>
<path class="st2" d="M343.2,256.6c0.3,0.5,0.4,1.2,0.4,2.2s-0.1,1.7-0.4,2.2c-0.3,0.5-0.8,0.8-1.5,0.8c-0.7,0-1.2-0.3-1.5-0.8c-0.3-0.5-0.4-1.2-0.4-2.2s0.1-1.7,0.4-2.2c0.3-0.5,0.8-0.8,1.5-0.8C342.4,255.8,342.9,256.1,343.2,256.6z M341,260.2c0.1,0.3,0.3,0.5,0.7,0.5c0.3,0,0.5-0.2,0.7-0.5c0.1-0.3,0.2-0.8,0.2-1.5c0-0.7-0.1-1.2-0.2-1.5c-0.1-0.3-0.3-0.5-0.7-0.5c-0.3,0-0.5,0.2-0.7,0.5c-0.1,0.3-0.2,0.8-0.2,1.5C340.8,259.4,340.9,259.9,341,260.2z"/>
<path class="st2" d="M344.4,257.6v-0.8c0.4,0,0.6,0,0.7-0.1c0.2,0,0.4-0.1,0.5-0.3c0.1-0.1,0.2-0.2,0.2-0.4c0-0.1,0-0.2,0-0.2h0.9v5.7h-1.1v-3.9H344.4z"/>
<path class="st2" d="M336.7,178.7h-0.6v1.2H335v-1.2h-2.2v-1l2.1-3.4h1.2v3.5h0.6V178.7z M335,177.8v-2.4l-1.4,2.4H335z"/>
<path class="st2" d="M341.2,178.7h-0.6v1.2h-1.1v-1.2h-2.2v-1l2.1-3.4h1.2v3.5h0.6V178.7z M339.5,177.8v-2.4l-1.4,2.4H339.5z"/>
<path class="st2" d="M374.2,178.7h-0.6v1.2h-1.1v-1.2h-2.2v-1l2.1-3.4h1.2v3.5h0.6V178.7z M372.5,177.8v-2.4l-1.4,2.4H372.5z"/>
<path class="st2" d="M378.7,178.7H378v1.2h-1.1v-1.2h-2.2v-1l2.1-3.4h1.2v3.5h0.6V178.7z M376.9,177.8v-2.4l-1.4,2.4H376.9z"/>
<path class="st2" d="M355.4,200.7h-0.6v1.2h-1.1v-1.2h-2.2v-1l2.1-3.4h1.2v3.5h0.6V200.7z M353.7,199.8v-2.4l-1.4,2.4H353.7z"/>
<path class="st2" d="M357,200.4c0,0.2,0.1,0.4,0.3,0.6c0.1,0.1,0.3,0.2,0.5,0.2c0.3,0,0.5-0.1,0.6-0.3c0.1-0.2,0.2-0.4,0.2-0.7c0-0.3-0.1-0.5-0.2-0.7c-0.1-0.2-0.3-0.3-0.6-0.3c-0.1,0-0.3,0-0.4,0.1c-0.2,0.1-0.3,0.2-0.4,0.3l-1,0l0.4-3.1h3.1v0.9h-2.3l-0.2,1.2c0.2-0.1,0.3-0.2,0.4-0.2c0.2-0.1,0.4-0.1,0.6-0.1c0.5,0,0.9,0.2,1.2,0.5s0.5,0.8,0.5,1.4c0,0.5-0.2,1-0.5,1.4c-0.3,0.4-0.8,0.6-1.5,0.6c-0.5,0-1-0.1-1.3-0.4c-0.3-0.3-0.5-0.7-0.6-1.2H357z"/>
<path class="st2" d="M355.4,220.7h-0.6v1.2h-1.1v-1.2h-2.2v-1l2.1-3.4h1.2v3.5h0.6V220.7z M353.7,219.8v-2.4l-1.4,2.4H353.7z"/>
<path class="st2" d="M358.6,217.7c0-0.1,0-0.2-0.1-0.3c-0.1-0.2-0.3-0.3-0.5-0.3c-0.4,0-0.6,0.2-0.8,0.6c-0.1,0.2-0.1,0.6-0.2,1c0.1-0.2,0.3-0.3,0.5-0.4c0.2-0.1,0.4-0.1,0.6-0.1c0.5,0,0.9,0.2,1.2,0.5c0.3,0.3,0.5,0.8,0.5,1.3c0,0.5-0.2,1-0.5,1.4c-0.3,0.4-0.8,0.6-1.5,0.6c-0.7,0-1.2-0.3-1.6-0.9c-0.3-0.5-0.4-1.1-0.4-1.8c0-0.4,0-0.8,0.1-1.1c0.1-0.5,0.2-0.9,0.4-1.2c0.2-0.3,0.4-0.5,0.6-0.7s0.6-0.2,0.9-0.2c0.5,0,0.9,0.1,1.3,0.4s0.5,0.6,0.5,1.1H358.6z M357.3,220.9c0.2,0.2,0.4,0.3,0.6,0.3c0.2,0,0.4-0.1,0.6-0.3c0.1-0.2,0.2-0.4,0.2-0.7c0-0.3-0.1-0.6-0.2-0.8c-0.2-0.2-0.4-0.3-0.6-0.3c-0.2,0-0.4,0.1-0.5,0.2c-0.2,0.2-0.3,0.4-0.3,0.8C357.1,220.4,357.2,220.7,357.3,220.9z"/>
<path class="st2" d="M359.2,239.7h-0.6v1.2h-1.1v-1.2h-2.2v-1l2.1-3.4h1.2v3.5h0.6V239.7z M357.5,238.8v-2.4l-1.4,2.4H357.5z"/>
<path class="st2" d="M363.7,236.2c-0.2,0.2-0.4,0.5-0.7,0.9c-0.3,0.4-0.5,0.9-0.7,1.3c-0.2,0.4-0.3,0.8-0.4,1.3c-0.1,0.5-0.2,0.9-0.2,1.2h-1.2c0-1,0.4-2.1,1-3.2c0.4-0.7,0.8-1.2,1-1.4h-2.8l0-1h4V236.2z"/>
<path class="st2" d="M359.2,253.7h-0.6v1.2h-1.1v-1.2h-2.2v-1l2.1-3.4h1.2v3.5h0.6V253.7z M357.5,252.8v-2.4l-1.4,2.4H357.5z"/>
<path class="st2" d="M359.9,252.5c0.1-0.3,0.4-0.5,0.6-0.6c-0.3-0.2-0.5-0.4-0.5-0.6c-0.1-0.2-0.1-0.4-0.1-0.6c0-0.4,0.2-0.8,0.5-1.1s0.7-0.4,1.3-0.4s1,0.1,1.3,0.4s0.5,0.6,0.5,1.1c0,0.2,0,0.4-0.1,0.6s-0.3,0.4-0.5,0.6c0.3,0.2,0.5,0.4,0.6,0.6s0.2,0.5,0.2,0.9c0,0.5-0.2,0.9-0.5,1.2c-0.4,0.3-0.8,0.5-1.5,0.5s-1.1-0.2-1.4-0.5c-0.3-0.3-0.5-0.7-0.5-1.2C359.7,253,359.7,252.8,359.9,252.5z M361,253.9c0.1,0.2,0.3,0.2,0.6,0.2s0.5-0.1,0.6-0.2s0.2-0.4,0.2-0.6c0-0.3-0.1-0.5-0.2-0.7s-0.3-0.2-0.6-0.2s-0.4,0.1-0.6,0.2s-0.2,0.4-0.2,0.7C360.8,253.6,360.9,253.8,361,253.9z M361.1,251.4c0.1,0.1,0.3,0.2,0.5,0.2c0.2,0,0.4-0.1,0.5-0.2c0.1-0.1,0.2-0.3,0.2-0.5c0-0.2-0.1-0.4-0.2-0.5c-0.1-0.1-0.3-0.2-0.5-0.2c-0.2,0-0.4,0.1-0.5,0.2c-0.1,0.1-0.2,0.3-0.2,0.5C360.9,251.1,361,251.2,361.1,251.4z"/>


<path id="shape-504743-1000310001" class="st3" d="M161.5,260.3h92.6v21.4h-92.6V260.3z"/>
<path id="shape-504744-1000310002" class="st3" d="M64.7,31.9l15.7,29.9l6.4-2.8l0.2,0.4l-5.9-32C75.3,28.1,69.8,29.7,64.7,31.9z"/>
<path id="shape-504744-1000310003" class="st3" d="M93.7,79.6V26.7h-3.4c-2.1,0-4.2,0.1-6.2,0.3L93.7,79.6z"/>
<path id="shape-504744-1000310004" class="st3" d="M96.7,26.7h15.1v58.5H96.7V26.7z"/>
<path id="shape-504744-1000310005" class="st3" d="M114.9,26.7H139v58.5h-24.1V26.7z"/>
<path id="shape-504744-1000310006" class="st3" d="M142,26.7h23.4v58.5H142V26.7z"/>
<path id="shape-504744-1000310007" class="st3" d="M168.5,26.7h24v58.5h-24V26.7z"/>
<path id="shape-504744-1000310008" class="st3" d="M195.5,26.7h22.6v22.9h-22.6V26.7z"/>
<path id="shape-504744-1000310009" class="st3" d="M223.1,26.7h22.6v22.9h-22.6V26.7z"/>
<path id="shape-504744-1000310010" class="st3" d="M195.5,61.6h22.6v23.6h-22.6V61.6z"/>
<path id="shape-504744-1000310011" class="st3" d="M223.1,61.6h22.6v23.6h-22.6V61.6z"/>
<path id="shape-504744-1000310012" class="st3" d="M248.7,26.7h23.4v58.5h-23.4V26.7z"/>
<path id="shape-504744-1000310013" class="st3" d="M275.1,26.7h23.4v58.5h-23.4V26.7z"/>
<path id="shape-504744-1000310014" class="st3" d="M301.5,85.1h21.4V26.7c-0.7,0-1.4-0.1-2.2-0.1h-19.2L301.5,85.1L301.5,85.1z"/>
<path id="shape-504744-1000310015" class="st3" d="M325.9,26.9v32l9.7,2.1l13.8-27.6C342.2,29.8,334.3,27.5,325.9,26.9z"/>
<path id="shape-504744-1000310016" class="st3" d="M88.8,281.6v-28.7l-9.8-3l-11.6,27.5C74,280,81.2,281.4,88.8,281.6z"/>
<path id="shape-504744-1000310017" class="st3" d="M91.8,230.2h22.9v51.5H91.8V230.2z"/>
<path id="shape-504744-1000310018" class="st3" d="M117.6,230.2h23.1v51.5h-23.1V230.2z"/>
<path id="shape-504744-1000310019" class="st3" d="M158.5,257.3h9.1v-27.1h-23.9v51.5h14.7V257.3z"/>
<path id="shape-504744-1000310020" class="st3" d="M170.6,230.2h22.7v27.1h-22.7V230.2z"/>
<path id="shape-504744-1000310021" class="st3" d="M196.3,230.2h23.7v27.1h-23.7V230.2z"/>
<path id="shape-504744-1000310022" class="st3" d="M223.1,230.2h23.3v27.1h-23.3V230.2z"/>
<path id="shape-504744-1000310023" class="st3" d="M273.2,281.7v-51.5h-23.9v27.1h7.7v24.4H273.2z"/>
<path id="shape-504744-1000310024" class="st3" d="M276.2,230.2h23.4v19.6h-23.4V230.2z"/>
<path id="shape-504744-1000310025" class="st3" d="M302.7,230.2h15.9v51.5h-15.9V230.2z"/>
<path id="shape-504744-1000310026" class="st3" d="M326.4,250.2h-4.8v31.5c6.6-0.1,13-1.2,19-3.1L326.4,250.2z"/>
<path id="shape-504744-1000310027" class="st3" d="M276.2,263.8h23.4v17.9h-23.4V263.8z"/>
<path id="shape-504742-1000310028" class="st3" d="M84.7,228.4v-1.6l-44.9,30.7c6.6,8.1,15.1,14.6,24.8,18.8L84.7,228.4z"/>
<path id="shape-504742-1000310029" class="st3" d="M63.1,237.9l-3.6-5.4l-28.5,10.6c1.9,4.3,4.3,8.3,7,12L63.1,237.9z"/>
<path id="shape-504742-1000310031" class="st3" d="M25.2,184h59.5v19.6H25.2V184z"/>
<path id="shape-504742-1000310032" class="st3" d="M25.2,162.1h21.5V180H25.2V162.1z"/>
<path id="shape-504742-1000310033" class="st3" d="M60.8,162.1h24V180h-24V162.1z"/>
<path id="shape-504742-1000310034" class="st3" d="M25.2,139.9h21.5v19.2H25.2V139.9z"/>
<path id="shape-504742-1000310035" class="st3" d="M60.8,139.9h24v19.2h-24V139.9z"/>
<path id="shape-504742-1000310036" class="st3" d="M25.2,120h21.5v16.9H25.2V120z"/>
<path id="shape-504742-1000310037" class="st3" d="M60.8,120h24v16.9h-24V120z"/>
<path id="shape-504742-1000310038" class="st3" d="M25.2,99h59.5V117H25.2V99z"/>
<path id="shape-504742-1000310039" class="st3" d="M25.2,96h59.5v-8.2L27.3,75.5c-1.3,5.2-2.1,10.6-2.1,16.2L25.2,96L25.2,96z"/>
<path id="shape-504742-1000310040" class="st3" d="M59,79.2v-3.5h0.2L31.9,63.1c-1.5,3-2.8,6.2-3.8,9.5L59,79.2z"/>
<path id="shape-504742-1000310041" class="st3" d="M55.8,70.9l6-7L43.1,47.1c-3.8,4-7.1,8.5-9.8,13.4L55.8,70.9z"/>
<path id="shape-504742-1000310042" class="st3" d="M65.9,63.6l-7.3,8.6l27.9,13h2.7L62,33.2c-6.2,3-11.8,7-16.7,11.7L65.9,63.6z"/>
<path id="shape-504742-1000310044" class="st3" d="M350.3,76l5,6.3l28-8c-1.8-6.5-4.6-12.6-8.3-18.2L350.3,76z"/>
<path id="shape-504742-1000310045" class="st3" d="M357.1,84.9v5.6h28.6c-0.1-4.6-0.6-9-1.6-13.3L357.1,84.9z"/>
<path id="shape-504742-1000310046" class="st3" d="M324.8,93.5h61V108h-61V93.5z"/>
<path id="shape-504742-1000310047" class="st3" d="M324.8,111h61v15.6h-61V111z"/>
<path id="shape-504742-1000310048" class="st3" d="M324.8,129.6h61v15h-61V129.6z"/>
<path id="shape-504742-1000310049" class="st3" d="M324.8,147.6h61v15.3h-61V147.6z"/>
<path id="shape-504742-1000310050" class="st3" d="M321.6,231.6v15.5h6.7l15.2,30.4c8.2-3.1,15.6-7.8,21.9-13.7L321.6,231.6z"/>
<path id="shape-504745-1000310052" class="st3" d="M324.8,165.9h23.6v21.4h-23.6V165.9z"/>
<path id="shape-504745-1000310053" class="st3" d="M362.3,165.9h23.4v21.4h-23.4V165.9z"/>
<path id="shape-504745-1000310054" class="st3" d="M324.8,190.3h61V207h-61V190.3z"/>
<path id="shape-504745-1000310055" class="st3" d="M324.8,210v17.1h60.1c0.6-3.4,0.9-6.9,0.9-10.5V210H324.8z"/>
<path id="shape-504745-1000310056" class="st3" d="M330.2,230.2l45.7,20.7c3.9-6.3,6.8-13.3,8.4-20.7H330.2z"/>
<path id="shape-504745-1000310057" class="st3" d="M327.3,232.2l40.1,29.5c2.5-2.6,4.8-5.3,6.8-8.3L327.3,232.2z"/>


<path id="SvgjsPath1005" class="st4" d="M64.7,31.9l15.7,29.9l6.4-2.8l0.2,0.4l-5.9-32C75.3,28.1,69.8,29.7,64.7,31.9z"/>





<path id="SvgjsPath1009" class="st4" d="M93.7,79.6V26.7h-3.4c-2.1,0-4.2,0.1-6.2,0.3L93.7,79.6z"/>





<path id="SvgjsPath1013" class="st4" d="M96.7,26.7h15.1v58.5H96.7V26.7z"/>





<path id="SvgjsPath1017" class="st4" d="M114.9,26.7H139v58.5h-24.1V26.7z"/>





<path id="SvgjsPath1021" class="st4" d="M142,26.7h23.4v58.5H142V26.7z"/>





<path id="SvgjsPath1025" class="st4" d="M168.5,26.7h24v58.5h-24V26.7z"/>





<path id="SvgjsPath1029" class="st4" d="M195.5,26.7h22.6v22.9h-22.6V26.7z"/>





<path id="SvgjsPath1033" class="st4" d="M223.1,26.7h22.6v22.9h-22.6V26.7z"/>





<path id="SvgjsPath1037" class="st4" d="M195.5,61.6h22.6v23.6h-22.6V61.6z"/>





<path id="SvgjsPath1041" class="st4" d="M223.1,61.6h22.6v23.6h-22.6V61.6z"/>





<path id="SvgjsPath1045" class="st4" d="M248.7,26.7h23.4v58.5h-23.4V26.7z"/>





<path id="SvgjsPath1049" class="st4" d="M275.1,26.7h23.4v58.5h-23.4V26.7z"/>





<path id="SvgjsPath1053" class="st4" d="M301.5,85.1h21.4V26.7c-0.7,0-1.4-0.1-2.2-0.1h-19.2L301.5,85.1L301.5,85.1z"/>





<path id="SvgjsPath1057" class="st4" d="M325.9,26.9v32l9.7,2.1l13.8-27.6C342.2,29.8,334.3,27.5,325.9,26.9z"/>





<path id="SvgjsPath1061" class="st4" d="M88.8,281.6v-28.7l-9.8-3l-11.6,27.5C74,280,81.2,281.4,88.8,281.6z"/>





<path id="SvgjsPath1065" class="st4" d="M91.8,230.2h22.9v51.5H91.8V230.2z"/>





<path id="SvgjsPath1069" class="st4" d="M117.6,230.2h23.1v51.5h-23.1V230.2z"/>





<path id="SvgjsPath1073" class="st4" d="M158.5,257.3h9.1v-27.1h-23.9v51.5h14.7V257.3z"/>





<path id="SvgjsPath1077" class="st4" d="M170.6,230.2h22.7v27.1h-22.7V230.2z"/>





<path id="SvgjsPath1081" class="st4" d="M196.3,230.2h23.7v27.1h-23.7V230.2z"/>





<path id="SvgjsPath1085" class="st4" d="M223.1,230.2h23.3v27.1h-23.3V230.2z"/>





<path id="SvgjsPath1089" class="st4" d="M273.2,281.7v-51.5h-23.9v27.1h7.7v24.4H273.2z"/>





<path id="SvgjsPath1093" class="st4" d="M276.2,230.2h23.4v19.6h-23.4V230.2z"/>





<path id="SvgjsPath1097" class="st4" d="M302.7,230.2h15.9v51.5h-15.9V230.2z"/>





<path id="SvgjsPath1101" class="st4" d="M326.4,250.2h-4.8v31.5c6.6-0.1,13-1.2,19-3.1L326.4,250.2z"/>





<path id="SvgjsPath1105" class="st4" d="M276.2,263.8h23.4v17.9h-23.4V263.8z"/>





<path id="SvgjsPath1109" class="st5" d="M84.7,228.4v-1.6l-44.9,30.7c6.6,8.1,15.1,14.6,24.8,18.8L84.7,228.4z"/>





<path id="SvgjsPath1113" class="st5" d="M63.1,237.9l-3.6-5.4l-28.5,10.6c1.9,4.3,4.3,8.3,7,12L63.1,237.9z"/>





<path id="SvgjsPath1117" class="st5" d="M84.7,206.5H25.2v10.1c0,8.4,1.6,16.3,4.5,23.7l55-20.4C84.7,219.9,84.7,206.5,84.7,206.5z"
/>




<path id="shape-504742-1000310030" class="st3" d="M84.7,206.5H25.2v10.1c0,8.4,1.6,16.3,4.5,23.7l55-20.4
C84.7,219.9,84.7,206.5,84.7,206.5z"/>
<path id="SvgjsPath1121" class="st5" d="M25.2,184h59.5v19.6H25.2V184z"/>





<path id="SvgjsPath1125" class="st5" d="M25.2,162.1h21.5V180H25.2V162.1z"/>





<path id="SvgjsPath1129" class="st5" d="M60.8,162.1h24V180h-24V162.1z"/>





<path id="SvgjsPath1133" class="st5" d="M25.2,139.9h21.5v19.2H25.2V139.9z"/>





<path id="SvgjsPath1137" class="st5" d="M60.8,139.9h24v19.2h-24V139.9z"/>





<path id="SvgjsPath1141" class="st5" d="M25.2,120h21.5v16.9H25.2V120z"/>





<path id="SvgjsPath1145" class="st5" d="M60.8,120h24v16.9h-24V120z"/>





<path id="SvgjsPath1149" class="st5" d="M25.2,99h59.5V117H25.2V99z"/>





<path id="SvgjsPath1153" class="st5" d="M25.2,96h59.5v-8.2L27.3,75.5c-1.3,5.2-2.1,10.6-2.1,16.2L25.2,96L25.2,96z"/>





<path id="SvgjsPath1157" class="st5" d="M59,79.2v-3.5h0.2L31.9,63.1c-1.5,3-2.8,6.2-3.8,9.5L59,79.2z"/>





<path id="SvgjsPath1161" class="st5" d="M55.8,70.9l6-7L43.1,47.1c-3.8,4-7.1,8.5-9.8,13.4L55.8,70.9z"/>





<path id="SvgjsPath1165" class="st5" d="M65.9,63.6l-7.3,8.6l27.9,13h2.7L62,33.2c-6.2,3-11.8,7-16.7,11.7L65.9,63.6z"/>





<path id="SvgjsPath1169" class="st5" d="M328.8,81.3l5.6,5h19.8v-0.8l-8-10.1l27.3-21.8c-5.6-7.8-12.9-14.2-21.3-18.9L328.8,81.3z"
/>




<path id="shape-504742-1000310043" class="st3" d="M328.8,81.3l5.6,5h19.8v-0.8l-8-10.1l27.3-21.8c-5.6-7.8-12.9-14.2-21.3-18.9
L328.8,81.3z"/>
<path id="SvgjsPath1173" class="st5" d="M350.3,76l5,6.3l28-8c-1.8-6.5-4.6-12.6-8.3-18.2L350.3,76z"/>





<path id="SvgjsPath1177" class="st5" d="M357.1,84.9v5.6h28.6c-0.1-4.6-0.6-9-1.6-13.3L357.1,84.9z"/>





<path id="SvgjsPath1181" class="st5" d="M324.8,93.5h61V108h-61V93.5z"/>





<path id="SvgjsPath1185" class="st5" d="M324.8,111h61v15.6h-61V111z"/>





<path id="SvgjsPath1189" class="st5" d="M324.8,129.6h61v15h-61V129.6z"/>





<path id="SvgjsPath1193" class="st5" d="M324.8,147.6h61v15.3h-61V147.6z"/>





<path id="SvgjsPath1197" class="st5" d="M321.6,231.6v15.5h6.7l15.2,30.4c8.2-3.1,15.6-7.8,21.9-13.7L321.6,231.6z"/>





<path id="SvgjsPath1201" class="st6" d="M324.8,165.9h23.6v21.4h-23.6V165.9z"/>





<path id="SvgjsPath1205" class="st6" d="M362.3,165.9h23.4v21.4h-23.4V165.9z"/>





<path id="SvgjsPath1209" class="st6" d="M324.8,190.3h61V207h-61V190.3z"/>





<path id="SvgjsPath1213" class="st6" d="M324.8,210v17.1h60.1c0.6-3.4,0.9-6.9,0.9-10.5V210H324.8z"/>





<path id="SvgjsPath1217" class="st6" d="M330.2,230.2l45.7,20.7c3.9-6.3,6.8-13.3,8.4-20.7H330.2z"/>





<path id="SvgjsPath1221" class="st6" d="M327.3,232.2l40.1,29.5c2.5-2.6,4.8-5.3,6.8-8.3L327.3,232.2z"/>





</svg>
