<?xml version="1.0" encoding="utf-8"?>
<!-- Generator: Adobe Illustrator 19.2.0, SVG Export Plug-In . SVG Version: 6.00 Build 0)  -->
<svg version="1.1" id="Layer_1" xmlns="http://www.w3.org/2000/svg" xmlns:xlink="http://www.w3.org/1999/xlink" x="0px" y="0px"
	 viewBox="0 0 366 253" style="enable-background:new 0 0 366 253;" xml:space="preserve">
<style type="text/css">
	.st0{fill:#8BC34A;stroke:#8BC34A;stroke-width:2;}
	.st1{enable-background:new    ;}
	.st2{fill:#FFFFFF;}
	.st3{fill-opacity:0;}
	.st4{fill:#D0D0D0;stroke:#D0D0D0;stroke-width:2;}
	.st5{fill:#00BCD4;stroke:#00BCD4;stroke-width:2;}
</style>
<path id="SvgjsPath1001" class="st0" d="M62.7,38l0.1-31l22.5,0l-0.1,31L62.7,38z"/>
<g class="st1">
	<path class="st2" d="M72.5,25.6v-0.8c0.4,0,0.6,0,0.7-0.1c0.2,0,0.4-0.1,0.5-0.3c0.1-0.1,0.2-0.2,0.2-0.4c0-0.1,0-0.2,0-0.2H75v5.7
		h-1.1v-3.9H72.5z"/>
</g>
<path id="shape-504560-1000523001" class="st3" d="M62.7,38l0.1-31l22.5,0l-0.1,31L62.7,38z"/>
<path id="SvgjsPath1005" class="st0" d="M89.2,38.1l0.1-31l21.5,0l-0.1,31L89.2,38.1z"/>
<g class="st1">
	<path class="st2" d="M98.5,28.4c0.2-0.4,0.5-0.8,1.1-1.2c0.5-0.4,0.8-0.6,1-0.8c0.2-0.2,0.3-0.5,0.3-0.8c0-0.2-0.1-0.4-0.2-0.6
		s-0.3-0.2-0.6-0.2c-0.3,0-0.6,0.1-0.7,0.4c-0.1,0.1-0.1,0.4-0.1,0.7h-1.1c0-0.5,0.1-0.9,0.3-1.2c0.3-0.6,0.8-0.8,1.6-0.8
		c0.6,0,1.1,0.2,1.4,0.5s0.5,0.8,0.5,1.3c0,0.4-0.1,0.8-0.4,1.1c-0.2,0.2-0.4,0.5-0.8,0.7l-0.4,0.3c-0.3,0.2-0.5,0.3-0.6,0.4
		s-0.2,0.2-0.3,0.3h2.5v1h-3.9C98.2,29.1,98.3,28.7,98.5,28.4z"/>
</g>
<path id="shape-504560-1000523002" class="st3" d="M89.2,38.1l0.1-31l21.5,0l-0.1,31L89.2,38.1z"/>
<path id="SvgjsPath1009" class="st0" d="M114.7,38.1l0.1-31l21.5,0l-0.1,31L114.7,38.1z"/>
<g class="st1">
	<path class="st2" d="M124.8,27.8c0,0.2,0,0.4,0.1,0.6c0.1,0.3,0.4,0.4,0.7,0.4c0.2,0,0.4-0.1,0.6-0.2c0.2-0.1,0.2-0.4,0.2-0.6
		c0-0.4-0.2-0.6-0.5-0.7c-0.2-0.1-0.4-0.1-0.8-0.1v-0.8c0.4,0,0.6,0,0.8-0.1c0.2-0.1,0.4-0.3,0.4-0.7c0-0.2-0.1-0.4-0.2-0.5
		s-0.3-0.2-0.5-0.2c-0.3,0-0.5,0.1-0.6,0.2s-0.2,0.4-0.2,0.7h-1c0-0.3,0.1-0.5,0.1-0.8c0.1-0.2,0.2-0.4,0.4-0.6
		c0.1-0.1,0.3-0.2,0.5-0.3c0.2-0.1,0.4-0.1,0.7-0.1c0.5,0,1,0.1,1.3,0.4s0.5,0.7,0.5,1.1c0,0.3-0.1,0.6-0.3,0.8
		c-0.1,0.1-0.3,0.2-0.4,0.3c0.1,0,0.2,0.1,0.4,0.3c0.3,0.3,0.4,0.6,0.4,1.1c0,0.5-0.2,0.9-0.5,1.3s-0.8,0.5-1.5,0.5
		c-0.8,0-1.4-0.3-1.7-0.8c-0.2-0.3-0.3-0.6-0.3-1.1H124.8z"/>
</g>
<path id="shape-504560-1000523003" class="st3" d="M114.7,38.1l0.1-31l21.5,0l-0.1,31L114.7,38.1z"/>
<path id="SvgjsPath1013" class="st0" d="M140.2,38.2l0.1-31l21.5,0l-0.1,31L140.2,38.2z"/>
<g class="st1">
	<path class="st2" d="M153.2,28.4h-0.6v1.2h-1.1v-1.2h-2.2v-1l2.1-3.4h1.2v3.5h0.6V28.4z M151.4,27.5v-2.4l-1.4,2.4H151.4z"/>
</g>
<path id="shape-504560-1000523004" class="st3" d="M140.2,38.2l0.1-31l21.5,0l-0.1,31L140.2,38.2z"/>
<path id="SvgjsPath1017" class="st0" d="M165.7,38.2l0.1-31l21.5,0l-0.1,31L165.7,38.2z"/>
<g class="st1">
	<path class="st2" d="M175.8,28.1c0,0.2,0.1,0.4,0.3,0.6c0.1,0.1,0.3,0.2,0.5,0.2c0.3,0,0.5-0.1,0.6-0.3s0.2-0.4,0.2-0.7
		c0-0.3-0.1-0.5-0.2-0.7s-0.3-0.3-0.6-0.3c-0.1,0-0.3,0-0.4,0.1c-0.2,0.1-0.3,0.2-0.4,0.3l-1,0l0.4-3.1h3.1V25h-2.3l-0.2,1.2
		c0.2-0.1,0.3-0.2,0.4-0.2c0.2-0.1,0.4-0.1,0.6-0.1c0.5,0,0.9,0.2,1.2,0.5c0.3,0.3,0.5,0.8,0.5,1.4c0,0.5-0.2,1-0.5,1.4
		s-0.8,0.6-1.5,0.6c-0.5,0-1-0.1-1.3-0.4c-0.3-0.3-0.5-0.7-0.6-1.2H175.8z"/>
</g>
<path id="shape-504560-1000523005" class="st3" d="M165.7,38.2l0.1-31l21.5,0l-0.1,31L165.7,38.2z"/>
<path id="SvgjsPath1021" class="st0" d="M191.2,38.3l0.1-31l21.5,0l-0.1,31L191.2,38.3z"/>
<g class="st1">
	<path class="st2" d="M202.9,25.5c0-0.1,0-0.2-0.1-0.3c-0.1-0.2-0.3-0.3-0.5-0.3c-0.4,0-0.6,0.2-0.8,0.6c-0.1,0.2-0.1,0.6-0.2,1
		c0.1-0.2,0.3-0.3,0.5-0.4c0.2-0.1,0.4-0.1,0.6-0.1c0.5,0,0.9,0.2,1.2,0.5c0.3,0.3,0.5,0.8,0.5,1.3c0,0.5-0.2,1-0.5,1.4
		c-0.3,0.4-0.8,0.6-1.5,0.6c-0.7,0-1.2-0.3-1.6-0.9c-0.3-0.5-0.4-1.1-0.4-1.8c0-0.4,0-0.8,0.1-1.1c0.1-0.5,0.2-0.9,0.4-1.2
		c0.2-0.3,0.4-0.5,0.6-0.7s0.6-0.2,0.9-0.2c0.5,0,0.9,0.1,1.3,0.4s0.5,0.6,0.5,1.1H202.9z M201.6,28.7c0.2,0.2,0.4,0.3,0.6,0.3
		c0.2,0,0.4-0.1,0.6-0.3c0.1-0.2,0.2-0.4,0.2-0.7c0-0.3-0.1-0.6-0.2-0.8c-0.2-0.2-0.4-0.3-0.6-0.3c-0.2,0-0.4,0.1-0.5,0.2
		c-0.2,0.2-0.3,0.4-0.3,0.8C201.3,28.2,201.4,28.5,201.6,28.7z"/>
</g>
<path id="shape-504560-1000523006" class="st3" d="M191.2,38.3l0.1-31l21.5,0l-0.1,31L191.2,38.3z"/>
<path id="SvgjsPath1025" class="st0" d="M216.7,38.3l0.1-31l21.5,0l-0.1,31L216.7,38.3z"/>
<g class="st1">
	<path class="st2" d="M229.7,25c-0.2,0.2-0.4,0.5-0.7,0.9c-0.3,0.4-0.5,0.9-0.7,1.3c-0.2,0.4-0.3,0.8-0.4,1.3s-0.2,0.9-0.2,1.2h-1.2
		c0-1,0.4-2.1,1-3.2c0.4-0.7,0.8-1.2,1-1.4h-2.8l0-1h4V25z"/>
</g>
<path id="shape-504560-1000523007" class="st3" d="M216.7,38.3l0.1-31l21.5,0l-0.1,31L216.7,38.3z"/>
<path id="SvgjsPath1029" class="st0" d="M242.2,38.4l0.1-31l21.5,0l-0.1,31L242.2,38.4z"/>
<g class="st1">
	<path class="st2" d="M251.4,27.4c0.1-0.3,0.4-0.5,0.6-0.6c-0.3-0.2-0.5-0.4-0.5-0.6c-0.1-0.2-0.1-0.4-0.1-0.6
		c0-0.4,0.2-0.8,0.5-1.1s0.7-0.4,1.3-0.4s1,0.1,1.3,0.4s0.5,0.6,0.5,1.1c0,0.2,0,0.4-0.1,0.6s-0.3,0.4-0.5,0.6
		c0.3,0.2,0.5,0.4,0.6,0.6c0.1,0.3,0.2,0.5,0.2,0.9c0,0.5-0.2,0.9-0.5,1.2c-0.4,0.3-0.8,0.5-1.5,0.5c-0.6,0-1.1-0.2-1.4-0.5
		c-0.3-0.3-0.5-0.7-0.5-1.2C251.2,27.9,251.3,27.6,251.4,27.4z M252.6,28.8c0.1,0.2,0.3,0.2,0.6,0.2c0.3,0,0.5-0.1,0.6-0.2
		s0.2-0.4,0.2-0.6c0-0.3-0.1-0.5-0.2-0.7c-0.1-0.1-0.3-0.2-0.6-0.2s-0.4,0.1-0.6,0.2c-0.1,0.1-0.2,0.4-0.2,0.7
		C252.3,28.4,252.4,28.7,252.6,28.8z M252.6,26.2c0.1,0.1,0.3,0.2,0.5,0.2c0.2,0,0.4-0.1,0.5-0.2s0.2-0.3,0.2-0.5
		c0-0.2-0.1-0.4-0.2-0.5s-0.3-0.2-0.5-0.2c-0.2,0-0.4,0.1-0.5,0.2c-0.1,0.1-0.2,0.3-0.2,0.5C252.4,25.9,252.5,26.1,252.6,26.2z"/>
</g>
<path id="shape-504560-1000523008" class="st3" d="M242.2,38.4l0.1-31l21.5,0l-0.1,31L242.2,38.4z"/>
<path id="SvgjsPath1033" class="st0" d="M267.7,38.4l0.1-31l22.5,0l-0.1,31L267.7,38.4z"/>
<g class="st1">
	<path class="st2" d="M277.7,24.7c0.4-0.4,0.8-0.6,1.4-0.6c0.9,0,1.5,0.4,1.8,1.1c0.2,0.4,0.3,1,0.3,1.7c0,0.7-0.1,1.3-0.3,1.7
		c-0.3,0.9-0.9,1.3-1.8,1.3c-0.4,0-0.8-0.1-1.1-0.4c-0.3-0.3-0.5-0.6-0.6-1.1h1.1c0,0.2,0.1,0.3,0.2,0.4c0.1,0.1,0.3,0.2,0.5,0.2
		c0.4,0,0.6-0.2,0.8-0.6c0.1-0.2,0.1-0.6,0.2-1c-0.1,0.1-0.2,0.2-0.3,0.3c-0.2,0.1-0.5,0.2-0.8,0.2c-0.5,0-0.8-0.2-1.2-0.5
		c-0.3-0.3-0.5-0.8-0.5-1.3C277.2,25.6,277.4,25.1,277.7,24.7z M279.6,27c0.3-0.2,0.4-0.4,0.4-0.8c0-0.3-0.1-0.6-0.2-0.8
		c-0.1-0.2-0.4-0.3-0.6-0.3c-0.2,0-0.4,0.1-0.5,0.2c-0.2,0.2-0.3,0.4-0.3,0.8c0,0.3,0.1,0.6,0.2,0.8s0.3,0.3,0.6,0.3
		C279.3,27.1,279.5,27.1,279.6,27z"/>
</g>
<path id="shape-504560-1000523009" class="st3" d="M267.7,38.4l0.1-31l22.5,0l-0.1,31L267.7,38.4z"/>
<path id="SvgjsPath1037" class="st4" d="M62.7,58l0-16l22.5,0l0,16L62.7,58z"/>
<g class="st1">
	<path class="st2" d="M72.5,50v-0.8c0.4,0,0.6,0,0.7-0.1c0.2,0,0.4-0.1,0.5-0.3c0.1-0.1,0.2-0.2,0.2-0.4c0-0.1,0-0.2,0-0.2H75v5.7
		h-1.1V50H72.5z"/>
</g>
<path id="shape-504556-1000523010" class="st3" d="M62.7,58l0-16l22.5,0l0,16L62.7,58z"/>
<path id="SvgjsPath1041" class="st4" d="M89.2,58.1l0-16l21.5,0l0,16L89.2,58.1z"/>
<g class="st1">
	<path class="st2" d="M98.4,52.8c0.2-0.4,0.5-0.8,1.1-1.2c0.5-0.4,0.8-0.6,1-0.8c0.2-0.2,0.3-0.5,0.3-0.8c0-0.2-0.1-0.4-0.2-0.6
		s-0.3-0.2-0.6-0.2c-0.3,0-0.6,0.1-0.7,0.4c-0.1,0.1-0.1,0.4-0.1,0.7h-1.1c0-0.5,0.1-0.9,0.3-1.2c0.3-0.6,0.8-0.8,1.6-0.8
		c0.6,0,1.1,0.2,1.4,0.5s0.5,0.8,0.5,1.3c0,0.4-0.1,0.8-0.4,1.1c-0.2,0.2-0.4,0.5-0.8,0.7l-0.4,0.3c-0.3,0.2-0.5,0.3-0.6,0.4
		s-0.2,0.2-0.3,0.3h2.5v1h-3.9C98.2,53.5,98.3,53.2,98.4,52.8z"/>
</g>
<path id="shape-504556-1000523011" class="st3" d="M89.2,58.1l0-16l21.5,0l0,16L89.2,58.1z"/>
<path id="SvgjsPath1045" class="st4" d="M114.7,58.1l0-16l21.5,0l0,16L114.7,58.1z"/>
<g class="st1">
	<path class="st2" d="M124.7,52.2c0,0.2,0,0.4,0.1,0.6c0.1,0.3,0.4,0.4,0.7,0.4c0.2,0,0.4-0.1,0.6-0.2s0.2-0.4,0.2-0.6
		c0-0.4-0.2-0.6-0.5-0.7c-0.2-0.1-0.4-0.1-0.8-0.1v-0.8c0.4,0,0.6,0,0.8-0.1c0.2-0.1,0.4-0.3,0.4-0.7c0-0.2-0.1-0.4-0.2-0.5
		s-0.3-0.2-0.5-0.2c-0.3,0-0.5,0.1-0.6,0.2c-0.1,0.2-0.2,0.4-0.2,0.7h-1c0-0.3,0.1-0.5,0.1-0.8c0.1-0.2,0.2-0.4,0.4-0.6
		c0.1-0.1,0.3-0.2,0.5-0.3s0.4-0.1,0.7-0.1c0.5,0,1,0.1,1.3,0.4c0.3,0.3,0.5,0.7,0.5,1.1c0,0.3-0.1,0.6-0.3,0.8
		c-0.1,0.1-0.3,0.2-0.4,0.3c0.1,0,0.2,0.1,0.4,0.3c0.3,0.3,0.4,0.6,0.4,1.1c0,0.5-0.2,0.9-0.5,1.3c-0.3,0.4-0.8,0.5-1.5,0.5
		c-0.8,0-1.4-0.3-1.7-0.8c-0.2-0.3-0.3-0.6-0.3-1.1H124.7z"/>
</g>
<path id="shape-504556-1000523012" class="st3" d="M114.7,58.1l0-16l21.5,0l0,16L114.7,58.1z"/>
<path id="SvgjsPath1049" class="st4" d="M140.2,58.2l0-16l21.5,0l0,16L140.2,58.2z"/>
<g class="st1">
	<path class="st2" d="M153.1,52.7h-0.6v1.2h-1.1v-1.2h-2.2v-1l2.1-3.4h1.2v3.5h0.6V52.7z M151.4,51.8v-2.4l-1.4,2.4H151.4z"/>
</g>
<path id="shape-504556-1000523013" class="st3" d="M140.2,58.2l0-16l21.5,0l0,16L140.2,58.2z"/>
<path id="SvgjsPath1053" class="st4" d="M165.7,58.2l0-16l21.5,0l0,16L165.7,58.2z"/>
<g class="st1">
	<path class="st2" d="M175.7,52.4c0,0.2,0.1,0.4,0.3,0.6c0.1,0.1,0.3,0.2,0.5,0.2c0.3,0,0.5-0.1,0.6-0.3c0.1-0.2,0.2-0.4,0.2-0.7
		c0-0.3-0.1-0.5-0.2-0.7c-0.1-0.2-0.3-0.3-0.6-0.3c-0.1,0-0.3,0-0.4,0.1c-0.2,0.1-0.3,0.2-0.4,0.3l-1,0l0.4-3.1h3.1v0.9H176
		l-0.2,1.2c0.2-0.1,0.3-0.2,0.4-0.2c0.2-0.1,0.4-0.1,0.6-0.1c0.5,0,0.9,0.2,1.2,0.5s0.5,0.8,0.5,1.4c0,0.5-0.2,1-0.5,1.4
		c-0.3,0.4-0.8,0.6-1.5,0.6c-0.5,0-1-0.1-1.3-0.4c-0.3-0.3-0.5-0.7-0.6-1.2H175.7z"/>
</g>
<path id="shape-504556-1000523014" class="st3" d="M165.7,58.2l0-16l21.5,0l0,16L165.7,58.2z"/>
<path id="SvgjsPath1057" class="st4" d="M191.2,58.3l0-16l21.5,0l0,16L191.2,58.3z"/>
<g class="st1">
	<path class="st2" d="M202.9,49.7c0-0.1,0-0.2-0.1-0.3c-0.1-0.2-0.3-0.3-0.5-0.3c-0.4,0-0.6,0.2-0.8,0.6c-0.1,0.2-0.1,0.6-0.2,1
		c0.1-0.2,0.3-0.3,0.5-0.4c0.2-0.1,0.4-0.1,0.6-0.1c0.5,0,0.9,0.2,1.2,0.5c0.3,0.3,0.5,0.8,0.5,1.3c0,0.5-0.2,1-0.5,1.4
		c-0.3,0.4-0.8,0.6-1.5,0.6c-0.7,0-1.2-0.3-1.6-0.9c-0.3-0.5-0.4-1.1-0.4-1.8c0-0.4,0-0.8,0.1-1.1c0.1-0.5,0.2-0.9,0.4-1.2
		c0.2-0.3,0.4-0.5,0.6-0.7s0.6-0.2,0.9-0.2c0.5,0,0.9,0.1,1.3,0.4s0.5,0.6,0.5,1.1H202.9z M201.5,52.9c0.2,0.2,0.4,0.3,0.6,0.3
		c0.2,0,0.4-0.1,0.6-0.3c0.1-0.2,0.2-0.4,0.2-0.7c0-0.3-0.1-0.6-0.2-0.8c-0.2-0.2-0.4-0.3-0.6-0.3c-0.2,0-0.4,0.1-0.5,0.2
		c-0.2,0.2-0.3,0.4-0.3,0.8C201.3,52.4,201.4,52.7,201.5,52.9z"/>
</g>
<path id="shape-504556-1000523015" class="st3" d="M191.2,58.3l0-16l21.5,0l0,16L191.2,58.3z"/>
<path id="SvgjsPath1061" class="st4" d="M216.7,58.3l0-16l21.5,0l0,16L216.7,58.3z"/>
<g class="st1">
	<path class="st2" d="M229.6,49.2c-0.2,0.2-0.4,0.5-0.7,0.9c-0.3,0.4-0.5,0.9-0.7,1.3c-0.2,0.4-0.3,0.8-0.4,1.3
		c-0.1,0.5-0.2,0.9-0.2,1.2h-1.2c0-1,0.4-2.1,1-3.2c0.4-0.7,0.8-1.2,1-1.4h-2.8l0-1h4V49.2z"/>
</g>
<path id="shape-504556-1000523016" class="st3" d="M216.7,58.3l0-16l21.5,0l0,16L216.7,58.3z"/>
<path id="SvgjsPath1065" class="st4" d="M242.2,58.4l0-16l21.5,0l0,16L242.2,58.4z"/>
<g class="st1">
	<path class="st2" d="M251.4,51.5c0.1-0.3,0.4-0.5,0.6-0.6c-0.3-0.2-0.5-0.4-0.5-0.6c-0.1-0.2-0.1-0.4-0.1-0.6
		c0-0.4,0.2-0.8,0.5-1.1s0.7-0.4,1.3-0.4s1,0.1,1.3,0.4s0.5,0.6,0.5,1.1c0,0.2,0,0.4-0.1,0.6s-0.3,0.4-0.5,0.6
		c0.3,0.2,0.5,0.4,0.6,0.6c0.1,0.3,0.2,0.5,0.2,0.9c0,0.5-0.2,0.9-0.5,1.2c-0.4,0.3-0.8,0.5-1.5,0.5c-0.6,0-1.1-0.2-1.4-0.5
		c-0.3-0.3-0.5-0.7-0.5-1.2C251.1,52,251.2,51.8,251.4,51.5z M252.5,52.9c0.1,0.2,0.3,0.2,0.6,0.2c0.3,0,0.5-0.1,0.6-0.2
		s0.2-0.4,0.2-0.6c0-0.3-0.1-0.5-0.2-0.7c-0.1-0.1-0.3-0.2-0.6-0.2s-0.4,0.1-0.6,0.2c-0.1,0.1-0.2,0.4-0.2,0.7
		C252.3,52.6,252.4,52.8,252.5,52.9z M252.6,50.4c0.1,0.1,0.3,0.2,0.5,0.2c0.2,0,0.4-0.1,0.5-0.2s0.2-0.3,0.2-0.5
		c0-0.2-0.1-0.4-0.2-0.5s-0.3-0.2-0.5-0.2c-0.2,0-0.4,0.1-0.5,0.2c-0.1,0.1-0.2,0.3-0.2,0.5C252.4,50.1,252.5,50.2,252.6,50.4z"/>
</g>
<path id="shape-504556-1000523017" class="st3" d="M242.2,58.4l0-16l21.5,0l0,16L242.2,58.4z"/>
<path id="SvgjsPath1069" class="st4" d="M267.7,58.4l0-16l22.5,0l0,16L267.7,58.4z"/>
<g class="st1">
	<path class="st2" d="M277.7,48.8c0.4-0.4,0.8-0.6,1.4-0.6c0.9,0,1.5,0.4,1.8,1.1c0.2,0.4,0.3,1,0.3,1.7c0,0.7-0.1,1.3-0.3,1.7
		c-0.3,0.9-0.9,1.3-1.8,1.3c-0.4,0-0.8-0.1-1.1-0.4c-0.3-0.3-0.5-0.6-0.6-1.1h1.1c0,0.2,0.1,0.3,0.2,0.4c0.1,0.1,0.3,0.2,0.5,0.2
		c0.4,0,0.6-0.2,0.8-0.6c0.1-0.2,0.1-0.6,0.2-1c-0.1,0.1-0.2,0.2-0.3,0.3c-0.2,0.1-0.5,0.2-0.8,0.2c-0.5,0-0.8-0.2-1.2-0.5
		c-0.3-0.3-0.5-0.8-0.5-1.3C277.2,49.7,277.3,49.2,277.7,48.8z M279.6,51c0.3-0.2,0.4-0.4,0.4-0.8c0-0.3-0.1-0.6-0.2-0.8
		c-0.1-0.2-0.4-0.3-0.6-0.3c-0.2,0-0.4,0.1-0.5,0.2c-0.2,0.2-0.3,0.4-0.3,0.8c0,0.3,0.1,0.6,0.2,0.8s0.3,0.3,0.6,0.3
		C279.3,51.2,279.4,51.1,279.6,51z"/>
</g>
<path id="shape-504556-1000523018" class="st3" d="M267.7,58.4l0-16l22.5,0l0,16L267.7,58.4z"/>
<path id="SvgjsPath1073" class="st4" d="M294.1,82.1l0-15.6l24.5,0l0,15.6L294.1,82.1z"/>
<g class="st1">
	<path class="st2" d="M304.9,75v-0.8c0.4,0,0.6,0,0.7-0.1c0.2,0,0.4-0.1,0.5-0.3c0.1-0.1,0.2-0.2,0.2-0.4c0-0.1,0-0.2,0-0.2h0.9v5.7
		h-1.1V75H304.9z"/>
</g>
<path id="shape-504559-1000523019" class="st3" d="M294.1,82.1l0-15.6l24.5,0l0,15.6L294.1,82.1z"/>
<path id="SvgjsPath1077" class="st4" d="M294.1,100.7l0-14.6l24.5,0l0,14.6L294.1,100.7z"/>
<g class="st1">
	<path class="st2" d="M304.9,96.8c0.2-0.4,0.5-0.8,1.1-1.2c0.5-0.4,0.8-0.6,1-0.8c0.2-0.2,0.3-0.5,0.3-0.8c0-0.2-0.1-0.4-0.2-0.6
		s-0.3-0.2-0.6-0.2c-0.3,0-0.6,0.1-0.7,0.4c-0.1,0.1-0.1,0.4-0.1,0.7h-1.1c0-0.5,0.1-0.9,0.3-1.2c0.3-0.6,0.8-0.8,1.6-0.8
		c0.6,0,1.1,0.2,1.4,0.5s0.5,0.8,0.5,1.3c0,0.4-0.1,0.8-0.4,1.1c-0.2,0.2-0.4,0.5-0.8,0.7l-0.4,0.3c-0.3,0.2-0.5,0.3-0.6,0.4
		c-0.1,0.1-0.2,0.2-0.3,0.3h2.5v1h-3.9C304.6,97.5,304.7,97.2,304.9,96.8z"/>
</g>
<path id="shape-504559-1000523020" class="st3" d="M294.1,100.7l0-14.6l24.5,0l0,14.6L294.1,100.7z"/>
<path id="SvgjsPath1081" class="st4" d="M294,119.4l0-14.6l24.5,0l0,14.6L294,119.4z"/>
<g class="st1">
	<path class="st2" d="M305.6,115.2c0,0.2,0,0.4,0.1,0.6c0.1,0.3,0.4,0.4,0.7,0.4c0.2,0,0.4-0.1,0.6-0.2s0.2-0.4,0.2-0.6
		c0-0.4-0.2-0.6-0.5-0.7c-0.2-0.1-0.4-0.1-0.8-0.1v-0.8c0.4,0,0.6,0,0.8-0.1c0.2-0.1,0.4-0.3,0.4-0.7c0-0.2-0.1-0.4-0.2-0.5
		s-0.3-0.2-0.5-0.2c-0.3,0-0.5,0.1-0.6,0.2c-0.1,0.2-0.2,0.4-0.2,0.7h-1c0-0.3,0.1-0.5,0.1-0.8c0.1-0.2,0.2-0.4,0.4-0.6
		c0.1-0.1,0.3-0.2,0.5-0.3s0.4-0.1,0.7-0.1c0.5,0,1,0.1,1.3,0.4c0.3,0.3,0.5,0.7,0.5,1.1c0,0.3-0.1,0.6-0.3,0.8
		c-0.1,0.1-0.3,0.2-0.4,0.3c0.1,0,0.2,0.1,0.4,0.3c0.3,0.3,0.4,0.6,0.4,1.1c0,0.5-0.2,0.9-0.5,1.3c-0.3,0.4-0.8,0.5-1.5,0.5
		c-0.8,0-1.4-0.3-1.7-0.8c-0.2-0.3-0.3-0.6-0.3-1.1H305.6z"/>
</g>
<path id="shape-504559-1000523021" class="st3" d="M294,119.4l0-14.6l24.5,0l0,14.6L294,119.4z"/>
<path id="SvgjsPath1085" class="st4" d="M294,138l0-14.6l24.5,0l0,14.6L294,138z"/>
<g class="st1">
	<path class="st2" d="M308.5,133.7h-0.6v1.2h-1.1v-1.2h-2.2v-1l2.1-3.4h1.2v3.5h0.6V133.7z M306.7,132.8v-2.4l-1.4,2.4H306.7z"/>
</g>
<path id="shape-504559-1000523022" class="st3" d="M294,138l0-14.6l24.5,0l0,14.6L294,138z"/>
<path id="SvgjsPath1089" class="st4" d="M294,156.7l0-14.6l24.5,0l0,14.6L294,156.7z"/>
<g class="st1">
	<path class="st2" d="M305.6,152.4c0,0.2,0.1,0.4,0.3,0.6s0.3,0.2,0.5,0.2c0.3,0,0.5-0.1,0.6-0.3c0.1-0.2,0.2-0.4,0.2-0.7
		c0-0.3-0.1-0.5-0.2-0.7c-0.1-0.2-0.3-0.3-0.6-0.3c-0.1,0-0.3,0-0.4,0.1c-0.2,0.1-0.3,0.2-0.4,0.3l-1,0l0.4-3.1h3.1v0.9h-2.3
		l-0.2,1.2c0.2-0.1,0.3-0.2,0.4-0.2c0.2-0.1,0.4-0.1,0.6-0.1c0.5,0,0.9,0.2,1.2,0.5c0.3,0.3,0.5,0.8,0.5,1.4c0,0.5-0.2,1-0.5,1.4
		c-0.3,0.4-0.8,0.6-1.5,0.6c-0.5,0-1-0.1-1.3-0.4s-0.5-0.7-0.6-1.2H305.6z"/>
</g>
<path id="shape-504559-1000523023" class="st3" d="M294,156.7l0-14.6l24.5,0l0,14.6L294,156.7z"/>
<path id="SvgjsPath1093" class="st4" d="M293.9,175.3l0-14.6l24.5,0l0,14.6L293.9,175.3z"/>
<g class="st1">
	<path class="st2" d="M307.1,168.7c0-0.1,0-0.2-0.1-0.3c-0.1-0.2-0.3-0.3-0.5-0.3c-0.4,0-0.6,0.2-0.8,0.6c-0.1,0.2-0.1,0.6-0.2,1
		c0.1-0.2,0.3-0.3,0.5-0.4c0.2-0.1,0.4-0.1,0.6-0.1c0.5,0,0.9,0.2,1.2,0.5c0.3,0.3,0.5,0.8,0.5,1.3c0,0.5-0.2,1-0.5,1.4
		c-0.3,0.4-0.8,0.6-1.5,0.6c-0.7,0-1.2-0.3-1.6-0.9c-0.3-0.5-0.4-1.1-0.4-1.8c0-0.4,0-0.8,0.1-1.1c0.1-0.5,0.2-0.9,0.4-1.2
		c0.2-0.3,0.4-0.5,0.6-0.7s0.6-0.2,0.9-0.2c0.5,0,0.9,0.1,1.3,0.4s0.5,0.6,0.5,1.1H307.1z M305.8,171.9c0.2,0.2,0.4,0.3,0.6,0.3
		c0.2,0,0.4-0.1,0.6-0.3c0.1-0.2,0.2-0.4,0.2-0.7c0-0.3-0.1-0.6-0.2-0.8c-0.2-0.2-0.4-0.3-0.6-0.3c-0.2,0-0.4,0.1-0.5,0.2
		c-0.2,0.2-0.3,0.4-0.3,0.8C305.6,171.4,305.6,171.7,305.8,171.9z"/>
</g>
<path id="shape-504559-1000523024" class="st3" d="M293.9,175.3l0-14.6l24.5,0l0,14.6L293.9,175.3z"/>
<path id="SvgjsPath1097" class="st4" d="M293.9,195l0-15.6l24.5,0l0,15.6L293.9,195z"/>
<g class="st1">
	<path class="st2" d="M308.4,187.2c-0.2,0.2-0.4,0.5-0.7,0.9c-0.3,0.4-0.5,0.9-0.7,1.3c-0.2,0.4-0.3,0.8-0.4,1.3s-0.2,0.9-0.2,1.2
		h-1.2c0-1,0.4-2.1,1-3.2c0.4-0.7,0.8-1.2,1-1.4h-2.8l0-1h4V187.2z"/>
</g>
<path id="shape-504559-1000523025" class="st3" d="M293.9,195l0-15.6l24.5,0l0,15.6L293.9,195z"/>
<path id="SvgjsPath1101" class="st4" d="M322.6,82.2l0-15.6l34.5,0.1l0,15.6L322.6,82.2z"/>
<g class="st1">
	<path class="st2" d="M338.4,75v-0.8c0.4,0,0.6,0,0.7-0.1c0.2,0,0.4-0.1,0.5-0.3c0.1-0.1,0.2-0.2,0.2-0.4c0-0.1,0-0.2,0-0.2h0.9v5.7
		h-1.1V75H338.4z"/>
</g>
<path id="shape-504555-1000523026" class="st3" d="M322.6,82.2l0-15.6l34.5,0.1l0,15.6L322.6,82.2z"/>
<path id="SvgjsPath1105" class="st4" d="M322.6,100.8l0-14.6l34.5,0.1l0,14.6L322.6,100.8z"/>
<g class="st1">
	<path class="st2" d="M338.4,96.8c0.2-0.4,0.5-0.8,1.1-1.2c0.5-0.4,0.8-0.6,1-0.8c0.2-0.2,0.3-0.5,0.3-0.8c0-0.2-0.1-0.4-0.2-0.6
		s-0.3-0.2-0.6-0.2c-0.3,0-0.6,0.1-0.7,0.4c-0.1,0.1-0.1,0.4-0.1,0.7h-1.1c0-0.5,0.1-0.9,0.3-1.2c0.3-0.6,0.8-0.8,1.6-0.8
		c0.6,0,1.1,0.2,1.4,0.5s0.5,0.8,0.5,1.3c0,0.4-0.1,0.8-0.4,1.1c-0.2,0.2-0.4,0.5-0.8,0.7l-0.4,0.3c-0.3,0.2-0.5,0.3-0.6,0.4
		c-0.1,0.1-0.2,0.2-0.3,0.3h2.5v1h-3.9C338.1,97.5,338.2,97.2,338.4,96.8z"/>
</g>
<path id="shape-504555-1000523027" class="st3" d="M322.6,100.8l0-14.6l34.5,0.1l0,14.6L322.6,100.8z"/>
<path id="SvgjsPath1109" class="st4" d="M322.5,119.4l0-14.6l34.5,0.1l0,14.6L322.5,119.4z"/>
<g class="st1">
	<path class="st2" d="M339.1,115.2c0,0.2,0,0.4,0.1,0.6c0.1,0.3,0.4,0.4,0.7,0.4c0.2,0,0.4-0.1,0.6-0.2s0.2-0.4,0.2-0.6
		c0-0.4-0.2-0.6-0.5-0.7c-0.2-0.1-0.4-0.1-0.8-0.1v-0.8c0.4,0,0.6,0,0.8-0.1c0.2-0.1,0.4-0.3,0.4-0.7c0-0.2-0.1-0.4-0.2-0.5
		s-0.3-0.2-0.5-0.2c-0.3,0-0.5,0.1-0.6,0.2c-0.1,0.2-0.2,0.4-0.2,0.7h-1c0-0.3,0.1-0.5,0.1-0.8c0.1-0.2,0.2-0.4,0.4-0.6
		c0.1-0.1,0.3-0.2,0.5-0.3s0.4-0.1,0.7-0.1c0.5,0,1,0.1,1.3,0.4c0.3,0.3,0.5,0.7,0.5,1.1c0,0.3-0.1,0.6-0.3,0.8
		c-0.1,0.1-0.3,0.2-0.4,0.3c0.1,0,0.2,0.1,0.4,0.3c0.3,0.3,0.4,0.6,0.4,1.1c0,0.5-0.2,0.9-0.5,1.3c-0.3,0.4-0.8,0.5-1.5,0.5
		c-0.8,0-1.4-0.3-1.7-0.8c-0.2-0.3-0.3-0.6-0.3-1.1H339.1z"/>
</g>
<path id="shape-504555-1000523028" class="st3" d="M322.5,119.4l0-14.6l34.5,0.1l0,14.6L322.5,119.4z"/>
<path id="SvgjsPath1113" class="st4" d="M322.5,138.1l0-14.6l34.5,0.1l0,14.6L322.5,138.1z"/>
<g class="st1">
	<path class="st2" d="M342,133.7h-0.6v1.2h-1.1v-1.2H338v-1l2.1-3.4h1.2v3.5h0.6V133.7z M340.2,132.8v-2.4l-1.4,2.4H340.2z"/>
</g>
<path id="shape-504555-1000523029" class="st3" d="M322.5,138.1l0-14.6l34.5,0.1l0,14.6L322.5,138.1z"/>
<path id="SvgjsPath1117" class="st4" d="M322.5,156.7l0-14.6l34.5,0.1l0,14.6L322.5,156.7z"/>
<g class="st1">
	<path class="st2" d="M339.1,152.4c0,0.2,0.1,0.4,0.3,0.6s0.3,0.2,0.5,0.2c0.3,0,0.5-0.1,0.6-0.3c0.1-0.2,0.2-0.4,0.2-0.7
		c0-0.3-0.1-0.5-0.2-0.7c-0.1-0.2-0.3-0.3-0.6-0.3c-0.1,0-0.3,0-0.4,0.1c-0.2,0.1-0.3,0.2-0.4,0.3l-1,0l0.4-3.1h3.1v0.9h-2.3
		l-0.2,1.2c0.2-0.1,0.3-0.2,0.4-0.2c0.2-0.1,0.4-0.1,0.6-0.1c0.5,0,0.9,0.2,1.2,0.5c0.3,0.3,0.5,0.8,0.5,1.4c0,0.5-0.2,1-0.5,1.4
		c-0.3,0.4-0.8,0.6-1.5,0.6c-0.5,0-1-0.1-1.3-0.4s-0.5-0.7-0.6-1.2H339.1z"/>
</g>
<path id="shape-504555-1000523030" class="st3" d="M322.5,156.7l0-14.6l34.5,0.1l0,14.6L322.5,156.7z"/>
<path id="SvgjsPath1121" class="st4" d="M322.4,175.4l0-14.6l34.5,0.1l0,14.6L322.4,175.4z"/>
<g class="st1">
	<path class="st2" d="M340.6,168.7c0-0.1,0-0.2-0.1-0.3c-0.1-0.2-0.3-0.3-0.5-0.3c-0.4,0-0.6,0.2-0.8,0.6c-0.1,0.2-0.1,0.6-0.2,1
		c0.1-0.2,0.3-0.3,0.5-0.4c0.2-0.1,0.4-0.1,0.6-0.1c0.5,0,0.9,0.2,1.2,0.5c0.3,0.3,0.5,0.8,0.5,1.3c0,0.5-0.2,1-0.5,1.4
		c-0.3,0.4-0.8,0.6-1.5,0.6c-0.7,0-1.2-0.3-1.6-0.9c-0.3-0.5-0.4-1.1-0.4-1.8c0-0.4,0-0.8,0.1-1.1c0.1-0.5,0.2-0.9,0.4-1.2
		c0.2-0.3,0.4-0.5,0.6-0.7s0.6-0.2,0.9-0.2c0.5,0,0.9,0.1,1.3,0.4s0.5,0.6,0.5,1.1H340.6z M339.3,171.9c0.2,0.2,0.4,0.3,0.6,0.3
		c0.2,0,0.4-0.1,0.6-0.3c0.1-0.2,0.2-0.4,0.2-0.7c0-0.3-0.1-0.6-0.2-0.8c-0.2-0.2-0.4-0.3-0.6-0.3c-0.2,0-0.4,0.1-0.5,0.2
		c-0.2,0.2-0.3,0.4-0.3,0.8C339.1,171.4,339.2,171.7,339.3,171.9z"/>
</g>
<path id="shape-504555-1000523031" class="st3" d="M322.4,175.4l0-14.6l34.5,0.1l0,14.6L322.4,175.4z"/>
<path id="SvgjsPath1125" class="st4" d="M322.4,195l0-15.6l34.5,0.1l0,15.6L322.4,195z"/>
<g class="st1">
	<path class="st2" d="M341.9,187.2c-0.2,0.2-0.4,0.5-0.7,0.9c-0.3,0.4-0.5,0.9-0.7,1.3c-0.2,0.4-0.3,0.8-0.4,1.3s-0.2,0.9-0.2,1.2
		h-1.2c0-1,0.4-2.1,1-3.2c0.4-0.7,0.8-1.2,1-1.4h-2.8l0-1h4V187.2z"/>
</g>
<path id="shape-504555-1000523032" class="st3" d="M322.4,195l0-15.6l34.5,0.1l0,15.6L322.4,195z"/>
<path id="SvgjsPath1129" class="st4" d="M62.3,244l0.1-41l27.2,0.1l-0.1,41L62.3,244z"/>
<g class="st1">
	<path class="st2" d="M76.9,226.2c0-0.1,0-0.2-0.1-0.3c-0.1-0.2-0.3-0.3-0.5-0.3c-0.4,0-0.6,0.2-0.8,0.6c-0.1,0.2-0.1,0.6-0.2,1
		c0.1-0.2,0.3-0.3,0.5-0.4s0.4-0.1,0.6-0.1c0.5,0,0.9,0.2,1.2,0.5s0.5,0.8,0.5,1.3c0,0.5-0.2,1-0.5,1.4s-0.8,0.6-1.5,0.6
		c-0.7,0-1.2-0.3-1.6-0.9c-0.3-0.5-0.4-1.1-0.4-1.8c0-0.4,0-0.8,0.1-1.1c0.1-0.5,0.2-0.9,0.4-1.2c0.2-0.3,0.4-0.5,0.6-0.7
		s0.6-0.2,0.9-0.2c0.5,0,0.9,0.1,1.3,0.4s0.5,0.6,0.5,1.1H76.9z M75.5,229.4c0.2,0.2,0.4,0.3,0.6,0.3c0.2,0,0.4-0.1,0.6-0.3
		s0.2-0.4,0.2-0.7c0-0.3-0.1-0.6-0.2-0.8s-0.4-0.3-0.6-0.3c-0.2,0-0.4,0.1-0.5,0.2c-0.2,0.2-0.3,0.4-0.3,0.8
		C75.3,229,75.4,229.2,75.5,229.4z"/>
</g>
<path id="shape-504556-1000523033" class="st3" d="M62.3,244l0.1-41l27.2,0.1l-0.1,41L62.3,244z"/>
<path id="SvgjsPath1133" class="st4" d="M93.5,244.1l0.1-41l26.2,0l-0.1,41L93.5,244.1z"/>
<g class="st1">
	<path class="st2" d="M105.9,229c0,0.2,0.1,0.4,0.3,0.6c0.1,0.1,0.3,0.2,0.5,0.2c0.3,0,0.5-0.1,0.6-0.3s0.2-0.4,0.2-0.7
		c0-0.3-0.1-0.5-0.2-0.7s-0.3-0.3-0.6-0.3c-0.1,0-0.3,0-0.4,0.1c-0.2,0.1-0.3,0.2-0.4,0.3l-1,0l0.4-3.1h3.1v0.9h-2.3l-0.2,1.2
		c0.2-0.1,0.3-0.2,0.4-0.2c0.2-0.1,0.4-0.1,0.6-0.1c0.5,0,0.9,0.2,1.2,0.5c0.3,0.3,0.5,0.8,0.5,1.4c0,0.5-0.2,1-0.5,1.4
		s-0.8,0.6-1.5,0.6c-0.5,0-1-0.1-1.3-0.4c-0.3-0.3-0.5-0.7-0.6-1.2H105.9z"/>
</g>
<path id="shape-504556-1000523034" class="st3" d="M93.5,244.1l0.1-41l26.2,0l-0.1,41L93.5,244.1z"/>
<path id="SvgjsPath1137" class="st4" d="M123.6,244.1l0.1-41l26.2,0.1l-0.1,41L123.6,244.1z"/>
<g class="st1">
	<path class="st2" d="M138.9,229.4h-0.6v1.2h-1.1v-1.2H135v-1l2.1-3.4h1.2v3.5h0.6V229.4z M137.2,228.5v-2.4l-1.4,2.4H137.2z"/>
</g>
<path id="shape-504556-1000523035" class="st3" d="M123.6,244.1l0.1-41l26.2,0.1l-0.1,41L123.6,244.1z"/>
<path id="SvgjsPath1141" class="st4" d="M194.3,244.3l0-20.7l36.5,0.1l0,20.7L194.3,244.3z"/>
<g class="st1">
	<path class="st2" d="M211.9,236.2c0,0.2,0,0.4,0.1,0.6c0.1,0.3,0.4,0.4,0.7,0.4c0.2,0,0.4-0.1,0.6-0.2c0.2-0.1,0.2-0.4,0.2-0.6
		c0-0.4-0.2-0.6-0.5-0.7c-0.2-0.1-0.4-0.1-0.8-0.1v-0.8c0.4,0,0.6,0,0.8-0.1c0.2-0.1,0.4-0.3,0.4-0.7c0-0.2-0.1-0.4-0.2-0.5
		s-0.3-0.2-0.5-0.2c-0.3,0-0.5,0.1-0.6,0.2c-0.1,0.2-0.2,0.4-0.2,0.7h-1c0-0.3,0.1-0.5,0.1-0.8c0.1-0.2,0.2-0.4,0.4-0.6
		c0.1-0.1,0.3-0.2,0.5-0.3c0.2-0.1,0.4-0.1,0.7-0.1c0.5,0,1,0.1,1.3,0.4c0.3,0.3,0.5,0.7,0.5,1.1c0,0.3-0.1,0.6-0.3,0.8
		c-0.1,0.1-0.3,0.2-0.4,0.3c0.1,0,0.2,0.1,0.4,0.3c0.3,0.3,0.4,0.6,0.4,1.1c0,0.5-0.2,0.9-0.5,1.3c-0.3,0.4-0.8,0.5-1.5,0.5
		c-0.8,0-1.4-0.3-1.7-0.8c-0.2-0.3-0.3-0.6-0.3-1.1H211.9z"/>
</g>
<path id="shape-504556-1000523036" class="st3" d="M194.3,244.3l0-20.7l36.5,0.1l0,20.7L194.3,244.3z"/>
<path id="SvgjsPath1145" class="st4" d="M234.8,244.3l0.1-41l25,0l-0.1,41L234.8,244.3z"/>
<g class="st1">
	<path class="st2" d="M245.9,229.7c0.2-0.4,0.5-0.8,1.1-1.2c0.5-0.4,0.8-0.6,1-0.8c0.2-0.2,0.3-0.5,0.3-0.8c0-0.2-0.1-0.4-0.2-0.6
		s-0.3-0.2-0.6-0.2c-0.3,0-0.6,0.1-0.7,0.4c-0.1,0.1-0.1,0.4-0.1,0.7h-1.1c0-0.5,0.1-0.9,0.3-1.2c0.3-0.6,0.8-0.8,1.6-0.8
		c0.6,0,1.1,0.2,1.4,0.5s0.5,0.8,0.5,1.3c0,0.4-0.1,0.8-0.4,1.1c-0.2,0.2-0.4,0.5-0.8,0.7l-0.4,0.3c-0.3,0.2-0.5,0.3-0.6,0.4
		c-0.1,0.1-0.2,0.2-0.3,0.3h2.5v1h-3.9C245.6,230.4,245.7,230,245.9,229.7z"/>
</g>
<path id="shape-504556-1000523037" class="st3" d="M234.8,244.3l0.1-41l25,0l-0.1,41L234.8,244.3z"/>
<path id="SvgjsPath1149" class="st4" d="M263.8,244.4l0.1-41l26,0l-0.1,41L263.8,244.4z"/>
<g class="st1">
	<path class="st2" d="M275.4,227v-0.8c0.4,0,0.6,0,0.7-0.1c0.2,0,0.4-0.1,0.5-0.3c0.1-0.1,0.2-0.2,0.2-0.4c0-0.1,0-0.2,0-0.2h0.9
		v5.7h-1.1V227H275.4z"/>
</g>
<path id="shape-504556-1000523038" class="st3" d="M263.8,244.4l0.1-41l26,0l-0.1,41L263.8,244.4z"/>
<path id="SvgjsPath1153" class="st4" d="M153.9,219.5l0-16.3l36.5,0.1l0,16.3L153.9,219.5z"/>
<g class="st1">
	<path class="st2" d="M157.5,210c0.3,0.1,0.5,0.3,0.7,0.5c0.2,0.2,0.3,0.4,0.3,0.7s0.1,0.5,0.1,0.7c0,0.6-0.1,1.1-0.3,1.5
		c-0.3,0.5-0.8,0.8-1.4,0.8H155v-4.3h1.9C157.1,209.9,157.3,209.9,157.5,210z M155.8,210.6v2.8h0.8c0.4,0,0.7-0.2,0.9-0.6
		c0.1-0.2,0.1-0.5,0.1-0.8c0-0.4-0.1-0.8-0.2-1c-0.1-0.2-0.4-0.4-0.8-0.4H155.8z"/>
	<path class="st2" d="M160.1,214.2h-0.9v-4.3h0.9V214.2z"/>
	<path class="st2" d="M163.7,210c0.2,0.1,0.3,0.2,0.4,0.3c0.1,0.1,0.2,0.2,0.2,0.4s0.1,0.3,0.1,0.5c0,0.2-0.1,0.4-0.2,0.6
		s-0.3,0.3-0.5,0.4c0.2,0.1,0.3,0.2,0.4,0.3s0.1,0.4,0.1,0.7v0.3c0,0.2,0,0.3,0,0.4c0,0.1,0.1,0.2,0.2,0.2v0.1h-1
		c0-0.1,0-0.2-0.1-0.2c0-0.1,0-0.2,0-0.4l0-0.4c0-0.3-0.1-0.5-0.1-0.6c-0.1-0.1-0.3-0.1-0.5-0.1h-0.9v1.7H161v-4.3h2.1
		C163.3,209.9,163.6,209.9,163.7,210z M161.9,210.6v1.2h1c0.2,0,0.3,0,0.4-0.1c0.2-0.1,0.3-0.2,0.3-0.5c0-0.3-0.1-0.4-0.2-0.5
		c-0.1-0.1-0.2-0.1-0.4-0.1H161.9z"/>
	<path class="st2" d="M168.5,210.6h-2.3v0.9h2.1v0.8h-2.1v1.1h2.4v0.8h-3.3v-4.3h3.2V210.6z"/>
	<path class="st2" d="M169.7,210.3c0.3-0.4,0.8-0.5,1.3-0.5c0.7,0,1.2,0.2,1.6,0.7c0.2,0.3,0.3,0.5,0.3,0.8H172
		c-0.1-0.2-0.1-0.4-0.2-0.5c-0.2-0.2-0.4-0.3-0.7-0.3c-0.3,0-0.6,0.1-0.8,0.4s-0.3,0.6-0.3,1.1s0.1,0.8,0.3,1.1
		c0.2,0.2,0.4,0.4,0.7,0.4c0.3,0,0.5-0.1,0.7-0.3c0.1-0.1,0.2-0.3,0.2-0.5h0.9c-0.1,0.5-0.3,0.9-0.6,1.1s-0.7,0.4-1.2,0.4
		c-0.6,0-1.1-0.2-1.4-0.6c-0.4-0.4-0.5-0.9-0.5-1.6C169.1,211.3,169.3,210.7,169.7,210.3z"/>
	<path class="st2" d="M176.8,209.9v0.8h-1.3v3.6h-0.9v-3.6h-1.3v-0.8H176.8z"/>
	<path class="st2" d="M180.5,213.8c-0.3,0.3-0.8,0.5-1.4,0.5s-1.1-0.2-1.4-0.5c-0.4-0.4-0.7-1-0.7-1.8c0-0.8,0.2-1.4,0.7-1.8
		c0.3-0.3,0.8-0.5,1.4-0.5s1.1,0.2,1.4,0.5c0.4,0.4,0.7,1,0.7,1.8C181.2,212.8,180.9,213.4,180.5,213.8z M179.9,213.2
		c0.2-0.3,0.3-0.6,0.3-1.1c0-0.5-0.1-0.9-0.3-1.1c-0.2-0.3-0.5-0.4-0.9-0.4s-0.6,0.1-0.9,0.4s-0.3,0.6-0.3,1.1s0.1,0.9,0.3,1.1
		s0.5,0.4,0.9,0.4S179.7,213.4,179.9,213.2z"/>
	<path class="st2" d="M184.6,210c0.2,0.1,0.3,0.2,0.4,0.3c0.1,0.1,0.2,0.2,0.2,0.4s0.1,0.3,0.1,0.5c0,0.2-0.1,0.4-0.2,0.6
		s-0.3,0.3-0.5,0.4c0.2,0.1,0.3,0.2,0.4,0.3s0.1,0.4,0.1,0.7v0.3c0,0.2,0,0.3,0,0.4c0,0.1,0.1,0.2,0.2,0.2v0.1h-1
		c0-0.1,0-0.2-0.1-0.2c0-0.1,0-0.2,0-0.4l0-0.4c0-0.3-0.1-0.5-0.1-0.6c-0.1-0.1-0.3-0.1-0.5-0.1h-0.9v1.7h-0.9v-4.3h2.1
		C184.2,209.9,184.5,209.9,184.6,210z M182.8,210.6v1.2h1c0.2,0,0.3,0,0.4-0.1c0.2-0.1,0.3-0.2,0.3-0.5c0-0.3-0.1-0.4-0.2-0.5
		c-0.1-0.1-0.2-0.1-0.4-0.1H182.8z"/>
	<path class="st2" d="M186.8,212.9c0,0.2,0.1,0.3,0.2,0.4c0.1,0.2,0.4,0.3,0.8,0.3c0.2,0,0.4,0,0.5-0.1c0.3-0.1,0.4-0.3,0.4-0.5
		c0-0.1-0.1-0.3-0.2-0.3c-0.1-0.1-0.3-0.1-0.6-0.2l-0.5-0.1c-0.5-0.1-0.8-0.2-0.9-0.3c-0.3-0.2-0.4-0.5-0.4-0.9c0-0.4,0.1-0.7,0.4-1
		c0.3-0.3,0.7-0.4,1.3-0.4c0.5,0,0.9,0.1,1.2,0.4s0.5,0.6,0.5,1h-0.9c0-0.3-0.1-0.4-0.3-0.6c-0.1-0.1-0.3-0.1-0.5-0.1
		c-0.2,0-0.4,0-0.6,0.1s-0.2,0.2-0.2,0.4c0,0.2,0.1,0.3,0.2,0.3c0.1,0.1,0.3,0.1,0.6,0.2l0.8,0.2c0.3,0.1,0.6,0.2,0.7,0.3
		c0.3,0.2,0.4,0.5,0.4,0.9c0,0.4-0.2,0.7-0.5,1c-0.3,0.3-0.7,0.4-1.3,0.4c-0.6,0-1-0.1-1.3-0.4c-0.3-0.3-0.5-0.6-0.5-1.1H186.8z"/>
</g>
<path id="shape-504557-1000523039" class="st3" d="M153.9,219.5l0-16.3l36.5,0.1l0,16.3L153.9,219.5z"/>
<path id="SvgjsPath1157" class="st4" d="M194.4,219.6l0-16.3l36.5,0.1l0,16.3L194.4,219.6z"/>
<g class="st1">
	<path class="st2" d="M194.6,212v-0.8c0.4,0,0.6,0,0.7-0.1c0.2,0,0.4-0.1,0.5-0.3c0.1-0.1,0.2-0.2,0.2-0.4c0-0.1,0-0.2,0-0.2h0.9
		v5.7h-1.1V212H194.6z"/>
	<path class="st2" d="M202.2,211c0.3,0.5,0.4,1.2,0.4,2.2s-0.1,1.7-0.4,2.2c-0.3,0.5-0.8,0.8-1.5,0.8s-1.2-0.3-1.5-0.8
		c-0.3-0.5-0.4-1.2-0.4-2.2s0.1-1.7,0.4-2.2s0.8-0.8,1.5-0.8S201.9,210.5,202.2,211z M200,214.6c0.1,0.3,0.3,0.5,0.7,0.5
		s0.5-0.2,0.7-0.5s0.2-0.8,0.2-1.5c0-0.7-0.1-1.2-0.2-1.5s-0.3-0.5-0.7-0.5s-0.5,0.2-0.7,0.5s-0.2,0.8-0.2,1.5
		C199.8,213.8,199.9,214.3,200,214.6z"/>
	<path class="st2" d="M206.6,211c0.3,0.5,0.4,1.2,0.4,2.2s-0.1,1.7-0.4,2.2c-0.3,0.5-0.8,0.8-1.5,0.8s-1.2-0.3-1.5-0.8
		c-0.3-0.5-0.4-1.2-0.4-2.2s0.1-1.7,0.4-2.2s0.8-0.8,1.5-0.8S206.3,210.5,206.6,211z M204.4,214.6c0.1,0.3,0.3,0.5,0.7,0.5
		s0.5-0.2,0.7-0.5s0.2-0.8,0.2-1.5c0-0.7-0.1-1.2-0.2-1.5s-0.3-0.5-0.7-0.5s-0.5,0.2-0.7,0.5s-0.2,0.8-0.2,1.5
		C204.3,213.8,204.3,214.3,204.4,214.6z"/>
	<path class="st2" d="M210.7,210.8c0.5-0.5,1.1-0.7,1.8-0.7c1,0,1.7,0.3,2.1,1c0.2,0.4,0.4,0.7,0.4,1.1h-1.2
		c-0.1-0.3-0.2-0.5-0.3-0.6c-0.2-0.2-0.5-0.4-1-0.4c-0.4,0-0.8,0.2-1,0.5s-0.4,0.9-0.4,1.5s0.1,1.1,0.4,1.5s0.6,0.5,1,0.5
		c0.4,0,0.7-0.1,0.9-0.4c0.1-0.1,0.2-0.4,0.3-0.7h1.2c-0.1,0.6-0.4,1.1-0.8,1.5c-0.4,0.4-1,0.6-1.6,0.6c-0.8,0-1.5-0.3-1.9-0.8
		c-0.5-0.5-0.7-1.3-0.7-2.2C209.9,212.1,210.2,211.3,210.7,210.8z"/>
	<path class="st2" d="M216,210.2h1.2v4.7h2.9v1H216V210.2z"/>
	<path class="st2" d="M220.8,210.2h1.2v3.5c0,0.4,0,0.7,0.1,0.9c0.1,0.3,0.5,0.5,0.9,0.5c0.5,0,0.8-0.2,0.9-0.5
		c0.1-0.2,0.1-0.5,0.1-0.9v-3.5h1.2v3.5c0,0.6-0.1,1.1-0.3,1.4c-0.4,0.6-1,0.9-2,0.9s-1.7-0.3-2-0.9c-0.2-0.3-0.3-0.8-0.3-1.4V210.2
		z"/>
	<path class="st2" d="M230.9,210.8c0.2,0.2,0.3,0.5,0.3,0.9c0,0.4-0.1,0.6-0.3,0.8c-0.1,0.1-0.2,0.2-0.4,0.3
		c0.3,0.1,0.5,0.3,0.7,0.5c0.2,0.2,0.2,0.5,0.2,0.8c0,0.3-0.1,0.6-0.3,0.9c-0.1,0.2-0.2,0.3-0.4,0.5c-0.2,0.1-0.4,0.2-0.7,0.3
		s-0.5,0.1-0.8,0.1h-2.6v-5.8h2.8C230.1,210.2,230.6,210.4,230.9,210.8z M227.8,211.2v1.3h1.4c0.2,0,0.5,0,0.6-0.1
		c0.2-0.1,0.2-0.3,0.2-0.5c0-0.3-0.1-0.4-0.3-0.5c-0.2-0.1-0.4-0.1-0.7-0.1H227.8z M227.8,213.4v1.5h1.4c0.2,0,0.4,0,0.6-0.1
		c0.3-0.1,0.4-0.4,0.4-0.7c0-0.3-0.1-0.5-0.4-0.6c-0.1-0.1-0.3-0.1-0.6-0.1H227.8z"/>
</g>
<path id="shape-504557-1000523040" class="st3" d="M194.4,219.6l0-16.3l36.5,0.1l0,16.3L194.4,219.6z"/>
<path id="SvgjsPath1161" class="st4" d="M153.8,244.2l0-20.7l36.5,0.1l0,20.7L153.8,244.2z"/>
<g class="st1">
	<path class="st2" d="M168.9,232.8c0.2,0.2,0.3,0.5,0.3,0.9c0,0.4-0.1,0.6-0.3,0.8c-0.1,0.1-0.2,0.2-0.4,0.3
		c0.3,0.1,0.5,0.3,0.7,0.5c0.1,0.2,0.2,0.5,0.2,0.8c0,0.3-0.1,0.6-0.3,0.9c-0.1,0.2-0.2,0.3-0.4,0.5c-0.2,0.1-0.4,0.2-0.7,0.3
		c-0.2,0.1-0.5,0.1-0.8,0.1h-2.6v-5.8h2.8C168.1,232.2,168.6,232.4,168.9,232.8z M165.8,233.2v1.3h1.4c0.2,0,0.5,0,0.6-0.1
		s0.2-0.3,0.2-0.5c0-0.3-0.1-0.4-0.3-0.5c-0.2-0.1-0.4-0.1-0.7-0.1H165.8z M165.8,235.4v1.5h1.4c0.2,0,0.4,0,0.6-0.1
		c0.3-0.1,0.4-0.4,0.4-0.7c0-0.3-0.1-0.5-0.4-0.6c-0.1-0.1-0.3-0.1-0.6-0.1H165.8z"/>
	<path class="st2" d="M173.8,232.3c0.4,0.1,0.7,0.4,1,0.7c0.2,0.3,0.3,0.6,0.4,0.9c0.1,0.3,0.1,0.7,0.1,1c0,0.8-0.2,1.4-0.5,1.9
		c-0.4,0.7-1.1,1.1-1.9,1.1h-2.5v-5.8h2.5C173.2,232.2,173.5,232.2,173.8,232.3z M171.6,233.2v3.8h1.1c0.6,0,1-0.3,1.2-0.8
		c0.1-0.3,0.2-0.7,0.2-1.1c0-0.6-0.1-1-0.3-1.3s-0.5-0.5-1.1-0.5H171.6z"/>
	<path class="st2" d="M180.5,232.8c0.2,0.2,0.3,0.5,0.3,0.9c0,0.4-0.1,0.6-0.3,0.8c-0.1,0.1-0.2,0.2-0.4,0.3
		c0.3,0.1,0.5,0.3,0.7,0.5c0.1,0.2,0.2,0.5,0.2,0.8c0,0.3-0.1,0.6-0.3,0.9c-0.1,0.2-0.2,0.3-0.4,0.5c-0.2,0.1-0.4,0.2-0.7,0.3
		c-0.2,0.1-0.5,0.1-0.8,0.1h-2.6v-5.8h2.8C179.7,232.2,180.2,232.4,180.5,232.8z M177.3,233.2v1.3h1.4c0.2,0,0.5,0,0.6-0.1
		s0.2-0.3,0.2-0.5c0-0.3-0.1-0.4-0.3-0.5c-0.2-0.1-0.4-0.1-0.7-0.1H177.3z M177.3,235.4v1.5h1.4c0.2,0,0.4,0,0.6-0.1
		c0.3-0.1,0.4-0.4,0.4-0.7c0-0.3-0.1-0.5-0.4-0.6c-0.1-0.1-0.3-0.1-0.6-0.1H177.3z"/>
</g>
<path id="shape-504557-1000523041" class="st3" d="M153.8,244.2l0-20.7l36.5,0.1l0,20.7L153.8,244.2z"/>
<path id="SvgjsPath1165" class="st5" d="M9.1,64.9L58.6,65l-0.3,130.5l-49.5-0.1L9.1,64.9z"/>
<path id="shape-504558-1000523042" class="st3" d="M9.1,64.9L58.6,65l-0.3,130.5l-49.5-0.1L9.1,64.9z"/>
</svg>
