<?xml version="1.0" encoding="utf-8"?>
<!-- Generator: Adobe Illustrator 19.1.0, SVG Export Plug-In . SVG Version: 6.00 Build 0)  -->
<svg version="1.1" id="Layer_1" xmlns="http://www.w3.org/2000/svg" xmlns:xlink="http://www.w3.org/1999/xlink" x="0px" y="0px"
	 viewBox="-47 51.3 43.6 39.7" style="enable-background:new -47 51.3 43.6 39.7;" xml:space="preserve">
<style type="text/css">
	.st0{fill:#EAB234;}
	.st1{fill:#FED265;}
</style>
<path class="st0" d="M-12.2,55.4l-2.8-2.8c0,0-2.1-2.1-4.2,0l-3.9,3.9c0.6,0.6,0.6,1.5,0,2.1s-1.5,0.6-2.1,0l-15.9,16
	c-2.1,2.1,0,4.2,0,4.2l2.8,2.8c1.2-1.2,3.1-1.2,4.2,0c1.2,1.2,1.2,3.1,0,4.2l2.8,2.8c2.1,2.1,4.2,0,4.2,0s9.8-9.9,15.9-16
	c-0.6-0.6-0.6-1.5,0-2.1c0.6-0.6,1.5-0.6,2.1,0c1.8-1.8,3.2-3.2,3.9-3.9c2.1-2.1,0-4.2,0-4.2l-2.7-2.7c-1.2,1.2-3.1,1.2-4.2,0
	C-13.4,58.5-13.4,56.6-12.2,55.4z M-12.6,69.2c-0.6,0.6-1.5,0.6-2.1,0c-0.6-0.6-0.6-1.5,0-2.1s1.5-0.6,2.1,0
	C-11.9,67.8-11.9,68.7-12.6,69.2z M-16.1,65.8c-0.6,0.6-1.5,0.6-2.1,0s-0.6-1.5,0-2.1c0.6-0.6,1.5-0.6,2.1,0
	C-15.6,64.2-15.6,65.2-16.1,65.8z M-19.6,62.1c-0.6,0.6-1.5,0.6-2.1,0s-0.6-1.5,0-2.1s1.5-0.6,2.1,0S-19,61.6-19.6,62.1z"/>
<path class="st1" d="M-16.2,56.4l-2.8-2.8c0,0-2.1-2.1-4.2,0l-3.9,3.9c0.6,0.6,0.6,1.5,0,2.1s-1.5,0.6-2.1,0l-15.9,16
	c-2.1,2.1,0,4.2,0,4.2l2.8,2.8c1.2-1.2,3.1-1.2,4.2,0c1.2,1.2,1.2,3.1,0,4.2l2.8,2.8c2.1,2.1,4.2,0,4.2,0s9.8-9.9,15.9-16
	c-0.6-0.6-0.6-1.5,0-2.1s1.5-0.6,2.1,0c1.8-1.8,3.2-3.2,3.9-3.9c2.1-2.1,0-4.2,0-4.2l-2.8-2.7c-1.2,1.2-3.1,1.2-4.2,0
	C-17.4,59.5-17.4,57.6-16.2,56.4z M-16.6,70.2c-0.6,0.6-1.5,0.6-2.1,0s-0.6-1.5,0-2.1s1.5-0.6,2.1,0C-16,68.8-16,69.7-16.6,70.2z
	 M-20.1,66.8c-0.6,0.6-1.5,0.6-2.1,0s-0.6-1.5,0-2.1s1.5-0.6,2.1,0C-19.5,65.2-19.5,66.2-20.1,66.8z M-23.6,63.1
	c-0.6,0.6-1.5,0.6-2.1,0s-0.6-1.5,0-2.1s1.5-0.6,2.1,0C-23.1,61.6-23.1,62.6-23.6,63.1z"/>
</svg>
